[Info]
Version 1
Dimension 2
NumNodes 100
Num3DElements 0
Num2DElements 81
Num1DElements 0
NumNodeBC 44
NumSaveNodes 0
NumSaveElements 0
Num 2d-line      : 0
Num 2d-line,quad : 0
Num 3d-line      : 0
Num 3d-line,quad : 0
Num triangle     : 0
Num triangle,quad: 0
Num quadr        : 81
Num quadr,quad   : 0
Num tetra        : 0
Num tetra,quad   : 0
Num brick        : 0
Num brick,quad   : 0
Num pyramid      : 0
Num pyramid,quad : 0
Num wedge        : 0
Num wedge,quad   : 0

[Nodes]
#NodeNr x-coord y-coord z-coord
1  0.0  0.0  0.0
2  0.111111111111  0.0  0.0
3  0.222222222222  0.0  0.0
4  0.333333333333  0.0  0.0
5  0.444444444444  0.0  0.0
6  0.555555555556  0.0  0.0
7  0.666666666667  0.0  0.0
8  0.777777777778  0.0  0.0
9  0.888888888889  0.0  0.0
10  1.0  0.0  0.0
11  0.0  0.111111111111  0.0
12  0.111111111111  0.111111111111  0.0
13  0.222222222222  0.111111111111  0.0
14  0.333333333333  0.111111111111  0.0
15  0.444444444444  0.111111111111  0.0
16  0.555555555556  0.111111111111  0.0
17  0.666666666667  0.111111111111  0.0
18  0.777777777778  0.111111111111  0.0
19  0.888888888889  0.111111111111  0.0
20  1.0  0.111111111111  0.0
21  0.0  0.222222222222  0.0
22  0.111111111111  0.222222222222  0.0
23  0.222222222222  0.222222222222  0.0
24  0.333333333333  0.222222222222  0.0
25  0.444444444444  0.222222222222  0.0
26  0.555555555556  0.222222222222  0.0
27  0.666666666667  0.222222222222  0.0
28  0.777777777778  0.222222222222  0.0
29  0.888888888889  0.222222222222  0.0
30  1.0  0.222222222222  0.0
31  0.0  0.333333333333  0.0
32  0.111111111111  0.333333333333  0.0
33  0.222222222222  0.333333333333  0.0
34  0.333333333333  0.333333333333  0.0
35  0.444444444444  0.333333333333  0.0
36  0.555555555556  0.333333333333  0.0
37  0.666666666667  0.333333333333  0.0
38  0.777777777778  0.333333333333  0.0
39  0.888888888889  0.333333333333  0.0
40  1.0  0.333333333333  0.0
41  0.0  0.444444444444  0.0
42  0.111111111111  0.444444444444  0.0
43  0.222222222222  0.444444444444  0.0
44  0.333333333333  0.444444444444  0.0
45  0.444444444444  0.444444444444  0.0
46  0.555555555556  0.444444444444  0.0
47  0.666666666667  0.444444444444  0.0
48  0.777777777778  0.444444444444  0.0
49  0.888888888889  0.444444444444  0.0
50  1.0  0.444444444444  0.0
51  0.0  0.555555555556  0.0
52  0.111111111111  0.555555555556  0.0
53  0.222222222222  0.555555555556  0.0
54  0.333333333333  0.555555555556  0.0
55  0.444444444444  0.555555555556  0.0
56  0.555555555556  0.555555555556  0.0
57  0.666666666667  0.555555555556  0.0
58  0.777777777778  0.555555555556  0.0
59  0.888888888889  0.555555555556  0.0
60  1.0  0.555555555556  0.0
61  0.0  0.666666666667  0.0
62  0.111111111111  0.666666666667  0.0
63  0.222222222222  0.666666666667  0.0
64  0.333333333333  0.666666666667  0.0
65  0.444444444444  0.666666666667  0.0
66  0.555555555556  0.666666666667  0.0
67  0.666666666667  0.666666666667  0.0
68  0.777777777778  0.666666666667  0.0
69  0.888888888889  0.666666666667  0.0
70  1.0  0.666666666667  0.0
71  0.0  0.777777777778  0.0
72  0.111111111111  0.777777777778  0.0
73  0.222222222222  0.777777777778  0.0
74  0.333333333333  0.777777777778  0.0
75  0.444444444444  0.777777777778  0.0
76  0.555555555556  0.777777777778  0.0
77  0.666666666667  0.777777777778  0.0
78  0.777777777778  0.777777777778  0.0
79  0.888888888889  0.777777777778  0.0
80  1.0  0.777777777778  0.0
81  0.0  0.888888888889  0.0
82  0.111111111111  0.888888888889  0.0
83  0.222222222222  0.888888888889  0.0
84  0.333333333333  0.888888888889  0.0
85  0.444444444444  0.888888888889  0.0
86  0.555555555556  0.888888888889  0.0
87  0.666666666667  0.888888888889  0.0
88  0.777777777778  0.888888888889  0.0
89  0.888888888889  0.888888888889  0.0
90  1.0  0.888888888889  0.0
91  0.0  1.0  0.0
92  0.111111111111  1.0  0.0
93  0.222222222222  1.0  0.0
94  0.333333333333  1.0  0.0
95  0.444444444444  1.0  0.0
96  0.555555555556  1.0  0.0
97  0.666666666667  1.0  0.0
98  0.777777777778  1.0  0.0
99  0.888888888889  1.0  0.0
100  1.0  1.0  0.0

[1D Elements]
#ElemNr  ElemType  NrOfNodes  Level
#Node1 Node2 ... NodeNrOfNodes

[2D Elements]
#ElemNr  ElemType  NrOfNodes  Level
#Node1 Node2 ... NodeNrOfNodes
1 6 4 mech
1 2 12 11
2 6 4 mech
2 3 13 12
3 6 4 mech
3 4 14 13
4 6 4 mech
4 5 15 14
5 6 4 mech
5 6 16 15
6 6 4 mech
6 7 17 16
7 6 4 mech
7 8 18 17
8 6 4 mech
8 9 19 18
9 6 4 mech
9 10 20 19
10 6 4 mech
11 12 22 21
11 6 4 mech
12 13 23 22
12 6 4 mech
13 14 24 23
13 6 4 mech
14 15 25 24
14 6 4 mech
15 16 26 25
15 6 4 mech
16 17 27 26
16 6 4 mech
17 18 28 27
17 6 4 mech
18 19 29 28
18 6 4 mech
19 20 30 29
19 6 4 mech
21 22 32 31
20 6 4 mech
22 23 33 32
21 6 4 mech
23 24 34 33
22 6 4 mech
24 25 35 34
23 6 4 mech
25 26 36 35
24 6 4 mech
26 27 37 36
25 6 4 mech
27 28 38 37
26 6 4 mech
28 29 39 38
27 6 4 mech
29 30 40 39
28 6 4 mech
31 32 42 41
29 6 4 mech
32 33 43 42
30 6 4 mech
33 34 44 43
31 6 4 mech
34 35 45 44
32 6 4 mech
35 36 46 45
33 6 4 mech
36 37 47 46
34 6 4 mech
37 38 48 47
35 6 4 mech
38 39 49 48
36 6 4 mech
39 40 50 49
37 6 4 mech
41 42 52 51
38 6 4 mech
42 43 53 52
39 6 4 mech
43 44 54 53
40 6 4 mech
44 45 55 54
41 6 4 mech
45 46 56 55
42 6 4 mech
46 47 57 56
43 6 4 mech
47 48 58 57
44 6 4 mech
48 49 59 58
45 6 4 mech
49 50 60 59
46 6 4 mech
51 52 62 61
47 6 4 mech
52 53 63 62
48 6 4 mech
53 54 64 63
49 6 4 mech
54 55 65 64
50 6 4 mech
55 56 66 65
51 6 4 mech
56 57 67 66
52 6 4 mech
57 58 68 67
53 6 4 mech
58 59 69 68
54 6 4 mech
59 60 70 69
55 6 4 mech
61 62 72 71
56 6 4 mech
62 63 73 72
57 6 4 mech
63 64 74 73
58 6 4 mech
64 65 75 74
59 6 4 mech
65 66 76 75
60 6 4 mech
66 67 77 76
61 6 4 mech
67 68 78 77
62 6 4 mech
68 69 79 78
63 6 4 mech
69 70 80 79
64 6 4 mech
71 72 82 81
65 6 4 mech
72 73 83 82
66 6 4 mech
73 74 84 83
67 6 4 mech
74 75 85 84
68 6 4 mech
75 76 86 85
69 6 4 mech
76 77 87 86
70 6 4 mech
77 78 88 87
71 6 4 mech
78 79 89 88
72 6 4 mech
79 80 90 89
73 6 4 mech
81 82 92 91
74 6 4 mech
82 83 93 92
75 6 4 mech
83 84 94 93
76 6 4 mech
84 85 95 94
77 6 4 mech
85 86 96 95
78 6 4 mech
86 87 97 96
79 6 4 mech
87 88 98 97
80 6 4 mech
88 89 99 98
81 6 4 mech
89 90 100 99

[3D Elements]
#ElemNr  ElemType  NrOfNodes  Level
#Node1 Node2 ... NodeNrOfNodes

[Node BC]
#NodeNr Level
1 south
2 south
3 south
4 south
5 south
6 south
7 south
8 south
9 south
10 south
91 north
92 north
93 north
94 north
95 north
96 north
97 north
98 north
99 north
100 north
1 west
11 west
21 west
31 west
41 west
51 west
61 west
71 west
81 west
91 west
10 east
20 east
30 east
40 east
50 east
60 east
70 east
80 east
90 east
100 east
1 left_lower
10 right_lower
91 left_upper
100 right_upper

[Save Nodes]
#NodeNr Level

[Save Elements]
#ElemNr Level

