
0                         1.0000314793157
8.33E-4                   0.9932956937808911
0.001667                  0.9865773171985216
0.0025                    0.9799118801994271
0.003333                  0.9732927341018036
0.004167                  0.9667103179651482
0.005                     0.9601801048349935
0.005833                  0.9536938497619832
0.006667                  0.947243480663187
0.0075                    0.9408441494949452
0.008333                  0.9344878461544788
0.009167                  0.9281666534821843
0.01                      0.9218954241482745
0.010833                  0.9156663085822934
0.011667                  0.9094715490371964
0.0125                    0.9033257020130626
0.013333                  0.8972210760111972
0.014167                  0.8911500693547023
0.015                     0.8851269489448211
0.015833                  0.8791441782272895
0.016667                  0.873194308540091
0.0175                    0.8672913235419398
0.018333                  0.8614278385772859
0.019167                  0.8555965550093927
0.02                      0.849811179444542
0.020833                  0.8440644761458629
0.021667                  0.8383492935785938
0.0225                    0.8326790673154287
0.023333                  0.8270467076213184
0.024167                  0.821445207204499
0.025                     0.815887736447042
0.025833                  0.8103673487599905
0.026667                  0.8048771782972309
0.0275                    0.7994301359136021
0.028333                  0.7940194153692949
0.029167                  0.7886382895255789
0.03                      0.7832994151906568
0.030833                  0.7779961237335574
0.031667                  0.7727218240409627
0.0325                    0.7674889241700599
0.033333                  0.7622908904122426
0.034167                  0.7571212650518248
0.035                     0.7519922125034068
0.035833                  0.7468973313464048
0.036667                  0.7418302946859477
0.0375                    0.7368030282150387
0.038333                  0.7318092602160289
0.039167                  0.7268427920870182
0.04                      0.7219153155324782
0.040833                  0.7170206860002548
0.041667                  0.7121528306993293
0.0425                    0.7073232118926429
0.043333                  0.7025258097008759
0.044167                  0.6977546747055441
0.045                     0.6930210440905904
0.045833                  0.6883190202003378
0.046667                  0.6836427745908248
0.0475                    0.6790033235496215
0.048333                  0.6743948892354626
0.049167                  0.6698117618204043
0.05                      0.6652647407012018
0.050833                  0.6607481654815005
0.051667                  0.6562564426264584
0.0525                    0.651800158477673
0.053333                  0.6473737677507581
0.054167                  0.642971790915536
0.055                     0.6386046049302337
0.055833                  0.6342667773251762
0.056667                  0.629952940318022
0.0575                    0.6256732650003245
0.058333                  0.6214224294532407
0.059167                  0.6171951754159123
0.06                      0.6130014714832835
0.060833                  0.6088361040561215
0.061667                  0.6046939221968267
0.0625                    0.6005846952381236
0.063333                  0.5965033156998706
0.064167                  0.5924447377968096
0.065                     0.5884185347089309
0.065833                  0.5844197029047933
0.066667                  0.5804432996061767
0.0675                    0.5764987048374343
0.068333                  0.5725810168745419
0.069167                  0.5686853938258123
0.07                      0.5648210254577114
0.070833                  0.560983109741034
0.071667                  0.5571669035736968
0.0725                    0.5533814092770454
0.073333                  0.549621922431488
0.074167                  0.5458837966521022
0.075                     0.542175849556041
0.075833                  0.5384934722767712
0.076667                  0.5348321130967203
0.0775                    0.5312004076141614
0.078333                  0.5275938404870284
0.079167                  0.5240079526384771
0.08                      0.5204512002930254
0.080833                  0.5169191596318696
0.081667                  0.5134074622171203
0.0825                    0.509924387518372
0.083333                  0.5064656012685456
0.084167                  0.503026823690655
0.085                     0.49961616010892096
0.085833                  0.4962293638653881
0.086667                  0.49286224189211797
0.0875                    0.4895227279819936
0.088333                  0.48620666117466277
0.089167                  0.48290993318541553
0.09                      0.4796403089106667
0.090833                  0.47639371120667534
0.091667                  0.4731661146755417
0.0925                    0.46996511798482266
0.093333                  0.46678672596047643
0.094167                  0.4636269942238825
0.095                     0.46049335792953394
0.095833                  0.45738190205945156
0.096667                  0.4542887614196657
0.0975                    0.4512212104256784
0.098333                  0.4481754124387993
0.099167                  0.4451475796480506
0.1                       0.44214482857509857
0.100833                  0.4391633992202845
0.101667                  0.43619957939095966
0.1025                    0.4332603306388071
0.103333                  0.4303419679028474
0.104167                  0.42744085288162925
0.105                     0.4245637951686444
0.105833                  0.4217071829814221
0.106667                  0.4188674502235009
0.1075                    0.4160512576348146
0.108333                  0.4132550650939035
0.109167                  0.4104753770654061
0.11                      0.40771870863781884
0.110833                  0.4049815897765096
0.111667                  0.402260593908494
0.1125                    0.3995620937716121
0.113333                  0.3968826878893896
0.114167                  0.39421901709850476
0.115                     0.3915773151863143
0.115833                  0.3889542477513214
0.116667                  0.3863465215362363
0.1175                    0.3837602348735582
0.118333                  0.38119211900119815
0.119167                  0.378638945113772
0.12                      0.37610667967604156
0.120833                  0.37359211817731985
0.121667                  0.37109209486116845
0.1225                    0.3686124479958365
0.123333                  0.36615003598196877
0.124167                  0.3637017547615373
0.125                     0.36127331815167574
0.125833                  0.35886164617283106
0.126667                  0.35646369516742427
0.1275                    0.3540850583098452
0.128333                  0.35172271599672905
0.129167                  0.3493736837262774
0.13                      0.34704343788755404
0.130833                  0.34472901805737083
0.131667                  0.3424274976981745
0.1325                    0.34014424030444157
0.133333                  0.3378763434841638
0.134167                  0.3356209375250891
0.135                     0.33338327693411207
0.135833                  0.3311605162470935
0.136667                  0.32894984149075773
0.1375                    0.3267564020876062
0.138333                  0.32457740844329974
0.139167                  0.3224101012878665
0.14                      0.3202595288400669
0.140833                  0.3181229563601999
0.141667                  0.3159976782958569
0.1425                    0.313888645498287
0.143333                  0.31179317710861587
0.144167                  0.3097086203549374
0.145                     0.30763983249030036
0.145833                  0.3055841856032339
0.146667                  0.30353907881129866
0.1475                    0.30150927945010264
0.148333                  0.29949221165979845
0.149167                  0.2974853256009972
0.15                      0.2954933022612586
0.150833                  0.29351361697213585
0.151667                  0.29154377013343263
0.1525                    0.28958835981982056
0.153333                  0.28764491172838624
0.154167                  0.28571097573312626
0.155                     0.2837910702763298
0.155833                  0.2818827706251268
0.156667                  0.27998367540078817
0.1575                    0.2780982265161848
0.158333                  0.27622404804263595
0.159167                  0.27435878665567714
0.16                      0.2725068106453234
0.160833                  0.27066579214751907
0.161667                  0.26883342523065895
0.1625                    0.26701400725271046
0.163333                  0.26520525769924586
0.164167                  0.2634049173976307
0.165                     0.26161721523279097
0.165833                  0.2598399173456311
0.166667                  0.2580708107141246
0.1675                    0.25631405796070417
0.168333                  0.25456747120648066
0.169167                  0.2528288829925691
0.17                      0.2511023916286715
0.170833                  0.24938585455651824
0.171667                  0.24767714931056142
0.1725                    0.24598031156513048
0.173333                  0.24429324343620212
0.174167                  0.24261386689456382
0.175                     0.24094615637638883
0.175833                  0.23928805803428152
0.176667                  0.237637537728178
0.1775                    0.23599850976583417
0.178333                  0.2343689637054005
0.179167                  0.23274690875275517
0.18                      0.23113619990724799
0.180833                  0.229534869503197
0.181667                  0.22794096954933646
0.1825                    0.22635829626538173
0.183333                  0.22478492413114257
0.184167                  0.2232189474092536
0.185                     0.22166410378022355
0.185833                  0.2201185092328419
0.186667                  0.21858029972367735
0.1875                    0.21705315435152095
0.188333                  0.21553522996692315
0.189167                  0.21402470364447995
0.19                      0.21252519558370395
0.190833                  0.2110349028349906
0.191667                  0.2095520429929797
0.1925                    0.20808017677704613
0.193333                  0.20661754075655542
0.194167                  0.20516239241961
0.195                     0.2037182321772623
0.195833                  0.20228333541214052
0.196667                  0.20085599884658445
0.1975                    0.19943966152436032
0.198333                  0.1980326369079396
0.199167                  0.19663326025510855
0.2                       0.19524490797579958
0.200833                  0.1938659308457156
0.201667                  0.1924947019157005
0.2025                    0.1911345335120612
0.203333                  0.1897838129209728
0.204167                  0.1884409501955063
0.205                     0.18710919197403136
0.205833                  0.18578696121133909
0.206667                  0.18447270411949246
0.2075                    0.18316959992278706
0.208333                  0.18187610636100088
0.209167                  0.18059070490766213
0.21                      0.17931650555984974
0.210833                  0.17805199991635212
0.211667                  0.17679570375879164
0.2125                    0.17555065599603017
0.213333                  0.17431538111761347
0.214167                  0.173088428204456
0.215                     0.1718727632100547
0.215833                  0.17066694250639894
0.216667                  0.16946954741094913
0.2175                    0.1682834690939207
0.218333                  0.16710729476407843
0.219167                  0.1659396368635644
0.22                      0.16478331003687835
0.220833                  0.16363693125260872
0.221667                  0.16249914292184664
0.2225                    0.1613726815560715
0.223333                  0.16025619278203215
0.224167                  0.15914834778858
0.225                     0.15805180353177065
0.225833                  0.156965233179552
0.226667                  0.15588733548124883
0.2275                    0.1548206866512967
0.228333                  0.153763986276267
0.229167                  0.15271595943521207
0.23                      0.1516791007000642
0.230833                  0.15065213496044644
0.231667                  0.14963381239370066
0.2325                    0.14862654536243528
0.233333                  0.1476290829632144
0.234167                  0.14664019925424374
0.235                     0.14566222420107722
0.235833                  0.1446939300443328
0.236667                  0.14373411353448665
0.2375                    0.14278502247259992
0.238333                  0.1418454512268404
0.239167                  0.14091421809553037
0.24                      0.13999348940344222
0.240833                  0.13908208068881622
0.241667                  0.1381788307123851
0.2425                    0.13728582549455196
0.243333                  0.13640190085706244
0.244167                  0.13552591500967417
0.245                     0.13465987534428647
0.245833                  0.13380263716044524
0.246667                  0.13295307718650662
0.2475                    0.13211312637731923
0.248333                  0.13128165879187753
0.249167                  0.13045756883965146
0.25                      0.12964271374524355
0.250833                  0.12883598570150348
0.251667                  0.12803629605986397
0.2525                    0.12724543152784756
0.253333                  0.1264623019003254
0.254167                  0.12568583483248255
0.255                     0.12491775021410297
0.255833                  0.1241569750020007
0.256667                  0.12340245261834237
0.2575                    0.1226558402886423
0.258333                  0.12191608177911678
0.259167                  0.12118213583912107
0.26                      0.12045560159789429
0.260833                  0.1197354393570365
0.261667                  0.11902062284506575
0.2625                    0.11831269802614049
0.263333                  0.11761064153355724
0.264167                  0.11691344180815319
0.265                     0.11622259688722682
0.265833                  0.11553709958921587
0.266667                  0.11485595287275678
0.2675                    0.11418061232846433
0.268333                  0.11351008685866366
0.269167                  0.11284339380526434
0.27                      0.11218195196701822
0.270833                  0.11152478626058823
0.271667                  0.11087092832548275
0.2725                    0.1102217659263126
0.273333                  0.10957633994532613
0.274167                  0.10893369627034989
0.275                     0.10829519742167018
0.275833                  0.10765990020718315
0.276667                  0.10702686474162826
0.2775                    0.10639743405070075
0.278333                  0.10577068082891834
0.279167                  0.10514567941536195
0.28                      0.1045237589831612
0.280833                  0.103904008068158
0.281667                  0.10328551524503526
0.2825                    0.10266960130285256
0.283333                  0.10205537056458304
0.284167                  0.10144192586204019
0.285                     0.10083058483478297
0.285833                  0.1002204675297288
0.286667                  0.09961069106683934
0.2875                    0.09900257488300089
0.288333                  0.09839525467794115
0.289167                  0.09778786190455589
0.29                      0.09718172240525497
0.290833                  0.09657598746130537
0.291667                  0.09596980292013134
0.2925                    0.09536450525850065
0.293333                  0.09475926127402821
0.294167                  0.09415323129662505
0.295                     0.09354776624870345
0.295833                  0.09294204839693654
0.296667                  0.09233525267678289
0.2975                    0.09172874782027543
0.298333                  0.09112173154541899
0.299167                  0.09051339356300139
0.3                       0.08990512330650763
0.300833                  0.08929613397070571
0.301667                  0.0886856302708784
0.3025                    0.08807502474124115
0.303333                  0.08746354613685303
0.304167                  0.08685041447907005
0.305                     0.08623706729436792
0.305833                  0.08562274905406381
0.306667                  0.08500669547251484
0.3075                    0.08439037044112013
0.308333                  0.08377303438950004
0.309167                  0.08315393921088435
0.31                      0.08253457600540369
0.310833                  0.08191422150348512
0.311667                  0.08129214437196819
0.3125                    0.08066986322947813
0.313333                  0.08004667156039645
0.314167                  0.07942185551913697
0.315                     0.07879696101224826
0.315833                  0.07817129885089817
0.316667                  0.0775441735169395
0.3175                    0.07691715742808679
0.318333                  0.07628957942079984
0.319167                  0.07566076327198183
0.32                      0.07503230658208104
0.320833                  0.0744035570366011
0.321667                  0.07377385880160958
0.3225                    0.07314483277057637
0.323333                  0.07251584642272296
0.324167                  0.07188626552430241
0.325                     0.07125773179932535
0.325833                  0.07062963357311929
0.326667                  0.07000135952360644
0.3275                    0.06937456915269614
0.328333                  0.06874867276990099
0.329167                  0.06812308335000056
0.33                      0.06749947450587308
0.330833                  0.066877279722576
0.331667                  0.06625593769010038
0.3325                    0.06563713182087663
0.333333                  0.0650203199717763
0.334167                  0.06440496794631538
0.335                     0.06379276395906355
0.335833                  0.0631831913779556
0.336667                  0.0625757444252854
0.3375                    0.06197211038522934
0.338333                  0.06137179913690206
0.339167                  0.06077433444259078
0.34                      0.06018139612877773
0.340833                  0.0595925213457032
0.341667                  0.05900726422046902
0.3425                    0.05842728973306822
0.343333                  0.05785216270402834
0.344167                  0.05728146802043547
0.345                     0.056716847496626956
0.345833                  0.056157893523191074
0.346667                  0.05560422156300023
0.3475                    0.05505744095154402
0.348333                  0.05451717090017095
0.349167                  0.05398305652464165
0.35                      0.05345666432915858
0.350833                  0.05293763879803756
0.351667                  0.052425652881779534
0.3525                    0.051922218855188364
0.353333                  0.0514270039956536
0.354167                  0.050939706242871884
0.355                     0.050461771253523725
0.355833                  0.049992885594309
0.356667                  0.04953276823771385
0.3575                    0.049082784991139355
0.358333                  0.04864263716099617
0.359167                  0.048212059682540116
0.36                      0.04779232471248088
0.360833                  0.047383142780146104
0.361667                  0.046984258710842566
0.3625                    0.046596837059829456
0.363333                  0.04622059130363832
0.364167                  0.04585526932997148
0.365                     0.0455019145764009
0.365833                  0.04516023678156481
0.366667                  0.04482997970880712
0.3675                    0.044512053329262974
0.368333                  0.044206157033249815
0.369167                  0.04391202343904812
0.37                      0.04363041870836684
0.370833                  0.043361025925235525
0.371667                  0.04310356031522268
0.3725                    0.04285863675496596
0.373333                  0.042625917318604864
0.374167                  0.042405094973155165
0.375                     0.04219662947706268
0.375833                  0.04200015897779933
0.376667                  0.041815351212194506
0.3775                    0.0416425111994265
0.378333                  0.041481252394939876
0.379167                  0.041331216548959986
0.38                      0.04119255879266777
0.380833                  0.04106486939626581
0.381667                  0.040947765644148086
0.3825                    0.04084126199433621
0.383333                  0.04074492915442966
0.384167                  0.04065836352401543
0.385                     0.040581451993901146
0.385833                  0.04051375103309256
0.386667                  0.04045484134011415
0.3875                    0.0404044984630248
0.388333                  0.04036227105976286
0.389167                  0.04032773029548404
0.39                      0.04030055876173352
0.390833                  0.040280304155438436
0.391667                  0.0402665345871092
0.3925                    0.04025885923038471
0.393333                  0.04025683143641313
0.394167                  0.040260022426720485
0.395                     0.040267987705550484
0.395833                  0.0402802921135729
0.396667                  0.04029651533583761
0.3975                    0.040316178380341725
0.398333                  0.04033886224957295
0.399167                  0.04036415929868869
0.4                       0.04039157405267768
0.400833                  0.04042070698041827
0.401667                  0.04045116600646451
0.4025                    0.040482455649311785
0.403333                  0.0405141977386959
0.404167                  0.04054601734834148
0.405                     0.040577433739277774
0.405833                  0.040608090669709225
0.406667                  0.040637630724863066
0.4075                    0.04066560088403579
0.408333                  0.0406916662443725
0.409167                  0.040715486220296235
0.41                      0.04073664677028441
0.410833                  0.040754832797467416
0.411667                  0.04076971902731578
0.4125                    0.04078094006478851
0.413333                  0.040788198369503134
0.414167                  0.04079118183866907
0.415                     0.040789581949920085
0.415833                  0.04078311597042697
0.416667                  0.04077148240887499
0.4175                    0.040754436562354446
0.418333                  0.04073170744922534
0.419167                  0.04070300138445466
0.42                      0.0406681433061215
0.420833                  0.040626870781710636
0.421667                  0.04057889502802197
0.4225                    0.04052411545959877
0.423333                  0.04046227497503512
0.424167                  0.04039308680386434
0.425                     0.04031652880787192
0.425833                  0.040232346081317864
0.426667                  0.04014025108021594
0.4275                    0.040040303320946165
0.428333                  0.03993224711323241
0.429167                  0.03981579151870465
0.43                      0.039691080236182126
0.430833                  0.03955785401621029
0.431667                  0.03941581611283834
0.4325                    0.03926519632438163
0.433333                  0.03910572930486344
0.434167                  0.03893711032265242
0.435                     0.038759656636236546
0.435833                  0.038573094522412726
0.436667                  0.038377109334445866
0.4375                    0.03817210664068885
0.438333                  0.03795780232400532
0.439167                  0.03773387014784774
0.44                      0.03750080436473976
0.440833                  0.03725830871203221
0.441667                  0.037006043941464915
0.4425                    0.03674459291901226
0.443333                  0.03647364574490216
0.444167                  0.036192848984395905
0.445                     0.03590287362591132
0.445833                  0.035603394892651186
0.446667                  0.03529404422673015
0.4475                    0.034975579849112454
0.448333                  0.03464766110717146
0.449167                  0.03430990361008084
0.45                      0.033963151541613584
0.450833                  0.03360704760343137
0.451667                  0.03324119107667171
0.4525                    0.03286651047568227
0.453333                  0.032482631302383574
0.454167                  0.032089136217052346
0.455                     0.0316870360853779
0.455833                  0.03127593885897036
0.456667                  0.030855410473117316
0.4575                    0.03042654183474877
0.458333                  0.029988923184244082
0.459167                  0.029542103804343193
0.46                      0.02908725201671111
0.460833                  0.028623940366980554
0.461667                  0.0281517017214693
0.4625                    0.02767177888873374
0.463333                  0.0271837269012196
0.464167                  0.026687062596284977
0.465                     0.026183100055562836
0.465833                  0.02567137713261319
0.466667                  0.02515139516325177
0.4675                    0.024624536017292063
0.468333                  0.024090320845335328
0.469167                  0.02354823613728791
0.47                      0.02299972781113262
0.470833                  0.022444300920701973
0.471667                  0.02188142788317175
0.4725                    0.02131261468524161
0.473333                  0.02073735101002841
0.474167                  0.020155096081952876
0.475                     0.019567411754101687
0.475833                  0.018973773174344212
0.476667                  0.018373627350958707
0.4775                    0.017768587595033004
0.478333                  0.017158115454149508
0.479167                  0.016541646783789506
0.48                      0.015920841755718677
0.480833                  0.015295149342129867
0.481667                  0.014663995386156325
0.4825                    0.0140290821516323
0.483333                  0.013389847140759302
0.484167                  0.01274570739245101
0.485                     0.012098402340804256
0.485833                  0.011447359194685237
0.486667                  0.010791987455571916
0.4875                    0.01013405867098878
0.488333                  0.009472990995593896
0.489167                  0.00880818770968664
0.49                      0.008141447301257878
0.490833                  0.007472180163418081
0.491667                  0.006799784712370018
0.4925                    0.006126081106374911
0.493333                  0.005450473314211622
0.494167                  0.004772356273960582
0.495                     0.004093566445106191
0.495833                  0.003413502626414901
0.496667                  0.0027315571198878183
0.4975                    0.00204957532436066
0.498333                  0.001366951544138922
0.499167                  6.831206910767982E-4
0.5                       2.2752489594940064E-17
