
0                         4.513827395451649E-4
8.33E-4                   4.5580442356023824E-4
0.001667                  4.598692643270435E-4
0.0025                    4.6367546849169307E-4
0.003333                  4.6724456431873645E-4
0.004167                  4.7058192582275177E-4
0.005                     4.7368165634585884E-4
0.005833                  4.765497670180503E-4
0.006667                  4.7919122443713913E-4
0.0075                    4.816017274323785E-4
0.008333                  4.837867323254735E-4
0.009167                  4.8575057473785726E-4
0.01                      4.874907711618869E-4
0.010833                  4.890121397481281E-4
0.011667                  4.903184099656837E-4
0.0125                    4.91408846145674E-4
0.013333                  4.922876377916293E-4
0.014167                  4.929579187104418E-4
0.015                     4.934206340523793E-4
0.015833                  4.936793548098493E-4
0.016667                  4.937366317351827E-4
0.0175                    4.935950203761328E-4
0.018333                  4.932574851721369E-4
0.019167                  4.927260079967148E-4
0.02                      4.92004681452695E-4
0.020833                  4.910958770679583E-4
0.021667                  4.900010234710553E-4
0.0225                    4.887256744351115E-4
0.023333                  4.872716237823055E-4
0.024167                  4.8563976387755713E-4
0.025                     4.8383703160786523E-4
0.025833                  4.81864659745489E-4
0.026667                  4.797230226045327E-4
0.0275                    4.7742036031894736E-4
0.028333                  4.7495736260354265E-4
0.029167                  4.723339050500248E-4
0.03                      4.695594497244164E-4
0.030833                  4.6663416248824617E-4
0.031667                  4.6355744054450996E-4
0.0325                    4.603398854730503E-4
0.033333                  4.5698115958588234E-4
0.034167                  4.5348020292235495E-4
0.035                     4.4984867339141927E-4
0.035833                  4.460857510421432E-4
0.036667                  4.4218994075509736E-4
0.0375                    4.3817387314466484E-4
0.038333                  4.3403626815083054E-4
0.039167                  4.2977521817341133E-4
0.04                      4.2540424278285984E-4
0.040833                  4.209216247172555E-4
0.041667                  4.1632506713748654E-4
0.0425                    4.11628894999977E-4
0.043333                  4.068309773919066E-4
0.044167                  4.01928651933485E-4
0.045                     3.96936965867376E-4
0.045833                  3.9185339871251873E-4
0.046667                  3.866749466042598E-4
0.0475                    3.814172967163586E-4
0.048333                  3.7607756350947503E-4
0.049167                  3.706524259451869E-4
0.05                      3.6515812978329265E-4
0.050833                  3.5959144925712513E-4
0.051667                  3.5394877062551016E-4
0.0525                    3.482468181470917E-4
0.053333                  3.4248205088011253E-4
0.054167                  3.3665058691745146E-4
0.055                     3.307695504227185E-4
0.055833                  3.2483511045407616E-4
0.056667                  3.188431414508759E-4
0.0575                    3.1281109060138964E-4
0.058333                  3.067348621666742E-4
0.059167                  3.006101113352343E-4
0.06                      2.9445453335790475E-4
0.060833                  2.8826379283892757E-4
0.061667                  2.8203334992607255E-4
0.0625                    2.7578107507888534E-4
0.063333                  2.695024182359939E-4
0.064167                  2.631926684432594E-4
0.065                     2.5686980079880613E-4
0.065833                  2.5052907533396697E-4
0.066667                  2.4416563358669344E-4
0.0675                    2.377974871663037E-4
0.068333                  2.3141973064453192E-4
0.069167                  2.2502738122929028E-4
0.07                      2.1863842150229198E-4
0.070833                  2.12247804637285E-4
0.071667                  2.0585044620891735E-4
0.0725                    1.9946423695010125E-4
0.073333                  1.9308401224256468E-4
0.074167                  1.8670460818126224E-4
0.075                     1.803437636622831E-4
0.075833                  1.7399621935894785E-4
0.076667                  1.6765675344056102E-4
0.0775                    1.613428959109823E-4
0.078333                  1.550493152363016E-4
0.079167                  1.4877075256136495E-4
0.08                      1.425244749611038E-4
0.080833                  1.3630510055572602E-4
0.081667                  1.301073536651872E-4
0.0825                    1.2394818748993663E-4
0.083333                  1.1782219097335711E-4
0.084167                  1.1172409106629851E-4
0.085                     1.0567047929575336E-4
0.085833                  9.965593585833098E-5
0.086667                  9.367520900614598E-5
0.0875                    8.774448398874748E-5
0.088333                  8.185835190101655E-5
0.089167                  7.601160014879359E-5
0.09                      7.021996632071942E-5
0.090833                  6.447807123718704E-5
0.091667                  5.878075845739939E-5
0.0925                    5.314327976981437E-5
0.093333                  4.7560303689049316E-5
0.094167                  4.202674605320602E-5
0.095                     3.655733795762155E-5
0.095833                  3.114681269628206E-5
0.096667                  2.5790173609893092E-5
0.0975                    2.0501599452370933E-5
0.098333                  1.5275904468751948E-5
0.099167                  1.0108193812673139E-5
0.1                       5.012065469714739E-6
0.100833                  -1.7570120545882734E-8
0.101667                  -4.985492617092811E-6
0.1025                    -9.878710028501923E-6
0.103333                  -1.470220142931282E-5
0.104167                  -1.946061885597813E-5
0.105                     -2.4141598379718793E-5
0.105833                  -2.8749995258019294E-5
0.106667                  -3.3290322419836206E-5
0.1075                    -3.775086295467767E-5
0.108333                  -4.2136335943880364E-5
0.109167                  -4.645110467454775E-5
0.11                      -5.068411515635258E-5
0.110833                  -5.483993891083837E-5
0.111667                  -5.892278000136411E-5
0.1125                    -6.292226026911063E-5
0.113333                  -6.684279327123987E-5
0.114167                  -7.068841521034865E-5
0.115                     -7.44494337579932E-5
0.115833                  -7.813009507556919E-5
0.116667                  -8.173425981081993E-5
0.1175                    -8.525292862688743E-5
0.118333                  -8.869017183075559E-5
0.119167                  -9.204966774911792E-5
0.12                      -9.53231144532557E-5
0.120833                  -9.851439889752E-5
0.121667                  -1.0162701123966455E-4
0.1225                    -1.0465334872214232E-4
0.123333                  -1.0759710839856236E-4
0.124167                  -1.1046158731066756E-4
0.125                     -1.1323988108225912E-4
0.125833                  -1.1593549125416051E-4
0.126667                  -1.1855151768793605E-4
0.1275                    -1.2108175115107103E-4
0.128333                  -1.2352949297703768E-4
0.129167                  -1.2589764264526047E-4
0.13                      -1.281806804909444E-4
0.130833                  -1.303817038430692E-4
0.131667                  -1.3250340943632817E-4
0.1325                    -1.3454095937216246E-4
0.133333                  -1.364972440551798E-4
0.134167                  -1.3837475592685724E-4
0.135                     -1.4016932894370392E-4
0.135833                  -1.4188364451691663E-4
0.136667                  -1.435199900323577E-4
0.1375                    -1.4507485940394121E-4
0.138333                  -1.4655072380415313E-4
0.139167                  -1.4794966556111209E-4
0.14                      -1.4926882477782764E-4
0.140833                  -1.5051046194112906E-4
0.141667                  -1.516764550457261E-4
0.1425                    -1.5276457487473162E-4
0.143333                  -1.5377687154475978E-4
0.144167                  -1.5471502014184068E-4
0.145                     -1.555774049980144E-4
0.145833                  -1.5636586691385374E-4
0.146667                  -1.5708188015118785E-4
0.1475                    -1.5772442396817622E-4
0.148333                  -1.5829513160349107E-4
0.149167                  -1.5879527921153363E-4
0.15                      -1.592244209857918E-4
0.150833                  -1.5958398502410168E-4
0.151667                  -1.5987505268484466E-4
0.1525                    -1.6009773186403337E-4
0.153333                  -1.6025324857330548E-4
0.154167                  -1.6034249324591078E-4
0.155                     -1.603661051311157E-4
0.155833                  -1.603251118036935E-4
0.156667                  -1.6022021716845827E-4
0.1575                    -1.60052568484093E-4
0.158333                  -1.5982299909803277E-4
0.159167                  -1.595320312701696E-4
0.16                      -1.5918129605531958E-4
0.160833                  -1.5877143730545618E-4
0.161667                  -1.583028009697221E-4
0.1625                    -1.5777747693536572E-4
0.163333                  -1.5719592477598626E-4
0.164167                  -1.565583198778626E-4
0.165                     -1.558671853663925E-4
0.165833                  -1.5512280220035312E-4
0.166667                  -1.5432518132936458E-4
0.1675                    -1.534772530060122E-4
0.168333                  -1.5257912564739092E-4
0.169167                  -1.516306522326569E-4
0.17                      -1.5063514362938208E-4
0.170833                  -1.4959254215735548E-4
0.171667                  -1.485025495952819E-4
0.1725                    -1.4736883062109517E-4
0.173333                  -1.4619116823619786E-4
0.174167                  -1.4496912005698784E-4
0.175                     -1.437066775814477E-4
0.175833                  -1.424034715670037E-4
0.176667                  -1.410589227393991E-4
0.1775                    -1.3967732234413074E-4
0.178333                  -1.3825815622904258E-4
0.179167                  -1.368007156978414E-4
0.18                      -1.35309564686993E-4
0.180833                  -1.3378405169326975E-4
0.181667                  -1.3222334623026787E-4
0.1825                    -1.3063225798115805E-4
0.183333                  -1.2901000583757596E-4
0.184167                  -1.2735564528510503E-4
0.185                     -1.2567420501138392E-4
0.185833                  -1.2396478220228762E-4
0.186667                  -1.2222632617435425E-4
0.1875                    -1.2046405816754057E-4
0.188333                  -1.18676961679589E-4
0.189167                  -1.1686388778323921E-4
0.19                      -1.1503022418882152E-4
0.190833                  -1.1317484881023112E-4
0.191667                  -1.1129652243646299E-4
0.1925                    -1.0940077361502405E-4
0.193333                  -1.0748638283395934E-4
0.194167                  -1.0555202856439711E-4
0.195                     -1.0360335507887657E-4
0.195833                  -1.0163905362054349E-4
0.196667                  -9.965772828572262E-5
0.1975                    -9.766511454891437E-5
0.198333                  -9.565982258261017E-5
0.199167                  -9.364039000162673E-5
0.2                       -9.161261961116954E-5
0.200833                  -8.95750486518805E-5
0.201667                  -8.752615607485638E-5
0.2025                    -8.547178885496938E-5
0.203333                  -8.341041937718004E-5
0.204167                  -8.134047564643178E-5
0.205                     -7.926782640953858E-5
0.205833                  -7.719088718333928E-5
0.206667                  -7.510804262080605E-5
0.2075                    -7.30251616550357E-5
0.208333                  -7.094061080885123E-5
0.209167                  -6.885273883222718E-5
0.21                      -6.676739411418819E-5
0.210833                  -6.468290192125859E-5
0.211667                  -6.259758238369873E-5
0.2125                    -6.051724351038347E-5
0.213333                  -5.8440176890794035E-5
0.214167                  -5.636468113413949E-5
0.215                     -5.429650496129234E-5
0.215833                  -5.2233913685090585E-5
0.216667                  -5.017519129010717E-5
0.2175                    -4.812600925886879E-5
0.218333                  -4.6084613830450764E-5
0.219167                  -4.404928104224831E-5
0.22                      -4.202558817085401E-5
0.220833                  -4.001176936897899E-5
0.221667                  -3.800609917138501E-5
0.2225                    -3.601404468333422E-5
0.223333                  -3.403383472758942E-5
0.224167                  -3.206374853378579E-5
0.225                     -3.0109128089380915E-5
0.225833                  -2.816820339746704E-5
0.226667                  -2.623926432158923E-5
0.2275                    -2.432751381492899E-5
0.228333                  -2.2431189312405612E-5
0.229167                  -2.0548596980937615E-5
0.23                      -1.8684787860925794E-5
0.230833                  -1.6838012799847994E-5
0.231667                  -1.5006599659037807E-5
0.2325                    -1.3195435728612323E-5
0.233333                  -1.140279096867572E-5
0.234167                  -9.62702003953093E-6
0.235                     -7.872835684744397E-6
0.235833                  -6.138532386537702E-6
0.236667                  -4.4224964162514995E-6
0.2375                    -2.7292562113897084E-6
0.238333                  -1.057135889270997E-6
0.239167                  5.954421544910361E-7
0.24                      2.224142518674945E-6
0.240833                  3.83060664138877E-6
0.241667                  5.4163717915811055E-6
0.2425                    6.977303315499571E-6
0.243333                  8.515003705835334E-6
0.244167                  1.00309659899096E-5
0.245                     1.152126296801074E-5
0.245833                  1.2987453998537596E-5
0.246667                  1.4430984267551752E-5
0.2475                    1.584813974845447E-5
0.248333                  1.7240432790289545E-5
0.249167                  1.8609257445486916E-5
0.25                      1.9951117611968778E-5
0.250833                  2.1267475069621593E-5
0.251667                  2.255966975179021E-5
0.2525                    2.3824427286021846E-5
0.253333                  2.5063155639301066E-5
0.254167                  2.627713794382693E-5
0.255                     2.7463324442797353E-5
0.255833                  2.86230663604544E-5
0.256667                  2.9757587648790773E-5
0.2575                    3.086406515732943E-5
0.258333                  3.1943790750623024E-5
0.259167                  3.299792711963612E-5
0.26                      3.4023878847814025E-5
0.260833                  3.5022876129463566E-5
0.261667                  3.599601861008638E-5
0.2625                    3.6940938899713316E-5
0.263333                  3.785880351949038E-5
0.264167                  3.8750647569640875E-5
0.265                     3.96143311809068E-5
0.265833                  4.0450955496654604E-5
0.266667                  4.1261489857184164E-5
0.2675                    4.204402063886518E-5
0.268333                  4.2799582197956336E-5
0.269167                  4.352907717548389E-5
0.27                      4.423081618816523E-5
0.270833                  4.490576568072935E-5
0.271667                  4.555476092537926E-5
0.2725                    4.617633407848247E-5
0.273333                  4.6771382831170536E-5
0.274167                  4.7340674673979204E-5
0.275                     4.7882959946507395E-5
0.275833                  4.8399067015025584E-5
0.276667                  4.8889695429159434E-5
0.2775                    4.9353809733972114E-5
0.278333                  4.979216866395436E-5
0.279167                  5.02054039099307E-5
0.28                      5.059268966584528E-5
0.280833                  5.095471497977589E-5
0.281667                  5.129204399936632E-5
0.2825                    5.1604055469303076E-5
0.283333                  5.1891368941825395E-5
0.284167                  5.215448155827488E-5
0.285                     5.239297101411083E-5
0.285833                  5.260738779148642E-5
0.286667                  5.2798162773481324E-5
0.2875                    5.29650665455571E-5
0.288333                  5.310858116698432E-5
0.289167                  5.3229072214007284E-5
0.29                      5.332649667695314E-5
0.290833                  5.340126905438462E-5
0.291667                  5.345369075442665E-5
0.2925                    5.3483898306516245E-5
0.293333                  5.349223971043153E-5
0.294167                  5.34789535256476E-5
0.295                     5.344434860914047E-5
0.295833                  5.3388707715157824E-5
0.296667                  5.331220804058314E-5
0.2975                    5.3215323253960374E-5
0.298333                  5.309827229521065E-5
0.299167                  5.2961172640599316E-5
0.3                       5.280465498753852E-5
0.300833                  5.26288760590542E-5
0.301667                  5.243389539741748E-5
0.3025                    5.2220492715966156E-5
0.303333                  5.198876427362457E-5
0.304167                  5.1738713598410016E-5
0.305                     5.147126121310848E-5
0.305833                  5.118644480850169E-5
0.306667                  5.0884213938392666E-5
0.3075                    5.056562157254122E-5
0.308333                  5.0230648859333944E-5
0.309167                  4.987919352955142E-5
0.31                      4.951243251337084E-5
0.310833                  4.913029256318963E-5
0.311667                  4.8732621834703E-5
0.3125                    4.832071264424196E-5
0.313333                  4.789443960117107E-5
0.314167                  4.7453603622233185E-5
0.315                     4.699960377859853E-5
0.315833                  4.653226488504573E-5
0.316667                  4.605134303154999E-5
0.3175                    4.555833538796593E-5
0.318333                  4.505301940777272E-5
0.319167                  4.453510883057293E-5
0.32                      4.40061902740952E-5
0.320833                  4.346599633618085E-5
0.321667                  4.2914200937757396E-5
0.3225                    4.2352471527072376E-5
0.323333                  4.178049841385119E-5
0.324167                  4.119791827564098E-5
0.325                     4.06064708353569E-5
0.325833                  4.000580673292913E-5
0.326667                  3.939552801169952E-5
0.3275                    3.877743820084912E-5
0.328333                  3.815115092876251E-5
0.329167                  3.7516236238086735E-5
0.33                      3.687455310697461E-5
0.330833                  3.62256808411608E-5
0.331667                  3.5569160130129755E-5
0.3325                    3.490689717903652E-5
0.333333                  3.4238439679224405E-5
0.334167                  3.356330162028611E-5
0.335                     3.288342836862319E-5
0.335833                  3.2198338719987184E-5
0.336667                  3.15075226136196E-5
0.3375                    3.081295668795475E-5
0.338333                  3.0114133562959632E-5
0.339167                  2.9410521765215497E-5
0.34                      2.8704121510951405E-5
0.340833                  2.7994401956274634E-5
0.341667                  2.7280812832873593E-5
0.3425                    2.656537045253782E-5
0.343333                  2.5847523203150318E-5
0.344167                  2.5126704611515154E-5
0.345                     2.4404939830476042E-5
0.345833                  2.3681659150773666E-5
0.346667                  2.2956282449488713E-5
0.3475                    2.223083670768677E-5
0.348333                  2.1504736757871704E-5
0.349167                  2.0777391340753763E-5
0.35                      2.0050822507093467E-5
0.350833                  1.9324432230634375E-5
0.351667                  1.8597620580847376E-5
0.3525                    1.787239818512196E-5
0.353333                  1.714815671151618E-5
0.354167                  1.6424289969277746E-5
0.355                     1.570279094441931E-5
0.355833                  1.498304349984456E-5
0.356667                  1.4264437535472513E-5
0.3575                    1.3548942461653798E-5
0.358333                  1.2835936777627859E-5
0.359167                  1.2124808760291318E-5
0.36                      1.1417498600154835E-5
0.360833                  1.0713381810382846E-5
0.361667                  1.0011847260860025E-5
0.3625                    9.314800574633783E-6
0.363333                  8.621616586502038E-6
0.364167                  7.931686901834895E-6
0.365                     7.246877528477463E-6
0.365833                  6.566564856919597E-6
0.366667                  5.89014529187936E-6
0.3675                    5.21944048251141E-6
0.368333                  4.5538305302151836E-6
0.369167                  3.892718621597481E-6
0.37                      3.2378776089080503E-6
0.370833                  2.5886933777281107E-6
0.371667                  1.9445777941916964E-6
0.3725                    1.3072507818361808E-6
0.373333                  6.761059978929435E-7
0.374167                  5.0565798325083224E-8
0.375                     -5.677066475809152E-7
0.375833                  -1.1793080123119099E-6
0.376667                  -1.7848037299861887E-6
0.3775                    -2.382590905882277E-6
0.378333                  -2.973254734801576E-6
0.379167                  -3.5573468127051687E-6
0.38                      -4.133327737783521E-6
0.380833                  -4.701769512917206E-6
0.381667                  -5.263208361475523E-6
0.3825                    -5.81617129234645E-6
0.383333                  -6.361215498924374E-6
0.384167                  -6.898860391857394E-6
0.385                     -7.427702013641899E-6
0.385833                  -7.948281226601283E-6
0.386667                  -8.461099285133594E-6
0.3875                    -8.964823596987726E-6
0.388333                  -9.459977270534767E-6
0.389167                  -9.947042156733443E-6
0.39                      -1.0424759074778076E-5
0.390833                  -1.0893632055346936E-5
0.391667                  -1.1354122395497915E-5
0.3925                    -1.1805046092950123E-5
0.393333                  -1.224688687626436E-5
0.394167                  -1.268008443570841E-5
0.395                     -1.310353144170079E-5
0.395833                  -1.3517690196240883E-5
0.396667                  -1.392297782646953E-5
0.3975                    -1.4318364904490285E-5
0.398333                  -1.4704291280927035E-5
0.399167                  -1.5081150659945291E-5
0.4                       -1.5447992487066913E-5
0.400833                  -1.5805233235662417E-5
0.401667                  -1.615324242320341E-5
0.4025                    -1.649114909002201E-5
0.403333                  -1.6819345506132882E-5
0.404167                  -1.7138176332679392E-5
0.405                     -1.7446850686101516E-5
0.405833                  -1.774573590365476E-5
0.406667                  -1.8035151215158985E-5
0.4075                    -1.831438606176384E-5
0.408333                  -1.858378221611834E-5
0.409167                  -1.8843632993296385E-5
0.41                      -1.9093308184970848E-5
0.410833                  -1.933312346254117E-5
0.411667                  -1.9563345834161885E-5
0.4125                    -1.9783425253968432E-5
0.413333                  -1.9993650849227235E-5
0.414167                  -2.0194263018514595E-5
0.415                     -2.038479148545766E-5
0.415833                  -2.0565498483054422E-5
0.416667                  -2.073659758435323E-5
0.4175                    -2.0897697695115867E-5
0.418333                  -2.104903389400824E-5
0.419167                  -2.119079279849973E-5
0.42                      -2.13226617232289E-5
0.420833                  -2.1444848420921195E-5
0.421667                  -2.1557512506884097E-5
0.4225                    -2.1660418755138596E-5
0.423333                  -2.175374750736146E-5
0.424167                  -2.1837631410854358E-5
0.425                     -2.191191158348046E-5
0.425833                  -2.197674095466842E-5
0.426667                  -2.2032225316624176E-5
0.4275                    -2.2078280858229927E-5
0.428333                  -2.211503317684381E-5
0.429167                  -2.2142561399641695E-5
0.43                      -2.2160855365271253E-5
0.430833                  -2.2170013498940182E-5
0.431667                  -2.2170088525833067E-5
0.4325                    -2.2161142375080933E-5
0.433333                  -2.2143246535471408E-5
0.434167                  -2.211642766576195E-5
0.435                     -2.208081809535396E-5
0.435833                  -2.2036462687215595E-5
0.436667                  -2.1983362437078806E-5
0.4375                    -2.1921718263998756E-5
0.438333                  -2.1851548786377125E-5
0.439167                  -2.1772829807367447E-5
0.44                      -2.1685828911340005E-5
0.440833                  -2.1590538922343487E-5
0.441667                  -2.1486910984632345E-5
0.4425                    -2.1375277319404268E-5
0.443333                  -2.1255605472095816E-5
0.444167                  -2.112782252271341E-5
0.445                     -2.0992323203662115E-5
0.445833                  -2.084905036059006E-5
0.446667                  -2.069790766234766E-5
0.4475                    -2.0539350137382064E-5
0.448333                  -2.0373296570724538E-5
0.449167                  -2.0199627928454128E-5
0.45                      -2.0018857237756048E-5
0.450833                  -1.9830879919574034E-5
0.451667                  -1.9635554998521486E-5
0.4525                    -1.9433451128410912E-5
0.453333                  -1.9224441116487614E-5
0.454167                  -1.9008362857711507E-5
0.455                     -1.8785838190813006E-5
0.455833                  -1.8556718112490984E-5
0.456667                  -1.8320820246666705E-5
0.4575                    -1.8078817113435598E-5
0.458333                  -1.7830538750071174E-5
0.459167                  -1.7575783413409618E-5
0.46                      -1.731527174422986E-5
0.460833                  -1.7048813717988214E-5
0.461667                  -1.6776189170270628E-5
0.4625                    -1.6498164250681236E-5
0.463333                  -1.621452981376033E-5
0.464167                  -1.5925048258953953E-5
0.465                     -1.563052858682927E-5
0.465833                  -1.5330743512222907E-5
0.466667                  -1.502543902077912E-5
0.4675                    -1.4715464264626442E-5
0.468333                  -1.4400574837995041E-5
0.469167                  -1.4080501369087032E-5
0.47                      -1.3756130425489082E-5
0.470833                  -1.3427201534837421E-5
0.471667                  -1.3093431056076024E-5
0.4725                    -1.275574020328734E-5
0.473333                  -1.2413853524029543E-5
0.474167                  -1.2067474225204234E-5
0.475                     -1.1717555369553686E-5
0.475833                  -1.1363807640676687E-5
0.476667                  -1.1005922237334194E-5
0.4775                    -1.064488124775308E-5
0.478333                  -1.0280382634774019E-5
0.479167                  -9.912106756951889E-6
0.48                      -9.541061882656892E-6
0.480833                  -9.166934421684912E-6
0.481667                  -8.78939508212925E-6
0.4825                    -8.409475447898545E-6
0.483333                  -8.026851565409666E-6
0.484167                  -7.641185701054985E-6
0.485                     -7.253529873505947E-6
0.485833                  -6.863550974727213E-6
0.486667                  -6.470904055095105E-6
0.4875                    -6.076658673206563E-6
0.488333                  -5.6804737925531674E-6
0.489167                  -5.281998487363735E-6
0.49                      -4.88231694996163E-6
0.490833                  -4.481081455656091E-6
0.491667                  -4.077936354481511E-6
0.4925                    -3.673977557093164E-6
0.493333                  -3.2688519043508315E-6
0.494167                  -2.8622002942101212E-6
0.495                     -2.4551275043987008E-6
0.495833                  -2.0472766891115524E-6
0.496667                  -1.638289761579631E-6
0.4975                    -1.2292984122833602E-6
0.498333                  -8.200770488025089E-7
0.499167                  -4.1109027765407493E-7
0.5                       -8.14030339723086E-9
