
0                         0.00117139173587667
8.33E-4                   0.0011622477395830135
0.001667                  0.0011620575181165607
0.0025                    0.001158807374191064
0.003333                  0.001154978206615695
0.004167                  0.0011510672476439992
0.005                     0.001147153734241433
0.005833                  0.001143249282252586
0.006667                  0.0011393572337374779
0.0075                    0.0011354746399907328
0.008333                  0.0011316030487700452
0.009167                  0.0011277439419251087
0.01                      0.0011238942639580148
0.010833                  0.001120055500273839
0.011667                  0.0011162291226164754
0.0125                    0.0011124120993843151
0.013333                  0.001108605904331398
0.014167                  0.0011048119971850893
0.015                     0.0011010273721797355
0.015833                  0.0010972534911720378
0.016667                  0.0010934918020696206
0.0175                    0.0010897393247666725
0.018333                  0.001085997509282411
0.019167                  0.0010822677918060782
0.02                      0.001078547217686555
0.020833                  0.0010748372252428072
0.021667                  0.001071139239014763
0.0225                    0.0010674503296385766
0.023333                  0.0010637719237926414
0.024167                  0.0010601054344527244
0.025                     0.0010564479573934799
0.025833                  0.0010528009077355957
0.026667                  0.001049165686952375
0.0275                    0.0010455394158175836
0.028333                  0.001041923497944395
0.029167                  0.0010383193234018361
0.03                      0.0010347240378083067
0.030833                  0.0010311390333492363
0.031667                  0.001027565688750612
0.0325                    0.0010240011743184263
0.033333                  0.0010204468708980153
0.034167                  0.001016904145935734
0.035                     0.0010133701942855043
0.035833                  0.0010098463855575139
0.036667                  0.0010063340759444309
0.0375                    0.001002830484695186
0.038333                  9.993369702285709E-4
0.039167                  9.958548776323628E-4
0.04                      9.92381450416272E-4
0.040833                  9.889180358346912E-4
0.041667                  9.854659679147896E-4
0.0425                    9.820225143100344E-4
0.043333                  9.785890111933184E-4
0.044167                  9.7516678156011E-4
0.045                     9.717531171050193E-4
0.045833                  9.683493429993957E-4
0.046667                  9.649567712561926E-4
0.0475                    9.615727174887217E-4
0.048333                  9.581984958864605E-4
0.049167                  9.548354075680391E-4
0.05                      9.514807919202473E-4
0.050833                  9.481359522650084E-4
0.051667                  9.448021788172725E-4
0.0525                    9.41476834738514E-4
0.053333                  9.381612124184579E-4
0.054167                  9.348565912562781E-4
0.055                     9.315603580557591E-4
0.055833                  9.282737943665705E-4
0.056667                  9.249981688334967E-4
0.0575                    9.217308917498564E-4
0.058333                  9.184732339106076E-4
0.059167                  9.152264532341437E-4
0.06                      9.119879834298677E-4
0.060833                  9.087590845717596E-4
0.061667                  9.055410038785692E-4
0.0625                    9.023311984041322E-4
0.063333                  8.99130917492518E-4
0.064167                  8.959413978494154E-4
0.065                     8.927601195887709E-4
0.065833                  8.89588321555507E-4
0.066667                  8.864272297831529E-4
0.0675                    8.832743475778157E-4
0.068333                  8.801309031572306E-4
0.069167                  8.769981119934637E-4
0.07                      8.738735004585205E-4
0.070833                  8.70758286302396E-4
0.071667                  8.676536742313006E-4
0.0725                    8.64557213995242E-4
0.073333                  8.614701124390514E-4
0.074167                  8.583935639359382E-4
0.075                     8.553251411179943E-4
0.075833                  8.52266040462595E-4
0.076667                  8.492174457208708E-4
0.0775                    8.461769524826761E-4
0.078333                  8.431457467066494E-4
0.079167                  8.401250017240862E-4
0.08                      8.371123359225503E-4
0.080833                  8.341089248634524E-4
0.081667                  8.311159313318249E-4
0.0825                    8.281309966798183E-4
0.083333                  8.251552858611084E-4
0.084167                  8.221899513316032E-4
0.085                     8.192326570962869E-4
0.085833                  8.16284557832318E-4
0.086667                  8.133467954785416E-4
0.0875                    8.1041705683209E-4
0.088333                  8.074964860817516E-4
0.089167                  8.045862148272006E-4
0.09                      8.016839524977621E-4
0.090833                  7.987908329647902E-4
0.091667                  7.959079773396329E-4
0.0925                    7.930331178056089E-4
0.093333                  7.901673777681042E-4
0.094167                  7.873118680153293E-4
0.095                     7.844643433060731E-4
0.095833                  7.816259167374698E-4
0.096667                  7.787976886295873E-4
0.0975                    7.759774364465168E-4
0.098333                  7.731662628304692E-4
0.099167                  7.703652577858976E-4
0.1                       7.675722213113681E-4
0.100833                  7.647882457650258E-4
0.101667                  7.620144106705849E-4
0.1025                    7.592485387023509E-4
0.103333                  7.564917117569263E-4
0.104167                  7.53744999050152E-4
0.105                     7.510062457881468E-4
0.105833                  7.482765235633927E-4
0.106667                  7.45556891057441E-4
0.1075                    7.428452162080562E-4
0.108333                  7.401425601208059E-4
0.109167                  7.374499711860856E-4
0.11                      7.347653397878413E-4
0.110833                  7.320897167315346E-4
0.111667                  7.294241399346849E-4
0.1125                    7.267665224388482E-4
0.113333                  7.241179045736427E-4
0.114167                  7.214793138941763E-4
0.115                     7.188486859720899E-4
0.115833                  7.162270508024158E-4
0.116667                  7.136154253706522E-4
0.1175                    7.11011768009835E-4
0.118333                  7.084170981215698E-4
0.119167                  7.058324224114175E-4
0.12                      7.032557216593166E-4
0.120833                  7.006880049364028E-4
0.121667                  6.98130268383889E-4
0.1225                    6.955805154512589E-4
0.123333                  6.930397446684784E-4
0.124167                  6.905089416537548E-4
0.125                     6.879861328234752E-4
0.125833                  6.854723060654876E-4
0.126667                  6.829684365165897E-4
0.1275                    6.804725729308923E-4
0.128333                  6.779856928830806E-4
0.129167                  6.755087610213283E-4
0.13                      6.730398487546388E-4
0.130833                  6.705799231519718E-4
0.131667                  6.681299381670805E-4
0.1325                    6.656879880196724E-4
0.133333                  6.632550292091938E-4
0.134167                  6.608320050788052E-4
0.135                     6.584170325965152E-4
0.135833                  6.560110576466747E-4
0.136667                  6.536150128787761E-4
0.1375                    6.512270381297776E-4
0.138333                  6.48848068580692E-4
0.139167                  6.464790262827831E-4
0.14                      6.44118073791767E-4
0.140833                  6.417661357032079E-4
0.141667                  6.39424123228832E-4
0.1425                    6.370902219766255E-4
0.143333                  6.347653456910652E-4
0.144167                  6.324503947439374E-4
0.145                     6.30143577771009E-4
0.145833                  6.278457977434403E-4
0.146667                  6.255579441793975E-4
0.1475                    6.232782487045316E-4
0.148333                  6.210076034650978E-4
0.149167                  6.187468870777701E-4
0.15                      6.164943542416075E-4
0.150833                  6.142508862505347E-4
0.151667                  6.120173506754391E-4
0.1525                    6.097920254383867E-4
0.153333                  6.075757807830583E-4
0.154167                  6.053694734240962E-4
0.155                     6.031714042705912E-4
0.155833                  6.009824326878544E-4
0.156667                  5.988034043262175E-4
0.1575                    5.96632643278501E-4
0.158333                  5.944709978757801E-4
0.159167                  5.923193026455436E-4
0.16                      5.901759049597196E-4
0.160833                  5.880416420737659E-4
0.161667                  5.859173372433216E-4
0.1625                    5.8380136126773E-4
0.163333                  5.816945401254962E-4
0.164167                  5.795976859789279E-4
0.165                     5.775091928237166E-4
0.165833                  5.75429875520642E-4
0.166667                  5.733605349193397E-4
0.1675                    5.712995884159769E-4
0.168333                  5.692478395853685E-4
0.169167                  5.672060778977858E-4
0.17                      5.651727442462073E-4
0.170833                  5.631486308877447E-4
0.171667                  5.611345157394533E-4
0.1725                    5.59128863252539E-4
0.173333                  5.571324542888605E-4
0.174167                  5.551460553288831E-4
0.175                     5.531681543568898E-4
0.175833                  5.511995205923644E-4
0.176667                  5.492409090841593E-4
0.1775                    5.472908313378809E-4
0.178333                  5.453500451197377E-4
0.179167                  5.434192937765719E-4
0.18                      5.414971124862917E-4
0.180833                  5.395842474112744E-4
0.181667                  5.376814300456908E-4
0.1825                    5.357872193921145E-4
0.183333                  5.339023497882216E-4
0.184167                  5.320275411144314E-4
0.185                     5.301613759830279E-4
0.185833                  5.283045769770146E-4
0.186667                  5.264578520548041E-4
0.1875                    5.246198076511555E-4
0.188333                  5.227911544901107E-4
0.189167                  5.20972588545082E-4
0.19                      5.191627401309296E-4
0.190833                  5.1736230801258E-4
0.191667                  5.155719760923447E-4
0.1925                    5.137903985295838E-4
0.193333                  5.120182621012134E-4
0.194167                  5.102562385493868E-4
0.195                     5.08503006079884E-4
0.195833                  5.06759239145218E-4
0.196667                  5.050255973859058E-4
0.1975                    5.033007828805662E-4
0.198333                  5.015854579803208E-4
0.199167                  4.998802699833409E-4
0.2                       4.981839449525375E-4
0.200833                  4.964971329792842E-4
0.201667                  4.948204688665529E-4
0.2025                    4.931527027941173E-4
0.203333                  4.914944723355431E-4
0.204167                  4.898463999750805E-4
0.205                     4.8820725992822304E-4
0.205833                  4.865776772316146E-4
0.206667                  4.8495826181586214E-4
0.2075                    4.833478118630965E-4
0.208333                  4.81746939976022E-4
0.209167                  4.801562434225604E-4
0.21                      4.785745444199049E-4
0.210833                  4.770024429277775E-4
0.211667                  4.754405234953998E-4
0.2125                    4.738876324111393E-4
0.213333                  4.7234435693077533E-4
0.214167                  4.7081126871571907E-4
0.215                     4.6928723821465854E-4
0.215833                  4.677728397609714E-4
0.216667                  4.6626863227681114E-4
0.2175                    4.6477351009200605E-4
0.218333                  4.632880347474562E-4
0.219167                  4.618127522033891E-4
0.22                      4.603465807936951E-4
0.220833                  4.588900690895684E-4
0.221667                  4.574437500195371E-4
0.2225                    4.560065659270817E-4
0.223333                  4.545790523610901E-4
0.224167                  4.531617290617516E-4
0.225                     4.5175356244235213E-4
0.225833                  4.5035507481777605E-4
0.226667                  4.4896677289489085E-4
0.2275                    4.47587646849851E-4
0.228333                  4.462182059077724E-4
0.229167                  4.448589435310505E-4
0.23                      4.435088737497906E-4
0.230833                  4.421684925299935E-4
0.231667                  4.408382800364535E-4
0.2325                    4.395172741246757E-4
0.233333                  4.382059574846095E-4
0.234167                  4.369047968248266E-4
0.235                     4.356128537971651E-4
0.235833                  4.343305976412846E-4
0.236667                  4.3305848187182077E-4
0.2375                    4.3179559162275855E-4
0.238333                  4.305423827591425E-4
0.239167                  4.29299295319909E-4
0.24                      4.2806543802619484E-4
0.240833                  4.2684125328538893E-4
0.241667                  4.256271676358953E-4
0.2425                    4.244223133076408E-4
0.243333                  4.2322711919779257E-4
0.244167                  4.220419983014915E-4
0.245                     4.208661061905468E-4
0.245833                  4.1969985825762523E-4
0.246667                  4.185436539259521E-4
0.2475                    4.1739667214873717E-4
0.248333                  4.162593145636285E-4
0.249167                  4.15131967108318E-4
0.25                      4.140138318860805E-4
0.250833                  4.129052969480982E-4
0.251667                  4.1180673450658735E-4
0.2525                    4.1071737005379414E-4
0.253333                  4.096375776727063E-4
0.254167                  4.0856771622495134E-4
0.255                     4.075070336877562E-4
0.255833                  4.0645589099395316E-4
0.256667                  4.0541463324882186E-4
0.2575                    4.0438253115166996E-4
0.258333                  4.0335993192799186E-4
0.259167                  4.0234716730187906E-4
0.26                      4.013435306021746E-4
0.260833                  4.003493551841192E-4
0.261667                  3.993649591998259E-4
0.2625                    3.983896586913088E-4
0.263333                  3.9742377334730286E-4
0.264167                  3.96467607879563E-4
0.265                     3.9552050013408216E-4
0.265833                  3.9458275682862704E-4
0.266667                  3.9365466894501967E-4
0.2675                    3.927355963927255E-4
0.268333                  3.918258322482907E-4
0.269167                  3.909256543813038E-4
0.27                      3.900344445558773E-4
0.270833                  3.8915248213279314E-4
0.271667                  3.882800316323732E-4
0.2725                    3.874164967505E-4
0.273333                  3.865621433933583E-4
0.274167                  3.85717222902143E-4
0.275                     3.8488115998531515E-4
0.275833                  3.8405420773715386E-4
0.276667                  3.83236604193288E-4
0.2775                    3.824277952270115E-4
0.278333                  3.816280206742286E-4
0.279167                  3.808375057844739E-4
0.28                      3.800557172592641E-4
0.280833                  3.792828815241007E-4
0.281667                  3.785192112575329E-4
0.2825                    3.7776419359797066E-4
0.283333                  3.770180425865492E-4
0.284167                  3.7628095748739405E-4
0.285                     3.7555244628270185E-4
0.285833                  3.748327099014447E-4
0.286667                  3.7412193527484823E-4
0.2875                    3.7341965023622445E-4
0.288333                  3.7272604330960523E-4
0.289167                  3.720412886744408E-4
0.29                      3.713649343972537E-4
0.290833                  3.706971562579976E-4
0.291667                  3.700381161985633E-4
0.2925                    3.6938738176230384E-4
0.293333                  3.6874511656835037E-4
0.294167                  3.6811147040925675E-4
0.295                     3.6748603014059736E-4
0.295833                  3.668689471515384E-4
0.296667                  3.662603593262395E-4
0.2975                    3.656598726324032E-4
0.298333                  3.650676263579166E-4
0.299167                  3.6448374685239837E-4
0.3                       3.6390785853414266E-4
0.300833                  3.633400892665257E-4
0.301667                  3.627805537099104E-4
0.3025                    3.622288946454979E-4
0.303333                  3.6168522845992116E-4
0.304167                  3.6114965848542906E-4
0.305                     3.606218458610999E-4
0.305833                  3.6010189531215497E-4
0.306667                  3.595898993140766E-4
0.3075                    3.590855367152596E-4
0.308333                  3.58588901265544E-4
0.309167                  3.5810007449033033E-4
0.31                      3.57618752845802E-4
0.310833                  3.5714501921288964E-4
0.311667                  3.5667894467540184E-4
0.3125                    3.562202424793555E-4
0.313333                  3.5576898525922166E-4
0.314167                  3.553252336517794E-4
0.315                     3.548887179709962E-4
0.315833                  3.5445950021373486E-4
0.316667                  3.5403763113539164E-4
0.3175                    3.5362285747343313E-4
0.318333                  3.532152312160747E-4
0.319167                  3.5281479360619623E-4
0.32                      3.5242130706966197E-4
0.320833                  3.5203481421319186E-4
0.321667                  3.5165534659170556E-4
0.3225                    3.512826825742526E-4
0.323333                  3.509168551175788E-4
0.324167                  3.5055788689577767E-4
0.325                     3.5020557143243764E-4
0.325833                  3.498599326323168E-4
0.326667                  3.495209842760789E-4
0.3275                    3.491885349214659E-4
0.328333                  3.4886259967514767E-4
0.329167                  3.4854318375274375E-4
0.33                      3.4823011037282594E-4
0.330833                  3.4792338595060474E-4
0.331667                  3.476230078207216E-4
0.3325                    3.4732881317312475E-4
0.333333                  3.470408002491183E-4
0.334167                  3.4675895856982455E-4
0.335                     3.4648313906319897E-4
0.335833                  3.462133323327742E-4
0.336667                  3.4594952002312473E-4
0.3375                    3.456915667098059E-4
0.338333                  3.45439455330815E-4
0.339167                  3.4519316041427213E-4
0.34                      3.4495255946594713E-4
0.340833                  3.4471762825003644E-4
0.341667                  3.4448833435581376E-4
0.3425                    3.442645680192259E-4
0.343333                  3.4404629792561477E-4
0.344167                  3.438334853973525E-4
0.345                     3.436260325222762E-4
0.345833                  3.434239017830655E-4
0.346667                  3.432270479465547E-4
0.3475                    3.430353851060617E-4
0.348333                  3.428488693871115E-4
0.349167                  3.4266744971111395E-4
0.35                      3.4249105173059246E-4
0.350833                  3.423196253754133E-4
0.351667                  3.421531141640436E-4
0.3525                    3.419914546483832E-4
0.353333                  3.418345913080507E-4
0.354167                  3.4168246232032227E-4
0.355                     3.415350148118742E-4
0.355833                  3.4139218801457525E-4
0.356667                  3.4125391509950357E-4
0.3575                    3.4112015353939565E-4
0.358333                  3.409908374382056E-4
0.359167                  3.408658955577942E-4
0.36                      3.4074529491613057E-4
0.360833                  3.4062896517486515E-4
0.361667                  3.405168305915839E-4
0.3625                    3.4040886781778475E-4
0.363333                  3.403050020092623E-4
0.364167                  3.402051534847518E-4
0.365                     3.4010930776378457E-4
0.365833                  3.4001738611103737E-4
0.366667                  3.399293051525393E-4
0.3675                    3.398450589509664E-4
0.368333                  3.3976456500611155E-4
0.369167                  3.3968773657692156E-4
0.37                      3.396145759460791E-4
0.370833                  3.395449970916925E-4
0.371667                  3.3947891032438173E-4
0.3725                    3.394163254806092E-4
0.373333                  3.3935715365947434E-4
0.374167                  3.393013022591984E-4
0.375                     3.3924878837529913E-4
0.375833                  3.3919952029035126E-4
0.376667                  3.391534030814613E-4
0.3775                    3.391104607556741E-4
0.378333                  3.3907059889308965E-4
0.379167                  3.3903372031068987E-4
0.38                      3.389998556666905E-4
0.380833                  3.3896890841761195E-4
0.381667                  3.389407791668572E-4
0.3825                    3.3891550490406074E-4
0.383333                  3.388929869481634E-4
0.384167                  3.3887312433865635E-4
0.385                     3.3885595980793094E-4
0.385833                  3.388413928812461E-4
0.386667                  3.388293211986421E-4
0.3875                    3.38819792894829E-4
0.388333                  3.388127060158397E-4
0.389167                  3.3880795695824577E-4
0.39                      3.388055989080385E-4
0.390833                  3.3880552867588233E-4
0.391667                  3.3880764185104193E-4
0.3925                    3.388119960073135E-4
0.393333                  3.3881848720135376E-4
0.394167                  3.388270101498251E-4
0.395                     3.3883762682639833E-4
0.395833                  3.388502324139506E-4
0.396667                  3.3886472132047983E-4
0.3975                    3.3888115928728364E-4
0.398333                  3.3889944104245335E-4
0.399167                  3.3891946070708503E-4
0.4                       3.3894128758804793E-4
0.400833                  3.3896481615609277E-4
0.401667                  3.389899404730942E-4
0.4025                    3.3901673305863434E-4
0.403333                  3.3904508821437076E-4
0.404167                  3.3907490038522317E-4
0.405                     3.391062447654971E-4
0.405833                  3.391390158285654E-4
0.406667                  3.39173108451844E-4
0.4075                    3.3920860022965875E-4
0.408333                  3.3924538614880034E-4
0.409167                  3.3928336153077755E-4
0.41                      3.3932260623791515E-4
0.410833                  3.3936301567616883E-4
0.411667                  3.3940448605724016E-4
0.4125                    3.3944709899770363E-4
0.413333                  3.394907507066608E-4
0.414167                  3.395353382989009E-4
0.415                     3.3958094494610284E-4
0.415833                  3.3962746776933445E-4
0.416667                  3.396748050896342E-4
0.4175                    3.397230410806732E-4
0.418333                  3.397720741625538E-4
0.419167                  3.3982180389411704E-4
0.42                      3.398723153338032E-4
0.420833                  3.3992350814128E-4
0.421667                  3.399752834155906E-4
0.4225                    3.400277268418733E-4
0.423333                  3.4008073938536314E-4
0.424167                  3.401342239055595E-4
0.425                     3.4018826628029133E-4
0.425833                  3.4024276917919103E-4
0.426667                  3.402976372221416E-4
0.4275                    3.403529562481291E-4
0.428333                  3.404086307122124E-4
0.429167                  3.4046456715686375E-4
0.43                      3.4052085119936574E-4
0.430833                  3.405773891231566E-4
0.431667                  3.406340896781197E-4
0.4325                    3.406910377888936E-4
0.433333                  3.407481418996891E-4
0.434167                  3.408053128932252E-4
0.435                     3.408626349915314E-4
0.435833                  3.409200187478015E-4
0.436667                  3.4097737743631876E-4
0.4375                    3.4103479415111904E-4
0.438333                  3.4109218179732175E-4
0.439167                  3.4114945620434964E-4
0.44                      3.412066990661346E-4
0.440833                  3.412638257998375E-4
0.441667                  3.413207547314833E-4
0.4425                    3.4137756610536763E-4
0.443333                  3.4143417785269616E-4
0.444167                  3.41490511047393E-4
0.445                     3.415466441293676E-4
0.445833                  3.4160249772707574E-4
0.446667                  3.416579957122622E-4
0.4475                    3.417132145792854E-4
0.448333                  3.4176807767179055E-4
0.449167                  3.418225119002234E-4
0.45                      3.418765914547868E-4
0.450833                  3.4193024260313284E-4
0.451667                  3.41983395243002E-4
0.4525                    3.420361212024584E-4
0.453333                  3.4208834979132817E-4
0.454167                  3.4214001390610077E-4
0.455                     3.4219118287826195E-4
0.455833                  3.42241789035599E-4
0.456667                  3.422917685074894E-4
0.4575                    3.423411878749626E-4
0.458333                  3.423899825945522E-4
0.459167                  3.424380920762585E-4
0.46                      3.4248557999745334E-4
0.460833                  3.4253238505076687E-4
0.461667                  3.4257844996011405E-4
0.4625                    3.426238353559256E-4
0.463333                  3.4266848323910674E-4
0.464167                  3.4271233978352793E-4
0.465                     3.4275546232145063E-4
0.465833                  3.4279779631368024E-4
0.466667                  3.428392913452191E-4
0.4675                    3.428800014504434E-4
0.468333                  3.4291987549311156E-4
0.469167                  3.429588666221723E-4
0.47                      3.4299702536941864E-4
0.470833                  3.4303430412139314E-4
0.471667                  3.430706596078895E-4
0.4725                    3.431061387617108E-4
0.473333                  3.4314069752761637E-4
0.474167                  3.431742962760243E-4
0.475                     3.432069782390648E-4
0.475833                  3.432387029583492E-4
0.476667                  3.4326943451493905E-4
0.4775                    3.432992122899113E-4
0.478333                  3.4332799953710764E-4
0.479167                  3.433557640323317E-4
0.48                      3.433825412507576E-4
0.480833                  3.434082981591857E-4
0.481667                  3.4343300629059096E-4
0.4825                    3.434566971631985E-4
0.483333                  3.4347934144984783E-4
0.484167                  3.435009144950678E-4
0.485                     3.4352144375670007E-4
0.485833                  3.4354090369246416E-4
0.486667                  3.435592734555398E-4
0.4875                    3.4357657639584073E-4
0.488333                  3.435927907787923E-4
0.489167                  3.4360789960206754E-4
0.49                      3.4362192202371666E-4
0.490833                  3.436348401642121E-4
0.491667                  3.4364664084224876E-4
0.4925                    3.436573388328985E-4
0.493333                  3.4366691875100194E-4
0.494167                  3.43675361554787E-4
0.495                     3.436826055231964E-4
0.495833                  3.4368811911997694E-4
0.496667                  3.4368818462941184E-4
0.4975                    3.43657202012242E-4
0.498333                  3.434329101621974E-4
0.499167                  3.4233984641714995E-4
0.5                       3.468854575396391E-4
