
0                         3141.5926535897934
2.999999999949375E-4      3139.0934056883725
5.999999999949459E-4      3127.0159968821517
8.999999999949543E-4      3105.3972783735567
0.0011999999999949627     3074.3032142923184
0.0014999999999949706     3033.8286804228433
0.001799999999994979      2984.0971747143326
0.0020999999999949874     2925.260440457652
0.0023999999999949955     2857.4980032784997
0.002699999999995004      2781.0166233596833
0.0029999999999950127     2696.049664564022
0.003299999999995021      2602.856382382709
0.003599999999995028      2501.721132881811
0.003899999999995038      2392.9525050605735
0.004199999999995046      2276.882379269075
0.004499999999995054      2153.864914558145
0.0047999999999950626     2024.2754680512096
0.005099999999995069      1888.5094496356487
0.005399999999995078      1746.9811154681436
0.005699999999995085      1600.12230397524
0.005999999999995094      1448.3811182060876
0.006299999999995104      1292.2205585577183
0.006599999999995111      1132.1171100447311
0.006899999999995119      968.5592884240759
0.007199999999995125      802.0461496110116
0.0074999999999951356     633.0857669344106
0.0077999999999951415     462.19368087768214
0.008099999999995153      289.89132603548336
0.00839999999999516       116.70444008608298
0.008699999999995165      -56.83854036610644
0.008999999999995173      -230.2080921830744
0.00929999999999518       -402.8752214010497
0.009599999999995194      -574.3130773236933
0.009899999999995199      -743.9985600756326
0.010199999999995206      -911.413916711367
0.010499999999995216      -1076.048321009238
0.010799999999995225      -1237.3994321303135
0.011099999999995237      -1394.9749273862085
0.011399999999995242      -1548.2940044390573
0.01169999999999525       -1696.8888483499306
0.011999999999995258      -1840.3060589995293
0.012299999999995268      -1978.108034525578
0.012599999999995276      -2109.8743065558083
0.012899999999995285      -2235.2028231624136
0.013199999999995292      -2353.7111756231743
0.0134999999999953        -2465.037765246477
0.013799999999995309      -2568.842906699408
0.014099999999995314      -2664.809864472953
0.014399999999995328      -2752.6458193214244
0.014699999999995333      -2832.0827617274904
0.014999999999995343      -2902.8783096662787
0.015299999999995354      -2964.8164481733784
0.015599999999995364      -3017.7081884610357
0.015899999999995366      -3061.392144570733
0.01619999999999538       -3095.735025801662
0.016499999999995393      -3120.632043413677
0.016799999999995395      -3136.0072303646075
0.017099999999995407      -3141.8136731046184
0.017399999999995416      -3138.033654721711
0.017699999999995417      -3124.678708999598
0.017999999999995433      -3101.7895852251045
0.01829999999999544       -3069.436123852598
0.018599999999995443      -3027.717043403614
0.01889999999999546       -2976.759639250472
0.01919999999999546       -2916.7193952075886
0.01949999999999548       -2847.779509110818
0.019799999999995484      -2770.1503338350158
0.020099999999995486      -2684.06873545486
0.020399999999995495      -2589.7973705057298
0.02069999999999551       -2487.6238845547045
0.020999999999995522      -2377.8600345212876
0.021299999999995527      -2260.840737427505
0.021599999999995536      -2136.9230484832174
0.021899999999995545      -2006.4850716226138
0.022199999999995546      -1869.9248058120259
0.022499999999995562      -1727.658930656074
0.02279999999999557       -1580.1215350039402
0.023099999999995572      -1427.7627924351661
0.023399999999995588      -1271.0475876673431
0.02369999999999559       -1110.4540980764132
0.023999999999995608      -946.4723346575425
0.024299999999995613      -779.6026468787667
0.024599999999995615      -610.35419598925
0.024899999999995624      -439.2434014407305
0.02519999999999564       -266.79236516234386
0.02549999999999564       -93.52727849672723
0.025799999999995656      80.02318334170837
0.026099999999995665      253.32947438732387
0.026399999999995677      425.8627937008034
0.026699999999995682      597.096698873341
0.026999999999995684      766.5087123344247
0.0272999999999957        933.5819155618778
0.0275999999999957        1097.806526329816
0.02789999999999572       1258.6814541820825
0.02819999999999573       1415.715829384973
0.028499999999995727      1568.4305006930956
0.02879999999999574       1716.359497360945
0.029099999999995737      1859.0514509367258
0.029399999999995763      1996.070972499086
0.029699999999995765      2126.9999811387947
0.02999999999999577       2251.4389796285723
0.03029999999999579       2369.0082733889194
0.03059999999999579       2479.3491290317047
0.03089999999999581       2582.1248689454533
0.031199999999995814      2677.021898583259
0.03149999999999581       2763.7506633184657
0.031799999999995825      2842.046531948231
0.03209999999999584       2911.670604149673
0.03239999999999585       2972.41043942475
0.032699999999995864      3024.0807053093868
0.03299999999999586       3066.523742869448
0.033299999999995875      3099.610047757437
0.03359999999999586       3123.2386653628896
0.03389999999999589       3137.337498850095
0.0341999999999959        3141.863529143594
0.0344999999999959        3136.8029461904684
0.034799999999995904      3122.171191097866
0.035099999999995926      3098.0129090185114
0.035399999999995935      3064.4018129271712
0.035699999999995936      3021.4404587037766
0.03599999999999594       2969.259932209835
0.036299999999995954      2908.0194493126437
0.03659999999999597       2837.90587007746
0.03689999999999598       2759.1331286110553
0.03719999999999599       2671.9415802947556
0.03749999999999599       2576.5972684002027
0.037799999999996         2473.3911123249436
0.03809999999999601       2362.638019922167
0.03839999999999602       2244.675926642099
0.03869999999999603       2119.8647644021103
0.03899999999999604       1988.5853633468957
0.03929999999999604       1851.238289838966
0.039599999999996055      1708.2426242301212
0.03989999999999606       1560.0346821432677
0.040199999999996065      1407.0666831632798
0.04049999999999606       1249.805371001997
0.04079999999999608       1088.7305893460248
0.04109999999999608       924.3338177332508
0.04139999999999611       757.1166719257292
0.04169999999999611       587.5893733540895
0.0419999999999961        416.2691923041104
0.04229999999999613       243.6788695958881
0.04259999999999614       70.34502157005414
0.04289999999999615       -103.20346675075837
0.04319999999999616       -276.4370554230175
0.04349999999999617       -448.8271653408583
0.04379999999999617       -619.8477910633246
0.044099999999996184      -788.9771057884261
0.044399999999996186      -955.6990535788617
0.0446999999999962        -1119.504923977947
0.04499999999999619       -1279.8949042105355
0.04529999999999621       -1436.3796042396507
0.045599999999996206      -1588.4815500180237
0.045899999999996235      -1735.736640379231
0.046199999999996244      -1877.6955631277256
0.04649999999999623       -2013.925166003243
0.04679999999999626       -2144.0097783368137
0.04709999999999627       -2267.552479366443
0.04739999999999628       -2384.176309339566
0.04769999999999629       -2493.5254197151203
0.047999999999996296      -2595.266158946669
0.04829999999999628       -2689.0880905330732
0.04859999999999631       -2774.7049402411485
0.048899999999996314      -2851.8554695996145
0.04919999999999632       -2920.3042730027933
0.04949999999999634       -2979.8424959924027
0.04979999999999634       -3030.2884725247395
0.050099999999996335      -3071.488279279271
0.050399999999996364      -3103.316205317388
0.050699999999996366      -3125.6751356576606
0.05099999999999638       -3138.4968475987353
0.05129999999999638       -3141.742218883141
0.0515999999999964        -3135.401347069507
0.05189999999999641       -3119.493579747226
0.052199999999996416      -3094.0674555020855
0.052499999999996404      -3059.2005558131764
0.052799999999996426      -3014.9992683319983
0.05309999999999644       -2961.598462267217
0.05339999999999644       -2899.161076864965
0.05369999999999645       -2827.8776242401145
0.053999999999996474      -2747.9656080762834
0.05429999999999647       -2659.6688599674953
0.054599999999996464      -2563.2567954269693
0.05489999999999649       -2459.0235918326343
0.055199999999996495      -2347.2872908183617
0.05549999999999652       -2228.388827849186
0.05579999999999651       -2102.690991941669
0.05609999999999653       -1970.5773187037828
0.05639999999999652       -1832.4509200717723
0.056699999999996545      -1688.73325431418
0.05699999999999654       -1539.8628400569548
0.05729999999999655       -1386.2939182532702
0.05759999999999655       -1228.4950661808332
0.057899999999996565      -1066.9477676951183
0.05819999999999659       -902.1449441013435
0.0584999999999966        -734.5894501278741
0.05879999999999659       -564.7925395905397
0.05909999999999659       -393.2723054289828
0.05939999999999661       -220.5520988752609
0.05969999999999662       -47.15893257794643
0.05999999999999662       126.3781274454958
0.060299999999996655      299.5295761217803
0.06059999999999666       471.7670849743952
0.06089999999999665       642.565114186521
0.061199999999996674      811.4025161543261
0.06149999999999667       977.7641256393413
0.06179999999999668       1141.1423316668015
0.0620999999999967        1301.0386263734817
0.062399999999996694      1456.965126080617
0.06269999999999668       1608.4460599492068
0.06299999999999673       1755.0192216759194
0.06329999999999672       1896.23737980023
0.06359999999999671       2031.6696423207763
0.06389999999999675       2160.9027714535555
0.06419999999999676       2283.542444524416
0.06449999999999675       2399.2144571473586
0.06479999999999676       2507.5658650144096
0.06509999999999679       2608.266060817727
0.06539999999999678       2701.0077830159903
0.06569999999999679       2785.5080533665323
0.06599999999999681       2861.5090403601016
0.0662999999999968        2928.778845933043
0.06659999999999681       2987.1122130463455
0.06689999999999682       3036.3311519729446
0.0671999999999968        3076.2854833915403
0.06749999999999687       3106.853296620988
0.06779999999999685       3127.94132160024
0.06809999999999684       3139.485213478585
0.06839999999999687       3141.4497489478686
0.06869999999999689       3133.828933717766
0.0689999999999969        3116.6460208060175
0.06929999999999689       3089.9534395873975
0.06959999999999691       3053.8326358184786
0.06989999999999692       3008.3938231266784
0.07019999999999692       2953.7756467201393
0.07049999999999694       2890.1447603470556
0.07079999999999693       2817.695317793109
0.07109999999999694       2736.6483804693835
0.07139999999999697       2647.251242898939
0.07169999999999696       2549.776678159131
0.07199999999999697       2444.5221055826364
0.07229999999999698       2331.8086832556432
0.07259999999999699       2211.98032808531
0.072899999999997         2085.4026664224784
0.07319999999999702       1952.4619184439493
0.07349999999999698       1813.563719698096
0.07379999999999702       1669.1318834091528
0.07409999999999704       1519.6071073166545
0.07439999999999702       1365.4456289962081
0.07469999999999705       1207.1178337641438
0.07499999999999703       1045.1068194139698
0.0752999999999971        879.9069221643299
0.07559999999999707       712.0222083157914
0.0758999999999971        541.9649362155305
0.0761999999999971        370.2539932315885
0.07649999999999714       197.41331249646217
0.07679999999999713       23.970274255395157
0.07709999999999716       -149.54590330235334
0.07739999999999715       -322.6057788206162
0.07769999999999715       -494.68130323615105
0.07799999999999717       -665.2474309872568
0.0782999999999972        -833.7837220598092
0.07859999999999719       -999.7759299796942
0.07889999999999721       -1162.7175709089577
0.07919999999999726       -1322.1114690541353
0.07949999999999727       -1477.4712736737356
0.07979999999999729       -1628.3229430578926
0.08009999999999726       -1774.2061909466893
0.0803999999999973        -1914.675890979784
0.0806999999999973        -2049.3034348897477
0.08099999999999731       -2177.6780402908694
0.0812999999999973        -2299.408004080335
0.08159999999999734       -2414.1218976220307
0.08189999999999734       -2521.469700069329
0.08219999999999737       -2621.12386636671
0.08249999999999737       -2712.7803266711157
0.0827999999999974        -2796.159414145165
0.08309999999999743       -2871.0067182912617
0.08339999999999743       -2937.0938612216555
0.08369999999999743       -2994.219194496257
0.08399999999999744       -3042.208414402174
0.08429999999999745       -3080.915093799374
0.08459999999999746       -3110.221128906219
0.08489999999999749       -3130.0370996626525
0.08519999999999749       -3140.302542574321
0.08549999999999751       -3140.9861352018333
0.08579999999999749       -3132.085791731606
0.08609999999999753       -3113.628669343355
0.08639999999999755       -3085.6710853442146
0.08669999999999756       -3048.2983453311717
0.08699999999999757       -3001.6244829030566
0.08729999999999759       -2945.791911714045
0.08759999999999755       -2880.970990935409
0.08789999999999763       -2807.359505446122
0.08819999999999761       -2725.1820623417816
0.08849999999999762       -2634.689405601895
0.08879999999999764       -2536.1576510073705
0.08909999999999767       -2429.887443641864
0.08939999999999769       -2316.203040548032
0.08969999999999766       -2195.451321338796
0.08999999999999768       -2068.0007297801903
0.09029999999999773       -1934.2401495769395
0.09059999999999771       -1794.5777177910059
0.09089999999999773       -1649.4395795129433
0.09119999999999774       -1499.2685875866457
0.09149999999999776       -1344.5229513542633
0.09179999999999779       -1185.6748385443318
0.09209999999999775       -1023.2089345697893
0.0923999999999978        -857.6209636315864
0.09269999999999781       -689.4161761394698
0.09299999999999782       -519.1078070664051
0.09329999999999782       -347.21550994067263
0.09359999999999785       -174.2637712507291
0.09389999999999789       -0.78031010836826
0.09419999999999787       172.70553195587
0.09449999999999786       345.66440614768516
0.0947999999999979        517.5685715846575
0.0950999999999979        687.8935055639345
0.09539999999999793       856.1195040141822
0.09569999999999795       1021.7332672414682
0.09599999999999793       1184.2294661391213
0.09629999999999797       1343.1122840680857
0.09659999999999794       1497.8969297198169
0.096899999999998         1648.1111163406463
0.097199999999998         1793.2965027898056
0.09749999999999799       1933.0100920582672
0.097799999999998         2066.825582958681
0.09809999999999802       2194.3346708830522
0.09839999999999807       2315.1482936415264
0.09869999999999807       2428.8978185833535
0.09899999999999805       2535.236167392329
0.09929999999999808       2633.838875108817
0.0995999999999981        2724.405080153957
0.09989999999999812       2806.658442331851
0.10019999999999812       2880.347986014829
0.10049999999999812       2945.2488659324063
0.10079999999999815       3001.163053230073
0.10109999999999819       3047.919939705189
0.10139999999999819       3085.3768583751657
0.10169999999999815       3113.4195187917458
0.10199999999999822       3131.962355768058
0.10229999999999823       3140.9487904597845
0.10259999999999822       3140.3514030011697
0.10289999999999824       3130.172016171184
0.10319999999999824       3110.4416898311147
0.10349999999999827       3081.2206261522015
0.10379999999999827       3042.597985924122
0.10409999999999828       2994.6916165047983
0.10439999999999831       2937.6476922349207
0.10469999999999834       2871.640268427138
0.10499999999999836       2796.8707502781945
0.10529999999999835       2713.567278330491
0.10559999999999835       2621.98403235963
0.10589999999999837       2522.4004558065303
0.10619999999999838       2415.120403126111
0.10649999999999837       2300.4712126515783
0.10679999999999842       2178.802707802364
0.10709999999999843       2050.4861296857166
0.10739999999999844       1915.9130043468788
0.10769999999999842       1775.4939481246238
0.10799999999999844       1629.6574147580823
0.10829999999999847       1478.8483880663512
0.10859999999999849       1323.5270241923602
0.1088999999999985        1164.1672475502244
0.10919999999999853       1001.2553047631878
0.10949999999999852       835.2882810031899
0.10979999999999852       666.7725832592507
0.11009999999999853       496.2223951625469
0.11039999999999858       324.15810808337864
0.11069999999999858       151.10473328627
0.1109999999999986        -22.40970001115358
0.1112999999999986        -195.85575578719778
0.11159999999999858       -368.7042066603873
0.11189999999999861       -540.4276486938969
0.11219999999999862       -710.502110638745
0.11249999999999864       -878.4086526968749
0.11279999999999867       -1043.6349499457908
0.11309999999999866       -1205.6768555637661
0.11339999999999864       -1364.0399391109604
0.11369999999999872       -1518.2409951647476
0.11399999999999873       -1667.8095176952788
0.11429999999999875       -1812.2891357013482
0.11459999999999873       -1951.2390057179728
0.11489999999999873       -2084.235156939172
0.11519999999999873       -2210.871784856587
0.11549999999999878       -2330.7624894814207
0.11579999999999879       -2443.5414543416246
0.11609999999999875       -2548.864562686676
0.11639999999999881       -2646.410447473121
0.1166999999999988        -2735.8814719479037
0.11699999999999881       -2817.004637812896
0.11729999999999882       -2889.5324182154395
0.11759999999999883       -2953.2435130184285
0.11789999999999884       -3007.943524055345
0.11819999999999883       -3053.465548292091
0.11849999999999883       -3089.6706871008696
0.11879999999999885       -3116.448470084586
0.11909999999999885       -3133.717192163233
0.11939999999999888       -3141.4241628889054
0.1196999999999989        -3139.545867235198
0.11999999999999891       -3128.0880373719638
0.12029999999999892       -3107.085635191489
0.1205999999999989        -3076.6027456603765
0.12089999999999892       -3036.7323813138805
0.12119999999999895       -2987.5961984818446
0.12149999999999896       -2929.3441261302855
0.12179999999999899       -2862.153908437432
0.12209999999999899       -2786.230562508393
0.12239999999999902       -2701.805752881523
0.12269999999999903       -2609.137084737047
0.12299999999999899       -2508.5073179662595
0.12329999999999901       -2400.2235045017796
0.12359999999999906       -2284.6160515435263
0.12389999999999905       -2162.0377135393364
0.12419999999999906       -2032.8625160004176
0.12449999999999907       -1897.484614439514
0.12479999999999908       -1756.3170919159547
0.12509999999999913       -1609.7906988607651
0.1253999999999991        -1458.352539034662
0.12569999999999912       -1302.4647056315946
0.12599999999999914       -1142.602871698388
0.12629999999999914       -979.2548391785582
0.12659999999999913       -812.9190510177281
0.12689999999999915       -644.1030708806173
0.12719999999999915       -473.3220351311524
0.12749999999999917       -301.09708181273214
0.12779999999999922       -127.9537614399846
0.12809999999999921       45.57956553062704
0.1283999999999992        218.97333963972514
0.1286999999999992        391.69841683361165
0.12899999999999925       563.2276813876813
0.12929999999999922       733.0376523893101
0.12959999999999927       900.6100788404442
0.1298999999999993        1065.4335184691383
0.13019999999999932       1227.0048953847281
0.13049999999999928       1384.8310317644252
0.1307999999999993        1538.430148834286
0.1310999999999993        1687.3333324849614
0.13139999999999932       1831.085958972556
0.13169999999999935       1969.2490762505954
0.13199999999999937       2101.400736606961
0.13229999999999936       2227.1372764188154
0.13259999999999936       2346.0745389694057
0.13289999999999932       2457.8490364353065
0.13319999999999937       2562.1190473128026
0.13349999999999937       2658.5656457208697
0.1337999999999994        2746.8936592079303
0.1340999999999994        2826.8325518645825
0.1343999999999994        2898.1372297489784
0.13469999999999946       2960.5887658252354
0.13499999999999945       3013.9950418218195
0.1352999999999995        3058.1913046248947
0.13559999999999947       3093.040635034446
0.1358999999999995        3118.4343269212504
0.13619999999999952       3134.2921750498135
0.13649999999999954       3140.5626700454136
0.13679999999999953       3137.2230992069244
0.13709999999999956       3124.2795520976465
0.13739999999999952       3101.766830077102
0.13769999999999954       3069.748259172171
0.1379999999999996        3028.3154059396775
0.1382999999999996        2977.5876962353054
0.1385999999999996        2917.711937088411
0.1388999999999996        2848.861742198913
0.1391999999999996        2771.236861926231
0.13949999999999962       2685.0624190566564
0.13979999999999965       2590.5880521275794
0.14009999999999967       2488.0869686752803
0.1403999999999997        2377.8549115080286
0.1406999999999997        2260.209042015456
0.14099999999999963       2135.4867456679353
0.14129999999999973       2004.0443663135802
0.14159999999999975       1866.2558777178333
0.1418999999999997        1722.5115031126365
0.14219999999999974       1573.2162964774961
0.14249999999999974       1418.7887029687176
0.14279999999999976       1259.6591205288325
0.14309999999999978       1096.2684903900715
0.1433999999999998        929.06695108487
0.1436999999999998        758.5125987413481
0.14399999999999985       585.0704058779838
0.14429999999999985       409.2113613023729
0.14459999999999978       231.41190445990412
0.14489999999999983       52.15373747389452
0.14519999999999983       -128.07589483379036
0.14549999999999985       -308.7833654796818
0.1457999999999999        -489.46718392470353
0.1460999999999999        -669.6158148155906
0.14639999999999992       -848.7047850741163
0.14669999999999989       -1026.1931404817049
0.14699999999999996       -1201.519414145978
0.14729999999999993       -1374.097392479364
0.14759999999999995       -1543.312090102008
0.14789999999999995       -1708.51643615724
0.14819999999999997       -1869.0291760842158
0.1485                    -2024.134339439501
0.14880000000000002       -2173.0822701618818
0.14909999999999998       -2315.0916365106777
0.1494                    -2449.351192929068
0.14970000000000006       -2575.0192169472707
0.15                      -2691.2189030202594
