$MeshFormat
2.2 0 8
$EndMeshFormat
$PhysicalNames
2
3 1 "prop"
3 2 "damp"
$EndPhysicalNames
$Nodes
1000
1 0 0 0
2 0.4 0 0
3 0.4 0.4 0
4 0 0.4 0
5 0.55 0 0
6 0.55 0.4 0
7 0.55 0.55 0
8 0 0.55 0
9 0.4 0.55 0
10 0 0 0.4
11 0.4 0 0.4
12 0.4 0.4 0.4
13 0 0.4 0.4
14 0.4 0.55 0.4
15 0 0.55 0.4
16 0.55 0.4 0.4
17 0.55 0.55 0.4
18 0.55 0 0.4
19 0 0 0.55
20 0.4 0 0.55
21 0.4 0.4 0.55
22 0 0.4 0.55
23 0.55 0 0.55
24 0.55 0.4 0.55
25 0.4 0.55 0.55
26 0 0.55 0.55
27 0.55 0.55 0.55
28 0.05714285714275222 0 0
29 0.1142857142854399 0 0
30 0.1714285714281222 0 0
31 0.2285714285709748 0 0
32 0.2857142857139837 0 0
33 0.3428571428569864 0 0
34 0.4 0.05714285714275222 0
35 0.4 0.1142857142854399 0
36 0.4 0.1714285714281222 0
37 0.4 0.2285714285709748 0
38 0.4 0.2857142857139837 0
39 0.4 0.3428571428569864 0
40 0.05714285714275222 0.4 0
41 0.1142857142854399 0.4 0
42 0.1714285714281222 0.4 0
43 0.2285714285709748 0.4 0
44 0.2857142857139837 0.4 0
45 0.3428571428569864 0.4 0
46 0 0.05714285714275222 0
47 0 0.1142857142854399 0
48 0 0.1714285714281222 0
49 0 0.2285714285709748 0
50 0 0.2857142857139837 0
51 0 0.3428571428569864 0
52 0 0.4749999999997725 0
53 0.05714285714275222 0.55 0
54 0.1142857142854399 0.55 0
55 0.1714285714281222 0.55 0
56 0.2285714285709748 0.55 0
57 0.2857142857139837 0.55 0
58 0.3428571428569864 0.55 0
59 0.4 0.4749999999997725 0
60 0.4749999999997725 0.55 0
61 0.4749999999997725 0.4 0
62 0.55 0.4749999999997725 0
63 0.4749999999997725 0 0
64 0.55 0.05714285714275222 0
65 0.55 0.1142857142854399 0
66 0.55 0.1714285714281222 0
67 0.55 0.2285714285709748 0
68 0.55 0.2857142857139837 0
69 0.55 0.3428571428569864 0
70 0.05714285714275222 0 0.4
71 0.1142857142854399 0 0.4
72 0.1714285714281222 0 0.4
73 0.2285714285709748 0 0.4
74 0.2857142857139837 0 0.4
75 0.3428571428569864 0 0.4
76 0.4 0.05714285714275222 0.4
77 0.4 0.1142857142854399 0.4
78 0.4 0.1714285714281222 0.4
79 0.4 0.2285714285709748 0.4
80 0.4 0.2857142857139837 0.4
81 0.4 0.3428571428569864 0.4
82 0.342857142857301 0.4 0.4
83 0.2857142857146019 0.4 0.4
84 0.2285714285719029 0.4 0.4
85 0.1714285714290441 0.4 0.4
86 0.1142857142860289 0.4 0.4
87 0.05714285714301981 0.4 0.4
88 0 0.342857142857301 0.4
89 0 0.2857142857146019 0.4
90 0 0.2285714285719029 0.4
91 0 0.1714285714290441 0.4
92 0 0.1142857142860289 0.4
93 0 0.05714285714301981 0.4
94 0 0 0.05714285714275222
95 0 0 0.1142857142854399
96 0 0 0.1714285714281222
97 0 0 0.2285714285709748
98 0 0 0.2857142857139837
99 0 0 0.3428571428569864
100 0.4 0 0.05714285714275222
101 0.4 0 0.1142857142854399
102 0.4 0 0.1714285714281222
103 0.4 0 0.2285714285709748
104 0.4 0 0.2857142857139837
105 0.4 0 0.3428571428569864
106 0.4 0.4 0.05714285714275222
107 0.4 0.4 0.1142857142854399
108 0.4 0.4 0.1714285714281222
109 0.4 0.4 0.2285714285709748
110 0.4 0.4 0.2857142857139837
111 0.4 0.4 0.3428571428569864
112 0 0.4 0.05714285714275222
113 0 0.4 0.1142857142854399
114 0 0.4 0.1714285714281222
115 0 0.4 0.2285714285709748
116 0 0.4 0.2857142857139837
117 0 0.4 0.3428571428569864
118 0.4 0.4749999999997725 0.4
119 0.342857142857301 0.55 0.4
120 0.2857142857146019 0.55 0.4
121 0.2285714285719029 0.55 0.4
122 0.1714285714290441 0.55 0.4
123 0.1142857142860289 0.55 0.4
124 0.05714285714301981 0.55 0.4
125 0 0.4750000000000757 0.4
126 0.4 0.55 0.05714285714275222
127 0.4 0.55 0.1142857142854399
128 0.4 0.55 0.1714285714281222
129 0.4 0.55 0.2285714285709748
130 0.4 0.55 0.2857142857139837
131 0.4 0.55 0.3428571428569864
132 0 0.55 0.05714285714275222
133 0 0.55 0.1142857142854399
134 0 0.55 0.1714285714281222
135 0 0.55 0.2285714285709748
136 0 0.55 0.2857142857139837
137 0 0.55 0.3428571428569864
138 0.4749999999997725 0.4 0.4
139 0.55 0.4749999999997725 0.4
140 0.4750000000000757 0.55 0.4
141 0.55 0.4 0.05714285714275222
142 0.55 0.4 0.1142857142854399
143 0.55 0.4 0.1714285714281222
144 0.55 0.4 0.2285714285709748
145 0.55 0.4 0.2857142857139837
146 0.55 0.4 0.3428571428569864
147 0.55 0.55 0.05714285714275222
148 0.55 0.55 0.1142857142854399
149 0.55 0.55 0.1714285714281222
150 0.55 0.55 0.2285714285709748
151 0.55 0.55 0.2857142857139837
152 0.55 0.55 0.3428571428569864
153 0.4749999999997725 0 0.4
154 0.55 0.05714285714275222 0.4
155 0.55 0.1142857142854399 0.4
156 0.55 0.1714285714281222 0.4
157 0.55 0.2285714285709748 0.4
158 0.55 0.2857142857139837 0.4
159 0.55 0.3428571428569864 0.4
160 0.55 0 0.05714285714275222
161 0.55 0 0.1142857142854399
162 0.55 0 0.1714285714281222
163 0.55 0 0.2285714285709748
164 0.55 0 0.2857142857139837
165 0.55 0 0.3428571428569864
166 0.05714285714275222 0 0.55
167 0.1142857142854399 0 0.55
168 0.1714285714281222 0 0.55
169 0.2285714285709748 0 0.55
170 0.2857142857139837 0 0.55
171 0.3428571428569864 0 0.55
172 0.4 0.05714285714275222 0.55
173 0.4 0.1142857142854399 0.55
174 0.4 0.1714285714281222 0.55
175 0.4 0.2285714285709748 0.55
176 0.4 0.2857142857139837 0.55
177 0.4 0.3428571428569864 0.55
178 0.342857142857301 0.4 0.55
179 0.2857142857146019 0.4 0.55
180 0.2285714285719029 0.4 0.55
181 0.1714285714290441 0.4 0.55
182 0.1142857142860289 0.4 0.55
183 0.05714285714301981 0.4 0.55
184 0 0.342857142857301 0.55
185 0 0.2857142857146019 0.55
186 0 0.2285714285719029 0.55
187 0 0.1714285714290441 0.55
188 0 0.1142857142860289 0.55
189 0 0.05714285714301981 0.55
190 0 0 0.4749999999997725
191 0.4 0 0.4749999999997725
192 0.4 0.4 0.4749999999997725
193 0 0.4 0.4749999999997725
194 0.4749999999997725 0 0.55
195 0.55 0.05714285714275222 0.55
196 0.55 0.1142857142854399 0.55
197 0.55 0.1714285714281222 0.55
198 0.55 0.2285714285709748 0.55
199 0.55 0.2857142857139837 0.55
200 0.55 0.3428571428569864 0.55
201 0.4750000000000757 0.4 0.55
202 0.55 0 0.4749999999997725
203 0.55 0.4 0.4749999999997725
204 0.4 0.4749999999997725 0.55
205 0.342857142857301 0.55 0.55
206 0.2857142857146019 0.55 0.55
207 0.2285714285719029 0.55 0.55
208 0.1714285714290441 0.55 0.55
209 0.1142857142860289 0.55 0.55
210 0.05714285714301981 0.55 0.55
211 0 0.4750000000000757 0.55
212 0.4 0.55 0.4749999999997725
213 0 0.55 0.4749999999997725
214 0.55 0.4749999999997725 0.55
215 0.4750000000000757 0.55 0.55
216 0.55 0.55 0.4749999999997725
217 0.05714285714275222 0.05714285714275222 0
218 0.05714285714275223 0.1142857142854399 0
219 0.05714285714275221 0.1714285714281222 0
220 0.05714285714275222 0.2285714285709748 0
221 0.0571428571427522 0.2857142857139837 0
222 0.05714285714275224 0.3428571428569864 0
223 0.1142857142854399 0.05714285714275222 0
224 0.1142857142854399 0.1142857142854399 0
225 0.1142857142854399 0.1714285714281222 0
226 0.1142857142854399 0.2285714285709747 0
227 0.1142857142854399 0.2857142857139837 0
228 0.1142857142854399 0.3428571428569864 0
229 0.1714285714281222 0.05714285714275222 0
230 0.1714285714281222 0.1142857142854399 0
231 0.1714285714281222 0.1714285714281222 0
232 0.1714285714281222 0.2285714285709748 0
233 0.1714285714281222 0.2857142857139837 0
234 0.1714285714281222 0.3428571428569864 0
235 0.2285714285709748 0.05714285714275222 0
236 0.2285714285709747 0.1142857142854399 0
237 0.2285714285709748 0.1714285714281222 0
238 0.2285714285709747 0.2285714285709748 0
239 0.2285714285709747 0.2857142857139837 0
240 0.2285714285709748 0.3428571428569864 0
241 0.2857142857139837 0.0571428571427522 0
242 0.2857142857139837 0.1142857142854399 0
243 0.2857142857139837 0.1714285714281222 0
244 0.2857142857139837 0.2285714285709748 0
245 0.2857142857139837 0.2857142857139837 0
246 0.2857142857139837 0.3428571428569864 0
247 0.3428571428569864 0.05714285714275222 0
248 0.3428571428569863 0.1142857142854399 0
249 0.3428571428569864 0.1714285714281222 0
250 0.3428571428569864 0.2285714285709748 0
251 0.3428571428569864 0.2857142857139837 0
252 0.3428571428569864 0.3428571428569865 0
253 0.05714285714275222 0.4749999999997724 0
254 0.1142857142854399 0.4749999999997725 0
255 0.1714285714281222 0.4749999999997725 0
256 0.2285714285709748 0.4749999999997727 0
257 0.2857142857139837 0.4749999999997726 0
258 0.3428571428569864 0.4749999999997726 0
259 0.4749999999997726 0.4749999999997725 0
260 0.4749999999997725 0.05714285714275222 0
261 0.4749999999997724 0.1142857142854399 0
262 0.4749999999997727 0.1714285714281222 0
263 0.4749999999997725 0.2285714285709748 0
264 0.4749999999997726 0.2857142857139837 0
265 0.4749999999997725 0.3428571428569864 0
266 0.05714285714275222 0 0.05714285714275222
267 0.05714285714275222 0 0.1142857142854399
268 0.05714285714275222 0 0.1714285714281222
269 0.05714285714275222 0 0.2285714285709748
270 0.05714285714275222 0 0.2857142857139837
271 0.05714285714275222 0 0.3428571428569864
272 0.1142857142854399 0 0.05714285714275222
273 0.1142857142854399 0 0.1142857142854399
274 0.1142857142854399 0 0.1714285714281222
275 0.1142857142854399 0 0.2285714285709748
276 0.1142857142854399 0 0.2857142857139837
277 0.1142857142854399 0 0.3428571428569864
278 0.1714285714281222 0 0.05714285714275222
279 0.1714285714281222 0 0.1142857142854399
280 0.1714285714281222 0 0.1714285714281222
281 0.1714285714281222 0 0.2285714285709748
282 0.1714285714281222 0 0.2857142857139837
283 0.1714285714281222 0 0.3428571428569864
284 0.2285714285709748 0 0.05714285714275222
285 0.2285714285709748 0 0.1142857142854399
286 0.2285714285709748 0 0.1714285714281222
287 0.2285714285709748 0 0.2285714285709748
288 0.2285714285709748 0 0.2857142857139837
289 0.2285714285709748 0 0.3428571428569864
290 0.2857142857139837 0 0.05714285714275222
291 0.2857142857139837 0 0.1142857142854399
292 0.2857142857139837 0 0.1714285714281222
293 0.2857142857139837 0 0.2285714285709748
294 0.2857142857139837 0 0.2857142857139837
295 0.2857142857139837 0 0.3428571428569864
296 0.3428571428569864 0 0.05714285714275222
297 0.3428571428569864 0 0.1142857142854399
298 0.3428571428569864 0 0.1714285714281222
299 0.3428571428569864 0 0.2285714285709748
300 0.3428571428569864 0 0.2857142857139837
301 0.3428571428569864 0 0.3428571428569864
302 0.4 0.05714285714275222 0.05714285714275222
303 0.4 0.05714285714275222 0.1142857142854399
304 0.4 0.05714285714275222 0.1714285714281222
305 0.4 0.05714285714275222 0.2285714285709748
306 0.4 0.05714285714275222 0.2857142857139837
307 0.4 0.05714285714275222 0.3428571428569864
308 0.4 0.1142857142854399 0.05714285714275222
309 0.4 0.1142857142854399 0.1142857142854399
310 0.4 0.1142857142854399 0.1714285714281222
311 0.4 0.1142857142854399 0.2285714285709748
312 0.4 0.1142857142854399 0.2857142857139837
313 0.4 0.1142857142854399 0.3428571428569864
314 0.4 0.1714285714281222 0.05714285714275222
315 0.4 0.1714285714281222 0.1142857142854399
316 0.4 0.1714285714281222 0.1714285714281222
317 0.4 0.1714285714281222 0.2285714285709748
318 0.4 0.1714285714281222 0.2857142857139837
319 0.4 0.1714285714281222 0.3428571428569864
320 0.4 0.2285714285709748 0.05714285714275222
321 0.4 0.2285714285709748 0.1142857142854399
322 0.4 0.2285714285709748 0.1714285714281222
323 0.4 0.2285714285709748 0.2285714285709748
324 0.4 0.2285714285709748 0.2857142857139837
325 0.4 0.2285714285709748 0.3428571428569864
326 0.4 0.2857142857139837 0.05714285714275222
327 0.4 0.2857142857139837 0.1142857142854399
328 0.4 0.2857142857139837 0.1714285714281222
329 0.4 0.2857142857139837 0.2285714285709748
330 0.4 0.2857142857139837 0.2857142857139837
331 0.4 0.2857142857139837 0.3428571428569864
332 0.4 0.3428571428569864 0.05714285714275222
333 0.4 0.3428571428569864 0.1142857142854399
334 0.4 0.3428571428569864 0.1714285714281222
335 0.4 0.3428571428569864 0.2285714285709748
336 0.4 0.3428571428569864 0.2857142857139837
337 0.4 0.3428571428569864 0.3428571428569864
338 0.05714285714279051 0.4 0.05714285714275222
339 0.05714285714282861 0.4 0.1142857142854399
340 0.05714285714286689 0.4 0.1714285714281222
341 0.05714285714290517 0.4 0.2285714285709748
342 0.05714285714294336 0.4 0.2857142857139837
343 0.05714285714298156 0.4 0.3428571428569864
344 0.114285714285524 0.4 0.05714285714275222
345 0.1142857142856082 0.4 0.1142857142854399
346 0.1142857142856924 0.4 0.1714285714281222
347 0.1142857142857765 0.4 0.2285714285709748
348 0.1142857142858607 0.4 0.2857142857139837
349 0.1142857142859448 0.4 0.3428571428569864
350 0.1714285714282539 0.4 0.05714285714275222
351 0.1714285714283856 0.4 0.1142857142854399
352 0.1714285714285173 0.4 0.1714285714281222
353 0.1714285714286491 0.4 0.2285714285709748
354 0.1714285714287807 0.4 0.2857142857139837
355 0.1714285714289124 0.4 0.3428571428569864
356 0.2285714285711073 0.4 0.05714285714275222
357 0.2285714285712399 0.4 0.1142857142854399
358 0.2285714285713725 0.4 0.1714285714281222
359 0.2285714285715051 0.4 0.2285714285709748
360 0.2285714285716377 0.4 0.2857142857139837
361 0.2285714285717703 0.4 0.3428571428569864
362 0.285714285714072 0.4 0.05714285714275222
363 0.2857142857141603 0.4 0.1142857142854399
364 0.2857142857142487 0.4 0.1714285714281222
365 0.285714285714337 0.4 0.2285714285709748
366 0.2857142857144253 0.4 0.2857142857139837
367 0.2857142857145136 0.4 0.3428571428569864
368 0.3428571428570313 0.4 0.05714285714275222
369 0.3428571428570763 0.4 0.1142857142854399
370 0.3428571428571212 0.4 0.1714285714281222
371 0.3428571428571662 0.4 0.2285714285709748
372 0.3428571428572111 0.4 0.2857142857139837
373 0.342857142857256 0.4 0.3428571428569864
374 0 0.05714285714279051 0.05714285714275222
375 0 0.05714285714282861 0.1142857142854399
376 0 0.05714285714286689 0.1714285714281222
377 0 0.05714285714290517 0.2285714285709748
378 0 0.05714285714294336 0.2857142857139837
379 0 0.05714285714298156 0.3428571428569864
380 0 0.114285714285524 0.05714285714275222
381 0 0.1142857142856082 0.1142857142854399
382 0 0.1142857142856924 0.1714285714281222
383 0 0.1142857142857765 0.2285714285709748
384 0 0.1142857142858607 0.2857142857139837
385 0 0.1142857142859448 0.3428571428569864
386 0 0.1714285714282539 0.05714285714275222
387 0 0.1714285714283856 0.1142857142854399
388 0 0.1714285714285173 0.1714285714281222
389 0 0.1714285714286491 0.2285714285709748
390 0 0.1714285714287807 0.2857142857139837
391 0 0.1714285714289124 0.3428571428569864
392 0 0.2285714285711073 0.05714285714275222
393 0 0.2285714285712399 0.1142857142854399
394 0 0.2285714285713725 0.1714285714281222
395 0 0.2285714285715051 0.2285714285709748
396 0 0.2285714285716377 0.2857142857139837
397 0 0.2285714285717703 0.3428571428569864
398 0 0.285714285714072 0.05714285714275222
399 0 0.2857142857141603 0.1142857142854399
400 0 0.2857142857142487 0.1714285714281222
401 0 0.285714285714337 0.2285714285709748
402 0 0.2857142857144253 0.2857142857139837
403 0 0.2857142857145136 0.3428571428569864
404 0 0.3428571428570313 0.05714285714275222
405 0 0.3428571428570763 0.1142857142854399
406 0 0.3428571428571212 0.1714285714281222
407 0 0.3428571428571662 0.2285714285709748
408 0 0.3428571428572111 0.2857142857139837
409 0 0.342857142857256 0.3428571428569864
410 0.05714285714279044 0.05714285714298158 0.4
411 0.05714285714282867 0.1142857142859448 0.4
412 0.0571428571428669 0.1714285714289124 0.4
413 0.05714285714290513 0.2285714285717703 0.4
414 0.05714285714294334 0.2857142857145136 0.4
415 0.05714285714298158 0.342857142857256 0.4
416 0.1142857142855241 0.05714285714294336 0.4
417 0.1142857142856082 0.1142857142858606 0.4
418 0.1142857142856924 0.1714285714287808 0.4
419 0.1142857142857765 0.2285714285716377 0.4
420 0.1142857142858607 0.2857142857144254 0.4
421 0.1142857142859448 0.3428571428572111 0.4
422 0.1714285714282539 0.05714285714290513 0.4
423 0.1714285714283856 0.1142857142857765 0.4
424 0.1714285714285173 0.171428571428649 0.4
425 0.171428571428649 0.2285714285715051 0.4
426 0.1714285714287807 0.285714285714337 0.4
427 0.1714285714289124 0.3428571428571661 0.4
428 0.2285714285711074 0.0571428571428669 0.4
429 0.2285714285712399 0.1142857142856924 0.4
430 0.2285714285713725 0.1714285714285173 0.4
431 0.2285714285715051 0.2285714285713725 0.4
432 0.2285714285716376 0.2857142857142486 0.4
433 0.2285714285717703 0.3428571428571213 0.4
434 0.2857142857140721 0.05714285714282867 0.4
435 0.2857142857141604 0.1142857142856082 0.4
436 0.2857142857142486 0.1714285714283856 0.4
437 0.285714285714337 0.22857142857124 0.4
438 0.2857142857144254 0.2857142857141604 0.4
439 0.2857142857145136 0.3428571428570762 0.4
440 0.3428571428570313 0.05714285714279046 0.4
441 0.3428571428570762 0.1142857142855241 0.4
442 0.3428571428571212 0.1714285714282539 0.4
443 0.3428571428571661 0.2285714285711073 0.4
444 0.3428571428572111 0.2857142857140721 0.4
445 0.3428571428572561 0.3428571428570314 0.4
446 0.4 0.4749999999997726 0.05714285714275222
447 0.4 0.4749999999997725 0.1142857142854399
448 0.4 0.4749999999997725 0.1714285714281222
449 0.4 0.4749999999997726 0.2285714285709748
450 0.4 0.4749999999997725 0.2857142857139837
451 0.4 0.4749999999997725 0.3428571428569864
452 0.05714285714279051 0.55 0.05714285714275222
453 0.05714285714282861 0.55 0.1142857142854399
454 0.05714285714286689 0.55 0.1714285714281222
455 0.05714285714290517 0.55 0.2285714285709748
456 0.05714285714294336 0.55 0.2857142857139837
457 0.05714285714298156 0.55 0.3428571428569864
458 0.114285714285524 0.55 0.05714285714275222
459 0.1142857142856082 0.55 0.1142857142854399
460 0.1142857142856924 0.55 0.1714285714281222
461 0.1142857142857765 0.55 0.2285714285709748
462 0.1142857142858607 0.55 0.2857142857139837
463 0.1142857142859448 0.55 0.3428571428569864
464 0.1714285714282539 0.55 0.05714285714275222
465 0.1714285714283856 0.55 0.1142857142854399
466 0.1714285714285173 0.55 0.1714285714281222
467 0.1714285714286491 0.55 0.2285714285709748
468 0.1714285714287807 0.55 0.2857142857139837
469 0.1714285714289124 0.55 0.3428571428569864
470 0.2285714285711073 0.55 0.05714285714275222
471 0.2285714285712399 0.55 0.1142857142854399
472 0.2285714285713725 0.55 0.1714285714281222
473 0.2285714285715051 0.55 0.2285714285709748
474 0.2285714285716377 0.55 0.2857142857139837
475 0.2285714285717703 0.55 0.3428571428569864
476 0.285714285714072 0.55 0.05714285714275222
477 0.2857142857141603 0.55 0.1142857142854399
478 0.2857142857142487 0.55 0.1714285714281222
479 0.285714285714337 0.55 0.2285714285709748
480 0.2857142857144253 0.55 0.2857142857139837
481 0.2857142857145136 0.55 0.3428571428569864
482 0.3428571428570313 0.55 0.05714285714275222
483 0.3428571428570763 0.55 0.1142857142854399
484 0.3428571428571212 0.55 0.1714285714281222
485 0.3428571428571662 0.55 0.2285714285709748
486 0.3428571428572111 0.55 0.2857142857139837
487 0.342857142857256 0.55 0.3428571428569864
488 0 0.4749999999998159 0.05714285714275222
489 0 0.4749999999998592 0.1142857142854399
490 0 0.4749999999999025 0.1714285714281222
491 0 0.4749999999999458 0.2285714285709748
492 0 0.4749999999999891 0.2857142857139837
493 0 0.4750000000000324 0.3428571428569864
494 0.342857142857301 0.4749999999998159 0.4
495 0.2857142857146019 0.4749999999998592 0.4
496 0.2285714285719029 0.4749999999999025 0.4
497 0.1714285714290441 0.4749999999999458 0.4
498 0.1142857142860289 0.4749999999999891 0.4
499 0.05714285714301982 0.4750000000000324 0.4
500 0.4749999999997726 0.4 0.05714285714275222
501 0.4749999999997725 0.4 0.1142857142854399
502 0.4749999999997725 0.4 0.1714285714281222
503 0.4749999999997726 0.4 0.2285714285709748
504 0.4749999999997725 0.4 0.2857142857139837
505 0.4749999999997725 0.4 0.3428571428569864
506 0.55 0.4749999999997726 0.05714285714275222
507 0.55 0.4749999999997725 0.1142857142854399
508 0.55 0.4749999999997725 0.1714285714281222
509 0.55 0.4749999999997726 0.2285714285709748
510 0.55 0.4749999999997725 0.2857142857139837
511 0.55 0.4749999999997725 0.3428571428569864
512 0.4749999999998159 0.55 0.05714285714275222
513 0.4749999999998592 0.55 0.1142857142854399
514 0.4749999999999025 0.55 0.1714285714281222
515 0.4749999999999458 0.55 0.2285714285709748
516 0.4749999999999891 0.55 0.2857142857139837
517 0.4750000000000324 0.55 0.3428571428569864
518 0.4749999999999241 0.4749999999997725 0.4
519 0.4749999999997726 0 0.05714285714275222
520 0.4749999999997725 0 0.1142857142854399
521 0.4749999999997725 0 0.1714285714281222
522 0.4749999999997726 0 0.2285714285709748
523 0.4749999999997725 0 0.2857142857139837
524 0.4749999999997725 0 0.3428571428569864
525 0.55 0.05714285714275222 0.05714285714275222
526 0.55 0.05714285714275222 0.1142857142854399
527 0.55 0.05714285714275222 0.1714285714281222
528 0.55 0.05714285714275222 0.2285714285709748
529 0.55 0.05714285714275222 0.2857142857139837
530 0.55 0.05714285714275222 0.3428571428569864
531 0.55 0.1142857142854399 0.05714285714275222
532 0.55 0.1142857142854399 0.1142857142854399
533 0.55 0.1142857142854399 0.1714285714281222
534 0.55 0.1142857142854399 0.2285714285709748
535 0.55 0.1142857142854399 0.2857142857139837
536 0.55 0.1142857142854399 0.3428571428569864
537 0.55 0.1714285714281222 0.05714285714275222
538 0.55 0.1714285714281222 0.1142857142854399
539 0.55 0.1714285714281222 0.1714285714281222
540 0.55 0.1714285714281222 0.2285714285709748
541 0.55 0.1714285714281222 0.2857142857139837
542 0.55 0.1714285714281222 0.3428571428569864
543 0.55 0.2285714285709748 0.05714285714275222
544 0.55 0.2285714285709748 0.1142857142854399
545 0.55 0.2285714285709748 0.1714285714281222
546 0.55 0.2285714285709748 0.2285714285709748
547 0.55 0.2285714285709748 0.2857142857139837
548 0.55 0.2285714285709748 0.3428571428569864
549 0.55 0.2857142857139837 0.05714285714275222
550 0.55 0.2857142857139837 0.1142857142854399
551 0.55 0.2857142857139837 0.1714285714281222
552 0.55 0.2857142857139837 0.2285714285709748
553 0.55 0.2857142857139837 0.2857142857139837
554 0.55 0.2857142857139837 0.3428571428569864
555 0.55 0.3428571428569864 0.05714285714275222
556 0.55 0.3428571428569864 0.1142857142854399
557 0.55 0.3428571428569864 0.1714285714281222
558 0.55 0.3428571428569864 0.2285714285709748
559 0.55 0.3428571428569864 0.2857142857139837
560 0.55 0.3428571428569864 0.3428571428569864
561 0.4749999999997725 0.05714285714275222 0.4
562 0.4749999999997724 0.1142857142854399 0.4
563 0.4749999999997727 0.1714285714281222 0.4
564 0.4749999999997725 0.2285714285709748 0.4
565 0.4749999999997726 0.2857142857139837 0.4
566 0.4749999999997725 0.3428571428569864 0.4
567 0.05714285714275222 0 0.4749999999997725
568 0.1142857142854399 0 0.4749999999997725
569 0.1714285714281222 0 0.4749999999997725
570 0.2285714285709748 0 0.4749999999997725
571 0.2857142857139837 0 0.4749999999997725
572 0.3428571428569864 0 0.4749999999997725
573 0.4 0.05714285714275222 0.4749999999997725
574 0.4 0.1142857142854399 0.4749999999997725
575 0.4 0.1714285714281222 0.4749999999997725
576 0.4 0.2285714285709748 0.4749999999997725
577 0.4 0.2857142857139837 0.4749999999997725
578 0.4 0.3428571428569864 0.4749999999997725
579 0.342857142857301 0.4 0.4749999999997725
580 0.2857142857146019 0.4 0.4749999999997725
581 0.2285714285719029 0.4 0.4749999999997725
582 0.1714285714290441 0.4 0.4749999999997725
583 0.1142857142860289 0.4 0.4749999999997725
584 0.05714285714301981 0.4 0.4749999999997725
585 0 0.342857142857301 0.4749999999997725
586 0 0.2857142857146019 0.4749999999997725
587 0 0.2285714285719029 0.4749999999997725
588 0 0.1714285714290441 0.4749999999997725
589 0 0.1142857142860289 0.4749999999997725
590 0 0.05714285714301981 0.4749999999997725
591 0.05714285714279044 0.05714285714298158 0.55
592 0.05714285714282867 0.1142857142859448 0.55
593 0.0571428571428669 0.1714285714289124 0.55
594 0.05714285714290513 0.2285714285717703 0.55
595 0.05714285714294334 0.2857142857145136 0.55
596 0.05714285714298158 0.342857142857256 0.55
597 0.1142857142855241 0.05714285714294336 0.55
598 0.1142857142856082 0.1142857142858606 0.55
599 0.1142857142856924 0.1714285714287808 0.55
600 0.1142857142857765 0.2285714285716377 0.55
601 0.1142857142858607 0.2857142857144254 0.55
602 0.1142857142859448 0.3428571428572111 0.55
603 0.1714285714282539 0.05714285714290513 0.55
604 0.1714285714283856 0.1142857142857765 0.55
605 0.1714285714285173 0.171428571428649 0.55
606 0.171428571428649 0.2285714285715051 0.55
607 0.1714285714287807 0.285714285714337 0.55
608 0.1714285714289124 0.3428571428571661 0.55
609 0.2285714285711074 0.0571428571428669 0.55
610 0.2285714285712399 0.1142857142856924 0.55
611 0.2285714285713725 0.1714285714285173 0.55
612 0.2285714285715051 0.2285714285713725 0.55
613 0.2285714285716376 0.2857142857142486 0.55
614 0.2285714285717703 0.3428571428571213 0.55
615 0.2857142857140721 0.05714285714282867 0.55
616 0.2857142857141604 0.1142857142856082 0.55
617 0.2857142857142486 0.1714285714283856 0.55
618 0.285714285714337 0.22857142857124 0.55
619 0.2857142857144254 0.2857142857141604 0.55
620 0.2857142857145136 0.3428571428570762 0.55
621 0.3428571428570313 0.05714285714279046 0.55
622 0.3428571428570762 0.1142857142855241 0.55
623 0.3428571428571212 0.1714285714282539 0.55
624 0.3428571428571661 0.2285714285711073 0.55
625 0.3428571428572111 0.2857142857140721 0.55
626 0.3428571428572561 0.3428571428570314 0.55
627 0.4749999999997725 0 0.4749999999997725
628 0.55 0.05714285714275222 0.4749999999997725
629 0.55 0.1142857142854399 0.4749999999997725
630 0.55 0.1714285714281222 0.4749999999997725
631 0.55 0.2285714285709748 0.4749999999997725
632 0.55 0.2857142857139837 0.4749999999997725
633 0.55 0.3428571428569864 0.4749999999997725
634 0.4749999999999241 0.4 0.4749999999997725
635 0.4749999999998158 0.05714285714275222 0.55
636 0.474999999999859 0.1142857142854399 0.55
637 0.4749999999999026 0.1714285714281222 0.55
638 0.4749999999999457 0.2285714285709748 0.55
639 0.4749999999999892 0.2857142857139837 0.55
640 0.4750000000000325 0.3428571428569864 0.55
641 0.4 0.4749999999997725 0.4749999999997725
642 0.342857142857301 0.55 0.4749999999997725
643 0.2857142857146019 0.55 0.4749999999997725
644 0.2285714285719029 0.55 0.4749999999997725
645 0.1714285714290441 0.55 0.4749999999997725
646 0.1142857142860289 0.55 0.4749999999997725
647 0.05714285714301981 0.55 0.4749999999997725
648 0 0.4750000000000756 0.4749999999997725
649 0.342857142857301 0.4749999999998159 0.55
650 0.2857142857146019 0.4749999999998592 0.55
651 0.2285714285719029 0.4749999999999025 0.55
652 0.1714285714290441 0.4749999999999458 0.55
653 0.1142857142860289 0.4749999999999891 0.55
654 0.05714285714301982 0.4750000000000324 0.55
655 0.55 0.4749999999997725 0.4749999999997725
656 0.4750000000000756 0.55 0.4749999999997725
657 0.4750000000000757 0.4749999999997727 0.55
658 0.05714285714275767 0.05714285714278505 0.05714285714275223
659 0.05714285714276311 0.05714285714281769 0.1142857142854399
660 0.05714285714276857 0.05714285714285053 0.1714285714281223
661 0.05714285714277407 0.05714285714288332 0.2285714285709747
662 0.05714285714277948 0.05714285714291602 0.2857142857139837
663 0.05714285714278496 0.05714285714294879 0.3428571428569863
664 0.05714285714276317 0.1142857142855121 0.05714285714275222
665 0.05714285714277406 0.1142857142855842 0.1142857142854399
666 0.05714285714278499 0.1142857142856564 0.1714285714281223
667 0.05714285714279591 0.1142857142857284 0.2285714285709747
668 0.05714285714280683 0.1142857142858005 0.2857142857139837
669 0.05714285714281775 0.1142857142858726 0.3428571428569862
670 0.05714285714276864 0.1714285714282352 0.05714285714275221
671 0.05714285714278495 0.171428571428348 0.1142857142854399
672 0.05714285714280137 0.1714285714284608 0.1714285714281223
673 0.05714285714281776 0.1714285714285738 0.2285714285709748
674 0.05714285714283414 0.1714285714286865 0.2857142857139837
675 0.05714285714285051 0.1714285714287995 0.3428571428569864
676 0.0571428571427741 0.2285714285710884 0.05714285714275223
677 0.05714285714279589 0.2285714285712019 0.1142857142854399
678 0.05714285714281773 0.2285714285713156 0.1714285714281223
679 0.05714285714283965 0.2285714285714294 0.2285714285709748
680 0.05714285714286145 0.2285714285715431 0.2857142857139837
681 0.05714285714288327 0.2285714285716565 0.3428571428569864
682 0.05714285714277953 0.2857142857140594 0.05714285714275219
683 0.05714285714280675 0.2857142857141351 0.1142857142854399
684 0.05714285714283407 0.2857142857142108 0.1714285714281223
685 0.05714285714286144 0.2857142857142866 0.2285714285709747
686 0.0571428571428887 0.2857142857143621 0.2857142857139837
687 0.057142857142916 0.2857142857144378 0.3428571428569862
688 0.05714285714278505 0.3428571428570248 0.05714285714275222
689 0.05714285714281772 0.3428571428570635 0.1142857142854399
690 0.05714285714285053 0.3428571428571019 0.1714285714281223
691 0.05714285714288336 0.3428571428571406 0.2285714285709748
692 0.05714285714291607 0.3428571428571789 0.2857142857139837
693 0.0571428571429488 0.3428571428572175 0.3428571428569863
694 0.114285714285452 0.05714285714277954 0.05714285714275222
695 0.114285714285464 0.05714285714280674 0.1142857142854399
696 0.1142857142854761 0.05714285714283412 0.1714285714281223
697 0.114285714285488 0.05714285714286147 0.2285714285709747
698 0.1142857142855 0.05714285714288875 0.2857142857139837
699 0.114285714285512 0.05714285714291602 0.3428571428569863
700 0.1142857142854639 0.1142857142855 0.05714285714275222
701 0.114285714285488 0.1142857142855601 0.1142857142854399
702 0.1142857142855121 0.1142857142856203 0.1714285714281223
703 0.1142857142855361 0.1142857142856804 0.2285714285709747
704 0.1142857142855601 0.1142857142857404 0.2857142857139837
705 0.1142857142855841 0.1142857142858005 0.3428571428569863
706 0.114285714285476 0.1714285714282164 0.05714285714275221
707 0.1142857142855121 0.1714285714283104 0.1142857142854399
708 0.1142857142855482 0.1714285714284045 0.1714285714281223
709 0.1142857142855841 0.1714285714284985 0.2285714285709747
710 0.1142857142856202 0.1714285714285926 0.2857142857139837
711 0.1142857142856563 0.1714285714286867 0.3428571428569862
712 0.114285714285488 0.2285714285710693 0.05714285714275223
713 0.1142857142855361 0.228571428571164 0.1142857142854399
714 0.1142857142855842 0.2285714285712587 0.1714285714281223
715 0.1142857142856323 0.2285714285713536 0.2285714285709747
716 0.1142857142856803 0.2285714285714484 0.2857142857139837
717 0.1142857142857284 0.2285714285715429 0.3428571428569862
718 0.1142857142855 0.2857142857140467 0.0571428571427522
719 0.1142857142855601 0.2857142857141098 0.1142857142854399
720 0.1142857142856203 0.2857142857141729 0.1714285714281223
721 0.1142857142856803 0.2857142857142361 0.2285714285709747
722 0.1142857142857405 0.2857142857142991 0.2857142857139837
723 0.1142857142858005 0.2857142857143622 0.3428571428569863
724 0.114285714285512 0.3428571428570183 0.05714285714275224
725 0.1142857142855842 0.3428571428570506 0.1142857142854399
726 0.1142857142856564 0.3428571428570827 0.1714285714281223
727 0.1142857142857284 0.3428571428571148 0.2285714285709746
728 0.1142857142858005 0.3428571428571469 0.2857142857139837
729 0.1142857142858726 0.342857142857179 0.3428571428569863
730 0.1714285714281411 0.0571428571427741 0.05714285714275223
731 0.1714285714281599 0.05714285714279589 0.1142857142854399
732 0.1714285714281786 0.05714285714281773 0.1714285714281222
733 0.1714285714281975 0.05714285714283963 0.2285714285709748
734 0.1714285714282162 0.05714285714286144 0.2857142857139837
735 0.1714285714282351 0.05714285714288327 0.3428571428569862
736 0.1714285714281599 0.114285714285488 0.05714285714275224
737 0.1714285714281976 0.1142857142855361 0.1142857142854399
738 0.1714285714282351 0.1142857142855843 0.1714285714281223
739 0.1714285714282728 0.1142857142856323 0.2285714285709747
740 0.1714285714283103 0.1142857142856803 0.2857142857139837
741 0.171428571428348 0.1142857142857284 0.3428571428569862
742 0.1714285714281787 0.1714285714281974 0.0571428571427522
743 0.1714285714282351 0.1714285714282727 0.11428571428544
744 0.1714285714282915 0.1714285714283478 0.1714285714281222
745 0.1714285714283479 0.1714285714284232 0.2285714285709747
746 0.1714285714284043 0.1714285714284985 0.2857142857139837
747 0.1714285714284608 0.1714285714285737 0.3428571428569863
748 0.1714285714281974 0.2285714285710505 0.05714285714275222
749 0.1714285714282727 0.2285714285711263 0.11428571428544
750 0.1714285714283478 0.2285714285712021 0.1714285714281222
751 0.1714285714284232 0.2285714285712778 0.2285714285709748
752 0.1714285714284984 0.2285714285713537 0.2857142857139837
753 0.1714285714285737 0.2285714285714293 0.3428571428569863
754 0.1714285714282164 0.2857142857140342 0.05714285714275219
755 0.1714285714283103 0.2857142857140846 0.1142857142854399
756 0.1714285714284043 0.2857142857141351 0.1714285714281222
757 0.1714285714284985 0.2857142857141857 0.2285714285709747
758 0.1714285714285925 0.2857142857142361 0.2857142857139837
759 0.1714285714286867 0.2857142857142865 0.3428571428569862
760 0.1714285714282352 0.3428571428570119 0.05714285714275225
761 0.1714285714283481 0.3428571428570377 0.1142857142854399
762 0.1714285714284609 0.3428571428570635 0.1714285714281222
763 0.1714285714285737 0.3428571428570889 0.2285714285709748
764 0.1714285714286867 0.3428571428571148 0.2857142857139837
765 0.1714285714287996 0.3428571428571404 0.3428571428569863
766 0.2285714285709936 0.05714285714276866 0.05714285714275223
767 0.2285714285710125 0.05714285714278494 0.1142857142854399
768 0.2285714285710315 0.05714285714280137 0.1714285714281223
769 0.2285714285710507 0.05714285714281778 0.2285714285709747
770 0.2285714285710695 0.05714285714283414 0.2857142857139837
771 0.2285714285710883 0.0571428571428505 0.3428571428569863
772 0.2285714285710126 0.114285714285476 0.05714285714275224
773 0.2285714285710505 0.1142857142855121 0.1142857142854399
774 0.2285714285710884 0.1142857142855482 0.1714285714281223
775 0.2285714285711263 0.1142857142855841 0.2285714285709747
776 0.2285714285711641 0.1142857142856202 0.2857142857139837
777 0.2285714285712019 0.1142857142856563 0.3428571428569862
778 0.2285714285710315 0.1714285714281787 0.05714285714275219
779 0.2285714285710883 0.1714285714282351 0.11428571428544
780 0.2285714285711452 0.1714285714282915 0.1714285714281222
781 0.2285714285712021 0.1714285714283479 0.2285714285709747
782 0.2285714285712588 0.1714285714284043 0.2857142857139837
783 0.2285714285713156 0.1714285714284608 0.3428571428569863
784 0.2285714285710505 0.2285714285710315 0.05714285714275224
785 0.2285714285711262 0.2285714285710883 0.11428571428544
786 0.2285714285712018 0.2285714285711452 0.1714285714281222
787 0.2285714285712777 0.2285714285712021 0.2285714285709747
788 0.2285714285713535 0.2285714285712588 0.2857142857139837
789 0.2285714285714293 0.2285714285713156 0.3428571428569863
790 0.2285714285710693 0.2857142857140216 0.0571428571427522
791 0.2285714285711641 0.2857142857140593 0.1142857142854399
792 0.2285714285712587 0.2857142857140972 0.1714285714281222
793 0.2285714285713535 0.2857142857141352 0.2285714285709747
794 0.2285714285714483 0.2857142857141729 0.2857142857139837
795 0.2285714285715428 0.2857142857142108 0.3428571428569862
796 0.2285714285710883 0.3428571428570054 0.05714285714275223
797 0.228571428571202 0.3428571428570247 0.11428571428544
798 0.2285714285713155 0.3428571428570442 0.1714285714281222
799 0.2285714285714294 0.3428571428570635 0.2285714285709748
800 0.2285714285715431 0.3428571428570827 0.2857142857139837
801 0.2285714285716565 0.3428571428571021 0.3428571428569864
802 0.2857142857139964 0.05714285714276313 0.05714285714275222
803 0.2857142857140089 0.05714285714277403 0.1142857142854399
804 0.2857142857140216 0.05714285714278496 0.1714285714281223
805 0.2857142857140343 0.05714285714279591 0.2285714285709747
806 0.2857142857140469 0.0571428571428068 0.2857142857139837
807 0.2857142857140595 0.05714285714281773 0.3428571428569863
808 0.2857142857140089 0.114285714285464 0.0571428571427522
809 0.285714285714034 0.114285714285488 0.1142857142854399
810 0.2857142857140594 0.1142857142855121 0.1714285714281223
811 0.2857142857140846 0.1142857142855361 0.2285714285709747
812 0.2857142857141098 0.1142857142855602 0.2857142857139837
813 0.285714285714135 0.1142857142855842 0.3428571428569863
814 0.2857142857140216 0.1714285714281598 0.05714285714275219
815 0.2857142857140593 0.1714285714281974 0.1142857142854399
816 0.2857142857140972 0.1714285714282349 0.1714285714281222
817 0.2857142857141352 0.1714285714282726 0.2285714285709747
818 0.2857142857141728 0.1714285714283103 0.2857142857139837
819 0.2857142857142106 0.1714285714283478 0.3428571428569862
820 0.2857142857140343 0.2285714285710127 0.0571428571427522
821 0.2857142857140846 0.2285714285710505 0.1142857142854399
822 0.285714285714135 0.2285714285710885 0.1714285714281222
823 0.2857142857141857 0.2285714285711263 0.2285714285709747
824 0.2857142857142361 0.2285714285711643 0.2857142857139837
825 0.2857142857142865 0.228571428571202 0.3428571428569862
826 0.2857142857140468 0.285714285714009 0.05714285714275219
827 0.2857142857141097 0.285714285714034 0.1142857142854399
828 0.2857142857141729 0.2857142857140594 0.1714285714281222
829 0.2857142857142361 0.2857142857140846 0.2285714285709748
830 0.2857142857142991 0.2857142857141098 0.2857142857139837
831 0.2857142857143622 0.2857142857141352 0.3428571428569864
832 0.2857142857140595 0.342857142856999 0.0571428571427522
833 0.285714285714135 0.3428571428570121 0.1142857142854399
834 0.2857142857142108 0.3428571428570248 0.1714285714281222
835 0.2857142857142866 0.3428571428570377 0.2285714285709748
836 0.2857142857143621 0.3428571428570504 0.2857142857139837
837 0.2857142857144379 0.3428571428570634 0.3428571428569863
838 0.3428571428569927 0.05714285714275769 0.05714285714275222
839 0.3428571428569992 0.05714285714276313 0.1142857142854399
840 0.3428571428570057 0.05714285714276864 0.1714285714281223
841 0.3428571428570121 0.05714285714277408 0.2285714285709747
842 0.3428571428570186 0.05714285714277953 0.2857142857139837
843 0.342857142857025 0.057142857142785 0.3428571428569864
844 0.3428571428569989 0.1142857142854519 0.05714285714275224
845 0.3428571428570119 0.114285714285464 0.1142857142854399
846 0.3428571428570247 0.1142857142854761 0.1714285714281223
847 0.3428571428570375 0.114285714285488 0.2285714285709748
848 0.3428571428570504 0.1142857142855 0.2857142857139837
849 0.3428571428570634 0.1142857142855121 0.3428571428569865
850 0.3428571428570054 0.1714285714281411 0.0571428571427522
851 0.342857142857025 0.1714285714281599 0.1142857142854399
852 0.3428571428570442 0.1714285714281787 0.1714285714281222
853 0.3428571428570633 0.1714285714281975 0.2285714285709747
854 0.3428571428570827 0.1714285714282163 0.2857142857139837
855 0.3428571428571019 0.171428571428235 0.3428571428569865
856 0.3428571428570119 0.2285714285709937 0.05714285714275222
857 0.3428571428570377 0.2285714285710126 0.1142857142854399
858 0.3428571428570633 0.2285714285710316 0.1714285714281222
859 0.3428571428570889 0.2285714285710506 0.2285714285709748
860 0.3428571428571148 0.2285714285710696 0.2857142857139837
861 0.3428571428571404 0.2285714285710883 0.3428571428569865
862 0.3428571428570183 0.2857142857139963 0.0571428571427522
863 0.3428571428570506 0.2857142857140089 0.1142857142854399
864 0.3428571428570826 0.2857142857140216 0.1714285714281222
865 0.3428571428571148 0.2857142857140341 0.2285714285709748
866 0.3428571428571469 0.2857142857140469 0.2857142857139837
867 0.3428571428571789 0.2857142857140594 0.3428571428569865
868 0.342857142857025 0.3428571428569931 0.05714285714275224
869 0.3428571428570636 0.3428571428569995 0.1142857142854399
870 0.3428571428571021 0.3428571428570057 0.1714285714281222
871 0.3428571428571405 0.3428571428570122 0.2285714285709747
872 0.3428571428571793 0.3428571428570186 0.2857142857139837
873 0.3428571428572177 0.3428571428570251 0.3428571428569866
874 0.05714285714279049 0.4749999999998097 0.05714285714275222
875 0.0571428571428286 0.4749999999998469 0.1142857142854399
876 0.05714285714286689 0.4749999999998837 0.1714285714281222
877 0.05714285714290515 0.4749999999999213 0.2285714285709747
878 0.05714285714294334 0.4749999999999579 0.2857142857139837
879 0.05714285714298156 0.4749999999999953 0.3428571428569864
880 0.114285714285524 0.4749999999998037 0.05714285714275223
881 0.1142857142856082 0.4749999999998345 0.1142857142854399
882 0.1142857142856924 0.4749999999998654 0.1714285714281223
883 0.1142857142857765 0.4749999999998962 0.2285714285709747
884 0.1142857142858606 0.4749999999999274 0.2857142857139837
885 0.1142857142859448 0.4749999999999583 0.3428571428569863
886 0.171428571428254 0.4749999999997974 0.05714285714275223
887 0.1714285714283856 0.4749999999998219 0.11428571428544
888 0.1714285714285172 0.4749999999998466 0.1714285714281222
889 0.1714285714286489 0.4749999999998714 0.2285714285709748
890 0.1714285714287806 0.4749999999998964 0.2857142857139837
891 0.1714285714289124 0.4749999999999209 0.3428571428569864
892 0.2285714285711075 0.4749999999997911 0.05714285714275222
893 0.2285714285712399 0.4749999999998099 0.11428571428544
894 0.2285714285713725 0.4749999999998283 0.1714285714281222
895 0.2285714285715051 0.4749999999998467 0.2285714285709747
896 0.2285714285716378 0.4749999999998653 0.2857142857139837
897 0.2285714285717703 0.4749999999998838 0.3428571428569863
898 0.2857142857140721 0.4749999999997848 0.05714285714275222
899 0.2857142857141603 0.4749999999997975 0.1142857142854399
900 0.2857142857142486 0.4749999999998097 0.1714285714281222
901 0.285714285714337 0.474999999999822 0.2285714285709748
902 0.2857142857144253 0.4749999999998344 0.2857142857139837
903 0.2857142857145135 0.4749999999998469 0.3428571428569863
904 0.3428571428570313 0.4749999999997792 0.05714285714275222
905 0.3428571428570764 0.474999999999785 0.1142857142854399
906 0.3428571428571213 0.4749999999997914 0.1714285714281222
907 0.3428571428571663 0.4749999999997971 0.2285714285709747
908 0.3428571428572114 0.4749999999998037 0.2857142857139838
909 0.3428571428572561 0.4749999999998099 0.3428571428569864
910 0.4749999999997943 0.4749999999997728 0.05714285714275222
911 0.4749999999998159 0.4749999999997727 0.1142857142854399
912 0.4749999999998374 0.4749999999997726 0.1714285714281222
913 0.4749999999998592 0.4749999999997727 0.2285714285709748
914 0.4749999999998807 0.4749999999997725 0.2857142857139837
915 0.4749999999999026 0.4749999999997727 0.3428571428569864
916 0.4749999999997726 0.05714285714275219 0.05714285714275223
917 0.4749999999997727 0.05714285714275223 0.1142857142854399
918 0.4749999999997727 0.0571428571427522 0.1714285714281223
919 0.4749999999997726 0.05714285714275222 0.2285714285709747
920 0.4749999999997726 0.05714285714275222 0.2857142857139837
921 0.4749999999997727 0.05714285714275222 0.3428571428569863
922 0.4749999999997727 0.1142857142854399 0.05714285714275223
923 0.4749999999997724 0.1142857142854399 0.1142857142854399
924 0.4749999999997722 0.1142857142854399 0.1714285714281223
925 0.4749999999997726 0.1142857142854399 0.2285714285709747
926 0.4749999999997722 0.1142857142854399 0.2857142857139837
927 0.4749999999997725 0.1142857142854399 0.3428571428569864
928 0.4749999999997728 0.1714285714281221 0.0571428571427522
929 0.4749999999997726 0.1714285714281221 0.1142857142854399
930 0.4749999999997727 0.1714285714281222 0.1714285714281222
931 0.4749999999997725 0.1714285714281221 0.2285714285709748
932 0.4749999999997727 0.1714285714281222 0.2857142857139837
933 0.4749999999997728 0.1714285714281222 0.3428571428569864
934 0.4749999999997725 0.2285714285709749 0.05714285714275222
935 0.4749999999997725 0.2285714285709747 0.1142857142854399
936 0.4749999999997725 0.2285714285709749 0.1714285714281222
937 0.4749999999997725 0.2285714285709749 0.2285714285709748
938 0.4749999999997725 0.2285714285709749 0.2857142857139837
939 0.4749999999997726 0.2285714285709748 0.3428571428569863
940 0.4749999999997727 0.2857142857139837 0.0571428571427522
941 0.4749999999997727 0.2857142857139837 0.1142857142854399
942 0.4749999999997724 0.2857142857139837 0.1714285714281222
943 0.4749999999997725 0.2857142857139837 0.2285714285709748
944 0.4749999999997725 0.2857142857139837 0.2857142857139837
945 0.4749999999997726 0.2857142857139837 0.3428571428569864
946 0.4749999999997726 0.3428571428569866 0.05714285714275222
947 0.4749999999997727 0.3428571428569866 0.1142857142854399
948 0.4749999999997726 0.3428571428569867 0.1714285714281222
949 0.4749999999997725 0.3428571428569863 0.2285714285709748
950 0.4749999999997727 0.3428571428569866 0.2857142857139837
951 0.4749999999997726 0.3428571428569864 0.3428571428569863
952 0.05714285714279044 0.05714285714298158 0.4749999999997726
953 0.05714285714282868 0.1142857142859447 0.4749999999997724
954 0.05714285714286689 0.1714285714289124 0.4749999999997727
955 0.05714285714290514 0.2285714285717703 0.4749999999997725
956 0.05714285714294332 0.2857142857145136 0.4749999999997727
957 0.05714285714298158 0.3428571428572563 0.4749999999997726
958 0.1142857142855241 0.05714285714294334 0.4749999999997726
959 0.1142857142856082 0.1142857142858606 0.4749999999997724
960 0.1142857142856924 0.1714285714287808 0.4749999999997727
961 0.1142857142857766 0.2285714285716377 0.4749999999997725
962 0.1142857142858606 0.2857142857144254 0.4749999999997728
963 0.1142857142859447 0.342857142857211 0.4749999999997727
964 0.1714285714282539 0.05714285714290514 0.4749999999997727
965 0.1714285714283856 0.1142857142857766 0.4749999999997724
966 0.1714285714285172 0.171428571428649 0.4749999999997726
967 0.171428571428649 0.2285714285715051 0.4749999999997724
968 0.1714285714287807 0.285714285714337 0.4749999999997726
969 0.1714285714289124 0.3428571428571663 0.4749999999997727
970 0.2285714285711074 0.05714285714286689 0.4749999999997727
971 0.2285714285712399 0.1142857142856924 0.4749999999997727
972 0.2285714285713724 0.1714285714285172 0.4749999999997727
973 0.2285714285715051 0.2285714285713726 0.4749999999997726
974 0.2285714285716377 0.2857142857142486 0.4749999999997727
975 0.2285714285717703 0.3428571428571213 0.4749999999997726
976 0.285714285714072 0.05714285714282865 0.4749999999997726
977 0.2857142857141604 0.1142857142856082 0.4749999999997724
978 0.2857142857142486 0.1714285714283856 0.4749999999997726
979 0.285714285714337 0.22857142857124 0.4749999999997725
980 0.2857142857144253 0.2857142857141604 0.4749999999997727
981 0.2857142857145135 0.3428571428570764 0.4749999999997726
982 0.3428571428570313 0.05714285714279044 0.4749999999997726
983 0.3428571428570764 0.1142857142855241 0.4749999999997725
984 0.3428571428571213 0.1714285714282539 0.4749999999997727
985 0.3428571428571663 0.2285714285711073 0.4749999999997724
986 0.3428571428572113 0.2857142857140721 0.4749999999997728
987 0.3428571428572563 0.3428571428570314 0.4749999999997726
988 0.4749999999997943 0.05714285714275218 0.4749999999997725
989 0.4749999999998157 0.1142857142854399 0.4749999999997725
990 0.4749999999998375 0.1714285714281222 0.4749999999997725
991 0.4749999999998589 0.2285714285709749 0.4749999999997726
992 0.4749999999998807 0.2857142857139837 0.4749999999997726
993 0.4749999999999026 0.3428571428569867 0.4749999999997727
994 0.05714285714301981 0.4750000000000323 0.4749999999997727
995 0.1142857142860289 0.4749999999999892 0.4749999999997727
996 0.1714285714290441 0.4749999999999457 0.4749999999997726
997 0.2285714285719027 0.4749999999999027 0.4749999999997727
998 0.285714285714602 0.4749999999998593 0.4749999999997727
999 0.3428571428573008 0.474999999999816 0.4749999999997727
1000 0.4749999999999999 0.4749999999997727 0.4749999999997727
$EndNodes
$Elements
729
1 5 2 1 1 1 28 217 46 94 266 658 374
2 5 2 1 1 94 266 658 374 95 267 659 375
3 5 2 1 1 95 267 659 375 96 268 660 376
4 5 2 1 1 96 268 660 376 97 269 661 377
5 5 2 1 1 97 269 661 377 98 270 662 378
6 5 2 1 1 98 270 662 378 99 271 663 379
7 5 2 1 1 99 271 663 379 10 70 410 93
8 5 2 1 1 46 217 218 47 374 658 664 380
9 5 2 1 1 374 658 664 380 375 659 665 381
10 5 2 1 1 375 659 665 381 376 660 666 382
11 5 2 1 1 376 660 666 382 377 661 667 383
12 5 2 1 1 377 661 667 383 378 662 668 384
13 5 2 1 1 378 662 668 384 379 663 669 385
14 5 2 1 1 379 663 669 385 93 410 411 92
15 5 2 1 1 47 218 219 48 380 664 670 386
16 5 2 1 1 380 664 670 386 381 665 671 387
17 5 2 1 1 381 665 671 387 382 666 672 388
18 5 2 1 1 382 666 672 388 383 667 673 389
19 5 2 1 1 383 667 673 389 384 668 674 390
20 5 2 1 1 384 668 674 390 385 669 675 391
21 5 2 1 1 385 669 675 391 92 411 412 91
22 5 2 1 1 48 219 220 49 386 670 676 392
23 5 2 1 1 386 670 676 392 387 671 677 393
24 5 2 1 1 387 671 677 393 388 672 678 394
25 5 2 1 1 388 672 678 394 389 673 679 395
26 5 2 1 1 389 673 679 395 390 674 680 396
27 5 2 1 1 390 674 680 396 391 675 681 397
28 5 2 1 1 391 675 681 397 91 412 413 90
29 5 2 1 1 49 220 221 50 392 676 682 398
30 5 2 1 1 392 676 682 398 393 677 683 399
31 5 2 1 1 393 677 683 399 394 678 684 400
32 5 2 1 1 394 678 684 400 395 679 685 401
33 5 2 1 1 395 679 685 401 396 680 686 402
34 5 2 1 1 396 680 686 402 397 681 687 403
35 5 2 1 1 397 681 687 403 90 413 414 89
36 5 2 1 1 50 221 222 51 398 682 688 404
37 5 2 1 1 398 682 688 404 399 683 689 405
38 5 2 1 1 399 683 689 405 400 684 690 406
39 5 2 1 1 400 684 690 406 401 685 691 407
40 5 2 1 1 401 685 691 407 402 686 692 408
41 5 2 1 1 402 686 692 408 403 687 693 409
42 5 2 1 1 403 687 693 409 89 414 415 88
43 5 2 1 1 51 222 40 4 404 688 338 112
44 5 2 1 1 404 688 338 112 405 689 339 113
45 5 2 1 1 405 689 339 113 406 690 340 114
46 5 2 1 1 406 690 340 114 407 691 341 115
47 5 2 1 1 407 691 341 115 408 692 342 116
48 5 2 1 1 408 692 342 116 409 693 343 117
49 5 2 1 1 409 693 343 117 88 415 87 13
50 5 2 1 1 28 29 223 217 266 272 694 658
51 5 2 1 1 266 272 694 658 267 273 695 659
52 5 2 1 1 267 273 695 659 268 274 696 660
53 5 2 1 1 268 274 696 660 269 275 697 661
54 5 2 1 1 269 275 697 661 270 276 698 662
55 5 2 1 1 270 276 698 662 271 277 699 663
56 5 2 1 1 271 277 699 663 70 71 416 410
57 5 2 1 1 217 223 224 218 658 694 700 664
58 5 2 1 1 658 694 700 664 659 695 701 665
59 5 2 1 1 659 695 701 665 660 696 702 666
60 5 2 1 1 660 696 702 666 661 697 703 667
61 5 2 1 1 661 697 703 667 662 698 704 668
62 5 2 1 1 662 698 704 668 663 699 705 669
63 5 2 1 1 663 699 705 669 410 416 417 411
64 5 2 1 1 218 224 225 219 664 700 706 670
65 5 2 1 1 664 700 706 670 665 701 707 671
66 5 2 1 1 665 701 707 671 666 702 708 672
67 5 2 1 1 666 702 708 672 667 703 709 673
68 5 2 1 1 667 703 709 673 668 704 710 674
69 5 2 1 1 668 704 710 674 669 705 711 675
70 5 2 1 1 669 705 711 675 411 417 418 412
71 5 2 1 1 219 225 226 220 670 706 712 676
72 5 2 1 1 670 706 712 676 671 707 713 677
73 5 2 1 1 671 707 713 677 672 708 714 678
74 5 2 1 1 672 708 714 678 673 709 715 679
75 5 2 1 1 673 709 715 679 674 710 716 680
76 5 2 1 1 674 710 716 680 675 711 717 681
77 5 2 1 1 675 711 717 681 412 418 419 413
78 5 2 1 1 220 226 227 221 676 712 718 682
79 5 2 1 1 676 712 718 682 677 713 719 683
80 5 2 1 1 677 713 719 683 678 714 720 684
81 5 2 1 1 678 714 720 684 679 715 721 685
82 5 2 1 1 679 715 721 685 680 716 722 686
83 5 2 1 1 680 716 722 686 681 717 723 687
84 5 2 1 1 681 717 723 687 413 419 420 414
85 5 2 1 1 221 227 228 222 682 718 724 688
86 5 2 1 1 682 718 724 688 683 719 725 689
87 5 2 1 1 683 719 725 689 684 720 726 690
88 5 2 1 1 684 720 726 690 685 721 727 691
89 5 2 1 1 685 721 727 691 686 722 728 692
90 5 2 1 1 686 722 728 692 687 723 729 693
91 5 2 1 1 687 723 729 693 414 420 421 415
92 5 2 1 1 222 228 41 40 688 724 344 338
93 5 2 1 1 688 724 344 338 689 725 345 339
94 5 2 1 1 689 725 345 339 690 726 346 340
95 5 2 1 1 690 726 346 340 691 727 347 341
96 5 2 1 1 691 727 347 341 692 728 348 342
97 5 2 1 1 692 728 348 342 693 729 349 343
98 5 2 1 1 693 729 349 343 415 421 86 87
99 5 2 1 1 29 30 229 223 272 278 730 694
100 5 2 1 1 272 278 730 694 273 279 731 695
101 5 2 1 1 273 279 731 695 274 280 732 696
102 5 2 1 1 274 280 732 696 275 281 733 697
103 5 2 1 1 275 281 733 697 276 282 734 698
104 5 2 1 1 276 282 734 698 277 283 735 699
105 5 2 1 1 277 283 735 699 71 72 422 416
106 5 2 1 1 223 229 230 224 694 730 736 700
107 5 2 1 1 694 730 736 700 695 731 737 701
108 5 2 1 1 695 731 737 701 696 732 738 702
109 5 2 1 1 696 732 738 702 697 733 739 703
110 5 2 1 1 697 733 739 703 698 734 740 704
111 5 2 1 1 698 734 740 704 699 735 741 705
112 5 2 1 1 699 735 741 705 416 422 423 417
113 5 2 1 1 224 230 231 225 700 736 742 706
114 5 2 1 1 700 736 742 706 701 737 743 707
115 5 2 1 1 701 737 743 707 702 738 744 708
116 5 2 1 1 702 738 744 708 703 739 745 709
117 5 2 1 1 703 739 745 709 704 740 746 710
118 5 2 1 1 704 740 746 710 705 741 747 711
119 5 2 1 1 705 741 747 711 417 423 424 418
120 5 2 1 1 225 231 232 226 706 742 748 712
121 5 2 1 1 706 742 748 712 707 743 749 713
122 5 2 1 1 707 743 749 713 708 744 750 714
123 5 2 1 1 708 744 750 714 709 745 751 715
124 5 2 1 1 709 745 751 715 710 746 752 716
125 5 2 1 1 710 746 752 716 711 747 753 717
126 5 2 1 1 711 747 753 717 418 424 425 419
127 5 2 1 1 226 232 233 227 712 748 754 718
128 5 2 1 1 712 748 754 718 713 749 755 719
129 5 2 1 1 713 749 755 719 714 750 756 720
130 5 2 1 1 714 750 756 720 715 751 757 721
131 5 2 1 1 715 751 757 721 716 752 758 722
132 5 2 1 1 716 752 758 722 717 753 759 723
133 5 2 1 1 717 753 759 723 419 425 426 420
134 5 2 1 1 227 233 234 228 718 754 760 724
135 5 2 1 1 718 754 760 724 719 755 761 725
136 5 2 1 1 719 755 761 725 720 756 762 726
137 5 2 1 1 720 756 762 726 721 757 763 727
138 5 2 1 1 721 757 763 727 722 758 764 728
139 5 2 1 1 722 758 764 728 723 759 765 729
140 5 2 1 1 723 759 765 729 420 426 427 421
141 5 2 1 1 228 234 42 41 724 760 350 344
142 5 2 1 1 724 760 350 344 725 761 351 345
143 5 2 1 1 725 761 351 345 726 762 352 346
144 5 2 1 1 726 762 352 346 727 763 353 347
145 5 2 1 1 727 763 353 347 728 764 354 348
146 5 2 1 1 728 764 354 348 729 765 355 349
147 5 2 1 1 729 765 355 349 421 427 85 86
148 5 2 1 1 30 31 235 229 278 284 766 730
149 5 2 1 1 278 284 766 730 279 285 767 731
150 5 2 1 1 279 285 767 731 280 286 768 732
151 5 2 1 1 280 286 768 732 281 287 769 733
152 5 2 1 1 281 287 769 733 282 288 770 734
153 5 2 1 1 282 288 770 734 283 289 771 735
154 5 2 1 1 283 289 771 735 72 73 428 422
155 5 2 1 1 229 235 236 230 730 766 772 736
156 5 2 1 1 730 766 772 736 731 767 773 737
157 5 2 1 1 731 767 773 737 732 768 774 738
158 5 2 1 1 732 768 774 738 733 769 775 739
159 5 2 1 1 733 769 775 739 734 770 776 740
160 5 2 1 1 734 770 776 740 735 771 777 741
161 5 2 1 1 735 771 777 741 422 428 429 423
162 5 2 1 1 230 236 237 231 736 772 778 742
163 5 2 1 1 736 772 778 742 737 773 779 743
164 5 2 1 1 737 773 779 743 738 774 780 744
165 5 2 1 1 738 774 780 744 739 775 781 745
166 5 2 1 1 739 775 781 745 740 776 782 746
167 5 2 1 1 740 776 782 746 741 777 783 747
168 5 2 1 1 741 777 783 747 423 429 430 424
169 5 2 1 1 231 237 238 232 742 778 784 748
170 5 2 1 1 742 778 784 748 743 779 785 749
171 5 2 1 1 743 779 785 749 744 780 786 750
172 5 2 1 1 744 780 786 750 745 781 787 751
173 5 2 1 1 745 781 787 751 746 782 788 752
174 5 2 1 1 746 782 788 752 747 783 789 753
175 5 2 1 1 747 783 789 753 424 430 431 425
176 5 2 1 1 232 238 239 233 748 784 790 754
177 5 2 1 1 748 784 790 754 749 785 791 755
178 5 2 1 1 749 785 791 755 750 786 792 756
179 5 2 1 1 750 786 792 756 751 787 793 757
180 5 2 1 1 751 787 793 757 752 788 794 758
181 5 2 1 1 752 788 794 758 753 789 795 759
182 5 2 1 1 753 789 795 759 425 431 432 426
183 5 2 1 1 233 239 240 234 754 790 796 760
184 5 2 1 1 754 790 796 760 755 791 797 761
185 5 2 1 1 755 791 797 761 756 792 798 762
186 5 2 1 1 756 792 798 762 757 793 799 763
187 5 2 1 1 757 793 799 763 758 794 800 764
188 5 2 1 1 758 794 800 764 759 795 801 765
189 5 2 1 1 759 795 801 765 426 432 433 427
190 5 2 1 1 234 240 43 42 760 796 356 350
191 5 2 1 1 760 796 356 350 761 797 357 351
192 5 2 1 1 761 797 357 351 762 798 358 352
193 5 2 1 1 762 798 358 352 763 799 359 353
194 5 2 1 1 763 799 359 353 764 800 360 354
195 5 2 1 1 764 800 360 354 765 801 361 355
196 5 2 1 1 765 801 361 355 427 433 84 85
197 5 2 1 1 31 32 241 235 284 290 802 766
198 5 2 1 1 284 290 802 766 285 291 803 767
199 5 2 1 1 285 291 803 767 286 292 804 768
200 5 2 1 1 286 292 804 768 287 293 805 769
201 5 2 1 1 287 293 805 769 288 294 806 770
202 5 2 1 1 288 294 806 770 289 295 807 771
203 5 2 1 1 289 295 807 771 73 74 434 428
204 5 2 1 1 235 241 242 236 766 802 808 772
205 5 2 1 1 766 802 808 772 767 803 809 773
206 5 2 1 1 767 803 809 773 768 804 810 774
207 5 2 1 1 768 804 810 774 769 805 811 775
208 5 2 1 1 769 805 811 775 770 806 812 776
209 5 2 1 1 770 806 812 776 771 807 813 777
210 5 2 1 1 771 807 813 777 428 434 435 429
211 5 2 1 1 236 242 243 237 772 808 814 778
212 5 2 1 1 772 808 814 778 773 809 815 779
213 5 2 1 1 773 809 815 779 774 810 816 780
214 5 2 1 1 774 810 816 780 775 811 817 781
215 5 2 1 1 775 811 817 781 776 812 818 782
216 5 2 1 1 776 812 818 782 777 813 819 783
217 5 2 1 1 777 813 819 783 429 435 436 430
218 5 2 1 1 237 243 244 238 778 814 820 784
219 5 2 1 1 778 814 820 784 779 815 821 785
220 5 2 1 1 779 815 821 785 780 816 822 786
221 5 2 1 1 780 816 822 786 781 817 823 787
222 5 2 1 1 781 817 823 787 782 818 824 788
223 5 2 1 1 782 818 824 788 783 819 825 789
224 5 2 1 1 783 819 825 789 430 436 437 431
225 5 2 1 1 238 244 245 239 784 820 826 790
226 5 2 1 1 784 820 826 790 785 821 827 791
227 5 2 1 1 785 821 827 791 786 822 828 792
228 5 2 1 1 786 822 828 792 787 823 829 793
229 5 2 1 1 787 823 829 793 788 824 830 794
230 5 2 1 1 788 824 830 794 789 825 831 795
231 5 2 1 1 789 825 831 795 431 437 438 432
232 5 2 1 1 239 245 246 240 790 826 832 796
233 5 2 1 1 790 826 832 796 791 827 833 797
234 5 2 1 1 791 827 833 797 792 828 834 798
235 5 2 1 1 792 828 834 798 793 829 835 799
236 5 2 1 1 793 829 835 799 794 830 836 800
237 5 2 1 1 794 830 836 800 795 831 837 801
238 5 2 1 1 795 831 837 801 432 438 439 433
239 5 2 1 1 240 246 44 43 796 832 362 356
240 5 2 1 1 796 832 362 356 797 833 363 357
241 5 2 1 1 797 833 363 357 798 834 364 358
242 5 2 1 1 798 834 364 358 799 835 365 359
243 5 2 1 1 799 835 365 359 800 836 366 360
244 5 2 1 1 800 836 366 360 801 837 367 361
245 5 2 1 1 801 837 367 361 433 439 83 84
246 5 2 1 1 32 33 247 241 290 296 838 802
247 5 2 1 1 290 296 838 802 291 297 839 803
248 5 2 1 1 291 297 839 803 292 298 840 804
249 5 2 1 1 292 298 840 804 293 299 841 805
250 5 2 1 1 293 299 841 805 294 300 842 806
251 5 2 1 1 294 300 842 806 295 301 843 807
252 5 2 1 1 295 301 843 807 74 75 440 434
253 5 2 1 1 241 247 248 242 802 838 844 808
254 5 2 1 1 802 838 844 808 803 839 845 809
255 5 2 1 1 803 839 845 809 804 840 846 810
256 5 2 1 1 804 840 846 810 805 841 847 811
257 5 2 1 1 805 841 847 811 806 842 848 812
258 5 2 1 1 806 842 848 812 807 843 849 813
259 5 2 1 1 807 843 849 813 434 440 441 435
260 5 2 1 1 242 248 249 243 808 844 850 814
261 5 2 1 1 808 844 850 814 809 845 851 815
262 5 2 1 1 809 845 851 815 810 846 852 816
263 5 2 1 1 810 846 852 816 811 847 853 817
264 5 2 1 1 811 847 853 817 812 848 854 818
265 5 2 1 1 812 848 854 818 813 849 855 819
266 5 2 1 1 813 849 855 819 435 441 442 436
267 5 2 1 1 243 249 250 244 814 850 856 820
268 5 2 1 1 814 850 856 820 815 851 857 821
269 5 2 1 1 815 851 857 821 816 852 858 822
270 5 2 1 1 816 852 858 822 817 853 859 823
271 5 2 1 1 817 853 859 823 818 854 860 824
272 5 2 1 1 818 854 860 824 819 855 861 825
273 5 2 1 1 819 855 861 825 436 442 443 437
274 5 2 1 1 244 250 251 245 820 856 862 826
275 5 2 1 1 820 856 862 826 821 857 863 827
276 5 2 1 1 821 857 863 827 822 858 864 828
277 5 2 1 1 822 858 864 828 823 859 865 829
278 5 2 1 1 823 859 865 829 824 860 866 830
279 5 2 1 1 824 860 866 830 825 861 867 831
280 5 2 1 1 825 861 867 831 437 443 444 438
281 5 2 1 1 245 251 252 246 826 862 868 832
282 5 2 1 1 826 862 868 832 827 863 869 833
283 5 2 1 1 827 863 869 833 828 864 870 834
284 5 2 1 1 828 864 870 834 829 865 871 835
285 5 2 1 1 829 865 871 835 830 866 872 836
286 5 2 1 1 830 866 872 836 831 867 873 837
287 5 2 1 1 831 867 873 837 438 444 445 439
288 5 2 1 1 246 252 45 44 832 868 368 362
289 5 2 1 1 832 868 368 362 833 869 369 363
290 5 2 1 1 833 869 369 363 834 870 370 364
291 5 2 1 1 834 870 370 364 835 871 371 365
292 5 2 1 1 835 871 371 365 836 872 372 366
293 5 2 1 1 836 872 372 366 837 873 373 367
294 5 2 1 1 837 873 373 367 439 445 82 83
295 5 2 1 1 33 2 34 247 296 100 302 838
296 5 2 1 1 296 100 302 838 297 101 303 839
297 5 2 1 1 297 101 303 839 298 102 304 840
298 5 2 1 1 298 102 304 840 299 103 305 841
299 5 2 1 1 299 103 305 841 300 104 306 842
300 5 2 1 1 300 104 306 842 301 105 307 843
301 5 2 1 1 301 105 307 843 75 11 76 440
302 5 2 1 1 247 34 35 248 838 302 308 844
303 5 2 1 1 838 302 308 844 839 303 309 845
304 5 2 1 1 839 303 309 845 840 304 310 846
305 5 2 1 1 840 304 310 846 841 305 311 847
306 5 2 1 1 841 305 311 847 842 306 312 848
307 5 2 1 1 842 306 312 848 843 307 313 849
308 5 2 1 1 843 307 313 849 440 76 77 441
309 5 2 1 1 248 35 36 249 844 308 314 850
310 5 2 1 1 844 308 314 850 845 309 315 851
311 5 2 1 1 845 309 315 851 846 310 316 852
312 5 2 1 1 846 310 316 852 847 311 317 853
313 5 2 1 1 847 311 317 853 848 312 318 854
314 5 2 1 1 848 312 318 854 849 313 319 855
315 5 2 1 1 849 313 319 855 441 77 78 442
316 5 2 1 1 249 36 37 250 850 314 320 856
317 5 2 1 1 850 314 320 856 851 315 321 857
318 5 2 1 1 851 315 321 857 852 316 322 858
319 5 2 1 1 852 316 322 858 853 317 323 859
320 5 2 1 1 853 317 323 859 854 318 324 860
321 5 2 1 1 854 318 324 860 855 319 325 861
322 5 2 1 1 855 319 325 861 442 78 79 443
323 5 2 1 1 250 37 38 251 856 320 326 862
324 5 2 1 1 856 320 326 862 857 321 327 863
325 5 2 1 1 857 321 327 863 858 322 328 864
326 5 2 1 1 858 322 328 864 859 323 329 865
327 5 2 1 1 859 323 329 865 860 324 330 866
328 5 2 1 1 860 324 330 866 861 325 331 867
329 5 2 1 1 861 325 331 867 443 79 80 444
330 5 2 1 1 251 38 39 252 862 326 332 868
331 5 2 1 1 862 326 332 868 863 327 333 869
332 5 2 1 1 863 327 333 869 864 328 334 870
333 5 2 1 1 864 328 334 870 865 329 335 871
334 5 2 1 1 865 329 335 871 866 330 336 872
335 5 2 1 1 866 330 336 872 867 331 337 873
336 5 2 1 1 867 331 337 873 444 80 81 445
337 5 2 1 1 252 39 3 45 868 332 106 368
338 5 2 1 1 868 332 106 368 869 333 107 369
339 5 2 1 1 869 333 107 369 870 334 108 370
340 5 2 1 1 870 334 108 370 871 335 109 371
341 5 2 1 1 871 335 109 371 872 336 110 372
342 5 2 1 1 872 336 110 372 873 337 111 373
343 5 2 1 1 873 337 111 373 445 81 12 82
344 5 2 2 2 4 40 253 52 112 338 874 488
345 5 2 2 2 112 338 874 488 113 339 875 489
346 5 2 2 2 113 339 875 489 114 340 876 490
347 5 2 2 2 114 340 876 490 115 341 877 491
348 5 2 2 2 115 341 877 491 116 342 878 492
349 5 2 2 2 116 342 878 492 117 343 879 493
350 5 2 2 2 117 343 879 493 13 87 499 125
351 5 2 2 2 52 253 53 8 488 874 452 132
352 5 2 2 2 488 874 452 132 489 875 453 133
353 5 2 2 2 489 875 453 133 490 876 454 134
354 5 2 2 2 490 876 454 134 491 877 455 135
355 5 2 2 2 491 877 455 135 492 878 456 136
356 5 2 2 2 492 878 456 136 493 879 457 137
357 5 2 2 2 493 879 457 137 125 499 124 15
358 5 2 2 2 40 41 254 253 338 344 880 874
359 5 2 2 2 338 344 880 874 339 345 881 875
360 5 2 2 2 339 345 881 875 340 346 882 876
361 5 2 2 2 340 346 882 876 341 347 883 877
362 5 2 2 2 341 347 883 877 342 348 884 878
363 5 2 2 2 342 348 884 878 343 349 885 879
364 5 2 2 2 343 349 885 879 87 86 498 499
365 5 2 2 2 253 254 54 53 874 880 458 452
366 5 2 2 2 874 880 458 452 875 881 459 453
367 5 2 2 2 875 881 459 453 876 882 460 454
368 5 2 2 2 876 882 460 454 877 883 461 455
369 5 2 2 2 877 883 461 455 878 884 462 456
370 5 2 2 2 878 884 462 456 879 885 463 457
371 5 2 2 2 879 885 463 457 499 498 123 124
372 5 2 2 2 41 42 255 254 344 350 886 880
373 5 2 2 2 344 350 886 880 345 351 887 881
374 5 2 2 2 345 351 887 881 346 352 888 882
375 5 2 2 2 346 352 888 882 347 353 889 883
376 5 2 2 2 347 353 889 883 348 354 890 884
377 5 2 2 2 348 354 890 884 349 355 891 885
378 5 2 2 2 349 355 891 885 86 85 497 498
379 5 2 2 2 254 255 55 54 880 886 464 458
380 5 2 2 2 880 886 464 458 881 887 465 459
381 5 2 2 2 881 887 465 459 882 888 466 460
382 5 2 2 2 882 888 466 460 883 889 467 461
383 5 2 2 2 883 889 467 461 884 890 468 462
384 5 2 2 2 884 890 468 462 885 891 469 463
385 5 2 2 2 885 891 469 463 498 497 122 123
386 5 2 2 2 42 43 256 255 350 356 892 886
387 5 2 2 2 350 356 892 886 351 357 893 887
388 5 2 2 2 351 357 893 887 352 358 894 888
389 5 2 2 2 352 358 894 888 353 359 895 889
390 5 2 2 2 353 359 895 889 354 360 896 890
391 5 2 2 2 354 360 896 890 355 361 897 891
392 5 2 2 2 355 361 897 891 85 84 496 497
393 5 2 2 2 255 256 56 55 886 892 470 464
394 5 2 2 2 886 892 470 464 887 893 471 465
395 5 2 2 2 887 893 471 465 888 894 472 466
396 5 2 2 2 888 894 472 466 889 895 473 467
397 5 2 2 2 889 895 473 467 890 896 474 468
398 5 2 2 2 890 896 474 468 891 897 475 469
399 5 2 2 2 891 897 475 469 497 496 121 122
400 5 2 2 2 43 44 257 256 356 362 898 892
401 5 2 2 2 356 362 898 892 357 363 899 893
402 5 2 2 2 357 363 899 893 358 364 900 894
403 5 2 2 2 358 364 900 894 359 365 901 895
404 5 2 2 2 359 365 901 895 360 366 902 896
405 5 2 2 2 360 366 902 896 361 367 903 897
406 5 2 2 2 361 367 903 897 84 83 495 496
407 5 2 2 2 256 257 57 56 892 898 476 470
408 5 2 2 2 892 898 476 470 893 899 477 471
409 5 2 2 2 893 899 477 471 894 900 478 472
410 5 2 2 2 894 900 478 472 895 901 479 473
411 5 2 2 2 895 901 479 473 896 902 480 474
412 5 2 2 2 896 902 480 474 897 903 481 475
413 5 2 2 2 897 903 481 475 496 495 120 121
414 5 2 2 2 44 45 258 257 362 368 904 898
415 5 2 2 2 362 368 904 898 363 369 905 899
416 5 2 2 2 363 369 905 899 364 370 906 900
417 5 2 2 2 364 370 906 900 365 371 907 901
418 5 2 2 2 365 371 907 901 366 372 908 902
419 5 2 2 2 366 372 908 902 367 373 909 903
420 5 2 2 2 367 373 909 903 83 82 494 495
421 5 2 2 2 257 258 58 57 898 904 482 476
422 5 2 2 2 898 904 482 476 899 905 483 477
423 5 2 2 2 899 905 483 477 900 906 484 478
424 5 2 2 2 900 906 484 478 901 907 485 479
425 5 2 2 2 901 907 485 479 902 908 486 480
426 5 2 2 2 902 908 486 480 903 909 487 481
427 5 2 2 2 903 909 487 481 495 494 119 120
428 5 2 2 2 45 3 59 258 368 106 446 904
429 5 2 2 2 368 106 446 904 369 107 447 905
430 5 2 2 2 369 107 447 905 370 108 448 906
431 5 2 2 2 370 108 448 906 371 109 449 907
432 5 2 2 2 371 109 449 907 372 110 450 908
433 5 2 2 2 372 110 450 908 373 111 451 909
434 5 2 2 2 373 111 451 909 82 12 118 494
435 5 2 2 2 258 59 9 58 904 446 126 482
436 5 2 2 2 904 446 126 482 905 447 127 483
437 5 2 2 2 905 447 127 483 906 448 128 484
438 5 2 2 2 906 448 128 484 907 449 129 485
439 5 2 2 2 907 449 129 485 908 450 130 486
440 5 2 2 2 908 450 130 486 909 451 131 487
441 5 2 2 2 909 451 131 487 494 118 14 119
442 5 2 2 3 3 61 259 59 106 500 910 446
443 5 2 2 3 106 500 910 446 107 501 911 447
444 5 2 2 3 107 501 911 447 108 502 912 448
445 5 2 2 3 108 502 912 448 109 503 913 449
446 5 2 2 3 109 503 913 449 110 504 914 450
447 5 2 2 3 110 504 914 450 111 505 915 451
448 5 2 2 3 111 505 915 451 12 138 518 118
449 5 2 2 3 59 259 60 9 446 910 512 126
450 5 2 2 3 446 910 512 126 447 911 513 127
451 5 2 2 3 447 911 513 127 448 912 514 128
452 5 2 2 3 448 912 514 128 449 913 515 129
453 5 2 2 3 449 913 515 129 450 914 516 130
454 5 2 2 3 450 914 516 130 451 915 517 131
455 5 2 2 3 451 915 517 131 118 518 140 14
456 5 2 2 3 61 6 62 259 500 141 506 910
457 5 2 2 3 500 141 506 910 501 142 507 911
458 5 2 2 3 501 142 507 911 502 143 508 912
459 5 2 2 3 502 143 508 912 503 144 509 913
460 5 2 2 3 503 144 509 913 504 145 510 914
461 5 2 2 3 504 145 510 914 505 146 511 915
462 5 2 2 3 505 146 511 915 138 16 139 518
463 5 2 2 3 259 62 7 60 910 506 147 512
464 5 2 2 3 910 506 147 512 911 507 148 513
465 5 2 2 3 911 507 148 513 912 508 149 514
466 5 2 2 3 912 508 149 514 913 509 150 515
467 5 2 2 3 913 509 150 515 914 510 151 516
468 5 2 2 3 914 510 151 516 915 511 152 517
469 5 2 2 3 915 511 152 517 518 139 17 140
470 5 2 2 4 2 63 260 34 100 519 916 302
471 5 2 2 4 100 519 916 302 101 520 917 303
472 5 2 2 4 101 520 917 303 102 521 918 304
473 5 2 2 4 102 521 918 304 103 522 919 305
474 5 2 2 4 103 522 919 305 104 523 920 306
475 5 2 2 4 104 523 920 306 105 524 921 307
476 5 2 2 4 105 524 921 307 11 153 561 76
477 5 2 2 4 34 260 261 35 302 916 922 308
478 5 2 2 4 302 916 922 308 303 917 923 309
479 5 2 2 4 303 917 923 309 304 918 924 310
480 5 2 2 4 304 918 924 310 305 919 925 311
481 5 2 2 4 305 919 925 311 306 920 926 312
482 5 2 2 4 306 920 926 312 307 921 927 313
483 5 2 2 4 307 921 927 313 76 561 562 77
484 5 2 2 4 35 261 262 36 308 922 928 314
485 5 2 2 4 308 922 928 314 309 923 929 315
486 5 2 2 4 309 923 929 315 310 924 930 316
487 5 2 2 4 310 924 930 316 311 925 931 317
488 5 2 2 4 311 925 931 317 312 926 932 318
489 5 2 2 4 312 926 932 318 313 927 933 319
490 5 2 2 4 313 927 933 319 77 562 563 78
491 5 2 2 4 36 262 263 37 314 928 934 320
492 5 2 2 4 314 928 934 320 315 929 935 321
493 5 2 2 4 315 929 935 321 316 930 936 322
494 5 2 2 4 316 930 936 322 317 931 937 323
495 5 2 2 4 317 931 937 323 318 932 938 324
496 5 2 2 4 318 932 938 324 319 933 939 325
497 5 2 2 4 319 933 939 325 78 563 564 79
498 5 2 2 4 37 263 264 38 320 934 940 326
499 5 2 2 4 320 934 940 326 321 935 941 327
500 5 2 2 4 321 935 941 327 322 936 942 328
501 5 2 2 4 322 936 942 328 323 937 943 329
502 5 2 2 4 323 937 943 329 324 938 944 330
503 5 2 2 4 324 938 944 330 325 939 945 331
504 5 2 2 4 325 939 945 331 79 564 565 80
505 5 2 2 4 38 264 265 39 326 940 946 332
506 5 2 2 4 326 940 946 332 327 941 947 333
507 5 2 2 4 327 941 947 333 328 942 948 334
508 5 2 2 4 328 942 948 334 329 943 949 335
509 5 2 2 4 329 943 949 335 330 944 950 336
510 5 2 2 4 330 944 950 336 331 945 951 337
511 5 2 2 4 331 945 951 337 80 565 566 81
512 5 2 2 4 39 265 61 3 332 946 500 106
513 5 2 2 4 332 946 500 106 333 947 501 107
514 5 2 2 4 333 947 501 107 334 948 502 108
515 5 2 2 4 334 948 502 108 335 949 503 109
516 5 2 2 4 335 949 503 109 336 950 504 110
517 5 2 2 4 336 950 504 110 337 951 505 111
518 5 2 2 4 337 951 505 111 81 566 138 12
519 5 2 2 4 63 5 64 260 519 160 525 916
520 5 2 2 4 519 160 525 916 520 161 526 917
521 5 2 2 4 520 161 526 917 521 162 527 918
522 5 2 2 4 521 162 527 918 522 163 528 919
523 5 2 2 4 522 163 528 919 523 164 529 920
524 5 2 2 4 523 164 529 920 524 165 530 921
525 5 2 2 4 524 165 530 921 153 18 154 561
526 5 2 2 4 260 64 65 261 916 525 531 922
527 5 2 2 4 916 525 531 922 917 526 532 923
528 5 2 2 4 917 526 532 923 918 527 533 924
529 5 2 2 4 918 527 533 924 919 528 534 925
530 5 2 2 4 919 528 534 925 920 529 535 926
531 5 2 2 4 920 529 535 926 921 530 536 927
532 5 2 2 4 921 530 536 927 561 154 155 562
533 5 2 2 4 261 65 66 262 922 531 537 928
534 5 2 2 4 922 531 537 928 923 532 538 929
535 5 2 2 4 923 532 538 929 924 533 539 930
536 5 2 2 4 924 533 539 930 925 534 540 931
537 5 2 2 4 925 534 540 931 926 535 541 932
538 5 2 2 4 926 535 541 932 927 536 542 933
539 5 2 2 4 927 536 542 933 562 155 156 563
540 5 2 2 4 262 66 67 263 928 537 543 934
541 5 2 2 4 928 537 543 934 929 538 544 935
542 5 2 2 4 929 538 544 935 930 539 545 936
543 5 2 2 4 930 539 545 936 931 540 546 937
544 5 2 2 4 931 540 546 937 932 541 547 938
545 5 2 2 4 932 541 547 938 933 542 548 939
546 5 2 2 4 933 542 548 939 563 156 157 564
547 5 2 2 4 263 67 68 264 934 543 549 940
548 5 2 2 4 934 543 549 940 935 544 550 941
549 5 2 2 4 935 544 550 941 936 545 551 942
550 5 2 2 4 936 545 551 942 937 546 552 943
551 5 2 2 4 937 546 552 943 938 547 553 944
552 5 2 2 4 938 547 553 944 939 548 554 945
553 5 2 2 4 939 548 554 945 564 157 158 565
554 5 2 2 4 264 68 69 265 940 549 555 946
555 5 2 2 4 940 549 555 946 941 550 556 947
556 5 2 2 4 941 550 556 947 942 551 557 948
557 5 2 2 4 942 551 557 948 943 552 558 949
558 5 2 2 4 943 552 558 949 944 553 559 950
559 5 2 2 4 944 553 559 950 945 554 560 951
560 5 2 2 4 945 554 560 951 565 158 159 566
561 5 2 2 4 265 69 6 61 946 555 141 500
562 5 2 2 4 946 555 141 500 947 556 142 501
563 5 2 2 4 947 556 142 501 948 557 143 502
564 5 2 2 4 948 557 143 502 949 558 144 503
565 5 2 2 4 949 558 144 503 950 559 145 504
566 5 2 2 4 950 559 145 504 951 560 146 505
567 5 2 2 4 951 560 146 505 566 159 16 138
568 5 2 2 5 19 166 567 190 189 591 952 590
569 5 2 2 5 189 591 952 590 188 592 953 589
570 5 2 2 5 188 592 953 589 187 593 954 588
571 5 2 2 5 187 593 954 588 186 594 955 587
572 5 2 2 5 186 594 955 587 185 595 956 586
573 5 2 2 5 185 595 956 586 184 596 957 585
574 5 2 2 5 184 596 957 585 22 183 584 193
575 5 2 2 5 190 567 70 10 590 952 410 93
576 5 2 2 5 590 952 410 93 589 953 411 92
577 5 2 2 5 589 953 411 92 588 954 412 91
578 5 2 2 5 588 954 412 91 587 955 413 90
579 5 2 2 5 587 955 413 90 586 956 414 89
580 5 2 2 5 586 956 414 89 585 957 415 88
581 5 2 2 5 585 957 415 88 193 584 87 13
582 5 2 2 5 166 167 568 567 591 597 958 952
583 5 2 2 5 591 597 958 952 592 598 959 953
584 5 2 2 5 592 598 959 953 593 599 960 954
585 5 2 2 5 593 599 960 954 594 600 961 955
586 5 2 2 5 594 600 961 955 595 601 962 956
587 5 2 2 5 595 601 962 956 596 602 963 957
588 5 2 2 5 596 602 963 957 183 182 583 584
589 5 2 2 5 567 568 71 70 952 958 416 410
590 5 2 2 5 952 958 416 410 953 959 417 411
591 5 2 2 5 953 959 417 411 954 960 418 412
592 5 2 2 5 954 960 418 412 955 961 419 413
593 5 2 2 5 955 961 419 413 956 962 420 414
594 5 2 2 5 956 962 420 414 957 963 421 415
595 5 2 2 5 957 963 421 415 584 583 86 87
596 5 2 2 5 167 168 569 568 597 603 964 958
597 5 2 2 5 597 603 964 958 598 604 965 959
598 5 2 2 5 598 604 965 959 599 605 966 960
599 5 2 2 5 599 605 966 960 600 606 967 961
600 5 2 2 5 600 606 967 961 601 607 968 962
601 5 2 2 5 601 607 968 962 602 608 969 963
602 5 2 2 5 602 608 969 963 182 181 582 583
603 5 2 2 5 568 569 72 71 958 964 422 416
604 5 2 2 5 958 964 422 416 959 965 423 417
605 5 2 2 5 959 965 423 417 960 966 424 418
606 5 2 2 5 960 966 424 418 961 967 425 419
607 5 2 2 5 961 967 425 419 962 968 426 420
608 5 2 2 5 962 968 426 420 963 969 427 421
609 5 2 2 5 963 969 427 421 583 582 85 86
610 5 2 2 5 168 169 570 569 603 609 970 964
611 5 2 2 5 603 609 970 964 604 610 971 965
612 5 2 2 5 604 610 971 965 605 611 972 966
613 5 2 2 5 605 611 972 966 606 612 973 967
614 5 2 2 5 606 612 973 967 607 613 974 968
615 5 2 2 5 607 613 974 968 608 614 975 969
616 5 2 2 5 608 614 975 969 181 180 581 582
617 5 2 2 5 569 570 73 72 964 970 428 422
618 5 2 2 5 964 970 428 422 965 971 429 423
619 5 2 2 5 965 971 429 423 966 972 430 424
620 5 2 2 5 966 972 430 424 967 973 431 425
621 5 2 2 5 967 973 431 425 968 974 432 426
622 5 2 2 5 968 974 432 426 969 975 433 427
623 5 2 2 5 969 975 433 427 582 581 84 85
624 5 2 2 5 169 170 571 570 609 615 976 970
625 5 2 2 5 609 615 976 970 610 616 977 971
626 5 2 2 5 610 616 977 971 611 617 978 972
627 5 2 2 5 611 617 978 972 612 618 979 973
628 5 2 2 5 612 618 979 973 613 619 980 974
629 5 2 2 5 613 619 980 974 614 620 981 975
630 5 2 2 5 614 620 981 975 180 179 580 581
631 5 2 2 5 570 571 74 73 970 976 434 428
632 5 2 2 5 970 976 434 428 971 977 435 429
633 5 2 2 5 971 977 435 429 972 978 436 430
634 5 2 2 5 972 978 436 430 973 979 437 431
635 5 2 2 5 973 979 437 431 974 980 438 432
636 5 2 2 5 974 980 438 432 975 981 439 433
637 5 2 2 5 975 981 439 433 581 580 83 84
638 5 2 2 5 170 171 572 571 615 621 982 976
639 5 2 2 5 615 621 982 976 616 622 983 977
640 5 2 2 5 616 622 983 977 617 623 984 978
641 5 2 2 5 617 623 984 978 618 624 985 979
642 5 2 2 5 618 624 985 979 619 625 986 980
643 5 2 2 5 619 625 986 980 620 626 987 981
644 5 2 2 5 620 626 987 981 179 178 579 580
645 5 2 2 5 571 572 75 74 976 982 440 434
646 5 2 2 5 976 982 440 434 977 983 441 435
647 5 2 2 5 977 983 441 435 978 984 442 436
648 5 2 2 5 978 984 442 436 979 985 443 437
649 5 2 2 5 979 985 443 437 980 986 444 438
650 5 2 2 5 980 986 444 438 981 987 445 439
651 5 2 2 5 981 987 445 439 580 579 82 83
652 5 2 2 5 171 20 191 572 621 172 573 982
653 5 2 2 5 621 172 573 982 622 173 574 983
654 5 2 2 5 622 173 574 983 623 174 575 984
655 5 2 2 5 623 174 575 984 624 175 576 985
656 5 2 2 5 624 175 576 985 625 176 577 986
657 5 2 2 5 625 176 577 986 626 177 578 987
658 5 2 2 5 626 177 578 987 178 21 192 579
659 5 2 2 5 572 191 11 75 982 573 76 440
660 5 2 2 5 982 573 76 440 983 574 77 441
661 5 2 2 5 983 574 77 441 984 575 78 442
662 5 2 2 5 984 575 78 442 985 576 79 443
663 5 2 2 5 985 576 79 443 986 577 80 444
664 5 2 2 5 986 577 80 444 987 578 81 445
665 5 2 2 5 987 578 81 445 579 192 12 82
666 5 2 2 6 11 153 561 76 191 627 988 573
667 5 2 2 6 191 627 988 573 20 194 635 172
668 5 2 2 6 76 561 562 77 573 988 989 574
669 5 2 2 6 573 988 989 574 172 635 636 173
670 5 2 2 6 77 562 563 78 574 989 990 575
671 5 2 2 6 574 989 990 575 173 636 637 174
672 5 2 2 6 78 563 564 79 575 990 991 576
673 5 2 2 6 575 990 991 576 174 637 638 175
674 5 2 2 6 79 564 565 80 576 991 992 577
675 5 2 2 6 576 991 992 577 175 638 639 176
676 5 2 2 6 80 565 566 81 577 992 993 578
677 5 2 2 6 577 992 993 578 176 639 640 177
678 5 2 2 6 81 566 138 12 578 993 634 192
679 5 2 2 6 578 993 634 192 177 640 201 21
680 5 2 2 6 153 18 154 561 627 202 628 988
681 5 2 2 6 627 202 628 988 194 23 195 635
682 5 2 2 6 561 154 155 562 988 628 629 989
683 5 2 2 6 988 628 629 989 635 195 196 636
684 5 2 2 6 562 155 156 563 989 629 630 990
685 5 2 2 6 989 629 630 990 636 196 197 637
686 5 2 2 6 563 156 157 564 990 630 631 991
687 5 2 2 6 990 630 631 991 637 197 198 638
688 5 2 2 6 564 157 158 565 991 631 632 992
689 5 2 2 6 991 631 632 992 638 198 199 639
690 5 2 2 6 565 158 159 566 992 632 633 993
691 5 2 2 6 992 632 633 993 639 199 200 640
692 5 2 2 6 566 159 16 138 993 633 203 634
693 5 2 2 6 993 633 203 634 640 200 24 201
694 5 2 2 7 13 87 499 125 193 584 994 648
695 5 2 2 7 193 584 994 648 22 183 654 211
696 5 2 2 7 125 499 124 15 648 994 647 213
697 5 2 2 7 648 994 647 213 211 654 210 26
698 5 2 2 7 87 86 498 499 584 583 995 994
699 5 2 2 7 584 583 995 994 183 182 653 654
700 5 2 2 7 499 498 123 124 994 995 646 647
701 5 2 2 7 994 995 646 647 654 653 209 210
702 5 2 2 7 86 85 497 498 583 582 996 995
703 5 2 2 7 583 582 996 995 182 181 652 653
704 5 2 2 7 498 497 122 123 995 996 645 646
705 5 2 2 7 995 996 645 646 653 652 208 209
706 5 2 2 7 85 84 496 497 582 581 997 996
707 5 2 2 7 582 581 997 996 181 180 651 652
708 5 2 2 7 497 496 121 122 996 997 644 645
709 5 2 2 7 996 997 644 645 652 651 207 208
710 5 2 2 7 84 83 495 496 581 580 998 997
711 5 2 2 7 581 580 998 997 180 179 650 651
712 5 2 2 7 496 495 120 121 997 998 643 644
713 5 2 2 7 997 998 643 644 651 650 206 207
714 5 2 2 7 83 82 494 495 580 579 999 998
715 5 2 2 7 580 579 999 998 179 178 649 650
716 5 2 2 7 495 494 119 120 998 999 642 643
717 5 2 2 7 998 999 642 643 650 649 205 206
718 5 2 2 7 82 12 118 494 579 192 641 999
719 5 2 2 7 579 192 641 999 178 21 204 649
720 5 2 2 7 494 118 14 119 999 641 212 642
721 5 2 2 7 999 641 212 642 649 204 25 205
722 5 2 2 8 12 138 518 118 192 634 1000 641
723 5 2 2 8 192 634 1000 641 21 201 657 204
724 5 2 2 8 118 518 140 14 641 1000 656 212
725 5 2 2 8 641 1000 656 212 204 657 215 25
726 5 2 2 8 138 16 139 518 634 203 655 1000
727 5 2 2 8 634 203 655 1000 201 24 214 657
728 5 2 2 8 518 139 17 140 1000 655 216 656
729 5 2 2 8 1000 655 216 656 657 214 27 215
$EndElements
