[Info]
Version 1
Dimension 2
NumNodes 651
Num3DElements 0
Num2DElements 600
Num1DElements 103
NumNodeBC 108
NumSaveNodes 0
NumSaveElements 0
Num 2d-line      : 103
Num 2d-line,quad : 0
Num 3d-line      : 0
Num 3d-line,quad : 0
Num triangle     : 0
Num triangle,quad: 0
Num quadr        : 600
Num quadr,quad   : 0
Num tetra        : 0
Num tetra,quad   : 0
Num brick        : 0
Num brick,quad   : 0
Num pyramid      : 0
Num pyramid,quad : 0
Num wedge        : 0
Num wedge,quad   : 0

[Nodes]
#NodeNr x-coord y-coord z-coord
1  0.0  0.0  0.0
2  0.1  0.0  0.0
3  0.2  0.0  0.0
4  0.30000000000000004  0.0  0.0
5  0.4  0.0  0.0
6  0.5  0.0  0.0
7  0.6000000000000001  0.0  0.0
8  0.7000000000000001  0.0  0.0
9  0.8  0.0  0.0
10  0.9  0.0  0.0
11  1.0  0.0  0.0
12  1.1  0.0  0.0
13  1.2000000000000002  0.0  0.0
14  1.3  0.0  0.0
15  1.4000000000000001  0.0  0.0
16  1.5  0.0  0.0
17  1.6  0.0  0.0
18  1.7000000000000002  0.0  0.0
19  1.8  0.0  0.0
20  1.9000000000000001  0.0  0.0
21  2.0  0.0  0.0
22  2.1  0.0  0.0
23  2.2  0.0  0.0
24  2.3000000000000003  0.0  0.0
25  2.4000000000000004  0.0  0.0
26  2.5  0.0  0.0
27  2.6  0.0  0.0
28  2.7  0.0  0.0
29  2.8000000000000003  0.0  0.0
30  2.9000000000000004  0.0  0.0
31  3.0  0.0  0.0
32  0.0  0.1  0.0
33  0.1  0.1  0.0
34  0.2  0.1  0.0
35  0.30000000000000004  0.1  0.0
36  0.4  0.1  0.0
37  0.5  0.1  0.0
38  0.6000000000000001  0.1  0.0
39  0.7000000000000001  0.1  0.0
40  0.8  0.1  0.0
41  0.9  0.1  0.0
42  1.0  0.1  0.0
43  1.1  0.1  0.0
44  1.2000000000000002  0.1  0.0
45  1.3  0.1  0.0
46  1.4000000000000001  0.1  0.0
47  1.5  0.1  0.0
48  1.6  0.1  0.0
49  1.7000000000000002  0.1  0.0
50  1.8  0.1  0.0
51  1.9000000000000001  0.1  0.0
52  2.0  0.1  0.0
53  2.1  0.1  0.0
54  2.2  0.1  0.0
55  2.3000000000000003  0.1  0.0
56  2.4000000000000004  0.1  0.0
57  2.5  0.1  0.0
58  2.6  0.1  0.0
59  2.7  0.1  0.0
60  2.8000000000000003  0.1  0.0
61  2.9000000000000004  0.1  0.0
62  3.0  0.1  0.0
63  0.0  0.2  0.0
64  0.1  0.2  0.0
65  0.2  0.2  0.0
66  0.30000000000000004  0.2  0.0
67  0.4  0.2  0.0
68  0.5  0.2  0.0
69  0.6000000000000001  0.2  0.0
70  0.7000000000000001  0.2  0.0
71  0.8  0.2  0.0
72  0.9  0.2  0.0
73  1.0  0.2  0.0
74  1.1  0.2  0.0
75  1.2000000000000002  0.2  0.0
76  1.3  0.2  0.0
77  1.4000000000000001  0.2  0.0
78  1.5  0.2  0.0
79  1.6  0.2  0.0
80  1.7000000000000002  0.2  0.0
81  1.8  0.2  0.0
82  1.9000000000000001  0.2  0.0
83  2.0  0.2  0.0
84  2.1  0.2  0.0
85  2.2  0.2  0.0
86  2.3000000000000003  0.2  0.0
87  2.4000000000000004  0.2  0.0
88  2.5  0.2  0.0
89  2.6  0.2  0.0
90  2.7  0.2  0.0
91  2.8000000000000003  0.2  0.0
92  2.9000000000000004  0.2  0.0
93  3.0  0.2  0.0
94  0.0  0.30000000000000004  0.0
95  0.1  0.30000000000000004  0.0
96  0.2  0.30000000000000004  0.0
97  0.30000000000000004  0.30000000000000004  0.0
98  0.4  0.30000000000000004  0.0
99  0.5  0.30000000000000004  0.0
100  0.6000000000000001  0.30000000000000004  0.0
101  0.7000000000000001  0.30000000000000004  0.0
102  0.8  0.30000000000000004  0.0
103  0.9  0.30000000000000004  0.0
104  1.0  0.30000000000000004  0.0
105  1.1  0.30000000000000004  0.0
106  1.2000000000000002  0.30000000000000004  0.0
107  1.3  0.30000000000000004  0.0
108  1.4000000000000001  0.30000000000000004  0.0
109  1.5  0.30000000000000004  0.0
110  1.6  0.30000000000000004  0.0
111  1.7000000000000002  0.30000000000000004  0.0
112  1.8  0.30000000000000004  0.0
113  1.9000000000000001  0.30000000000000004  0.0
114  2.0  0.30000000000000004  0.0
115  2.1  0.30000000000000004  0.0
116  2.2  0.30000000000000004  0.0
117  2.3000000000000003  0.30000000000000004  0.0
118  2.4000000000000004  0.30000000000000004  0.0
119  2.5  0.30000000000000004  0.0
120  2.6  0.30000000000000004  0.0
121  2.7  0.30000000000000004  0.0
122  2.8000000000000003  0.30000000000000004  0.0
123  2.9000000000000004  0.30000000000000004  0.0
124  3.0  0.30000000000000004  0.0
125  0.0  0.4  0.0
126  0.1  0.4  0.0
127  0.2  0.4  0.0
128  0.30000000000000004  0.4  0.0
129  0.4  0.4  0.0
130  0.5  0.4  0.0
131  0.6000000000000001  0.4  0.0
132  0.7000000000000001  0.4  0.0
133  0.8  0.4  0.0
134  0.9  0.4  0.0
135  1.0  0.4  0.0
136  1.1  0.4  0.0
137  1.2000000000000002  0.4  0.0
138  1.3  0.4  0.0
139  1.4000000000000001  0.4  0.0
140  1.5  0.4  0.0
141  1.6  0.4  0.0
142  1.7000000000000002  0.4  0.0
143  1.8  0.4  0.0
144  1.9000000000000001  0.4  0.0
145  2.0  0.4  0.0
146  2.1  0.4  0.0
147  2.2  0.4  0.0
148  2.3000000000000003  0.4  0.0
149  2.4000000000000004  0.4  0.0
150  2.5  0.4  0.0
151  2.6  0.4  0.0
152  2.7  0.4  0.0
153  2.8000000000000003  0.4  0.0
154  2.9000000000000004  0.4  0.0
155  3.0  0.4  0.0
156  0.0  0.5  0.0
157  0.1  0.5  0.0
158  0.2  0.5  0.0
159  0.30000000000000004  0.5  0.0
160  0.4  0.5  0.0
161  0.5  0.5  0.0
162  0.6000000000000001  0.5  0.0
163  0.7000000000000001  0.5  0.0
164  0.8  0.5  0.0
165  0.9  0.5  0.0
166  1.0  0.5  0.0
167  1.1  0.5  0.0
168  1.2000000000000002  0.5  0.0
169  1.3  0.5  0.0
170  1.4000000000000001  0.5  0.0
171  1.5  0.5  0.0
172  1.6  0.5  0.0
173  1.7000000000000002  0.5  0.0
174  1.8  0.5  0.0
175  1.9000000000000001  0.5  0.0
176  2.0  0.5  0.0
177  2.1  0.5  0.0
178  2.2  0.5  0.0
179  2.3000000000000003  0.5  0.0
180  2.4000000000000004  0.5  0.0
181  2.5  0.5  0.0
182  2.6  0.5  0.0
183  2.7  0.5  0.0
184  2.8000000000000003  0.5  0.0
185  2.9000000000000004  0.5  0.0
186  3.0  0.5  0.0
187  0.0  0.6000000000000001  0.0
188  0.1  0.6000000000000001  0.0
189  0.2  0.6000000000000001  0.0
190  0.30000000000000004  0.6000000000000001  0.0
191  0.4  0.6000000000000001  0.0
192  0.5  0.6000000000000001  0.0
193  0.6000000000000001  0.6000000000000001  0.0
194  0.7000000000000001  0.6000000000000001  0.0
195  0.8  0.6000000000000001  0.0
196  0.9  0.6000000000000001  0.0
197  1.0  0.6000000000000001  0.0
198  1.1  0.6000000000000001  0.0
199  1.2000000000000002  0.6000000000000001  0.0
200  1.3  0.6000000000000001  0.0
201  1.4000000000000001  0.6000000000000001  0.0
202  1.5  0.6000000000000001  0.0
203  1.6  0.6000000000000001  0.0
204  1.7000000000000002  0.6000000000000001  0.0
205  1.8  0.6000000000000001  0.0
206  1.9000000000000001  0.6000000000000001  0.0
207  2.0  0.6000000000000001  0.0
208  2.1  0.6000000000000001  0.0
209  2.2  0.6000000000000001  0.0
210  2.3000000000000003  0.6000000000000001  0.0
211  2.4000000000000004  0.6000000000000001  0.0
212  2.5  0.6000000000000001  0.0
213  2.6  0.6000000000000001  0.0
214  2.7  0.6000000000000001  0.0
215  2.8000000000000003  0.6000000000000001  0.0
216  2.9000000000000004  0.6000000000000001  0.0
217  3.0  0.6000000000000001  0.0
218  0.0  0.7000000000000001  0.0
219  0.1  0.7000000000000001  0.0
220  0.2  0.7000000000000001  0.0
221  0.30000000000000004  0.7000000000000001  0.0
222  0.4  0.7000000000000001  0.0
223  0.5  0.7000000000000001  0.0
224  0.6000000000000001  0.7000000000000001  0.0
225  0.7000000000000001  0.7000000000000001  0.0
226  0.8  0.7000000000000001  0.0
227  0.9  0.7000000000000001  0.0
228  1.0  0.7000000000000001  0.0
229  1.1  0.7000000000000001  0.0
230  1.2000000000000002  0.7000000000000001  0.0
231  1.3  0.7000000000000001  0.0
232  1.4000000000000001  0.7000000000000001  0.0
233  1.5  0.7000000000000001  0.0
234  1.6  0.7000000000000001  0.0
235  1.7000000000000002  0.7000000000000001  0.0
236  1.8  0.7000000000000001  0.0
237  1.9000000000000001  0.7000000000000001  0.0
238  2.0  0.7000000000000001  0.0
239  2.1  0.7000000000000001  0.0
240  2.2  0.7000000000000001  0.0
241  2.3000000000000003  0.7000000000000001  0.0
242  2.4000000000000004  0.7000000000000001  0.0
243  2.5  0.7000000000000001  0.0
244  2.6  0.7000000000000001  0.0
245  2.7  0.7000000000000001  0.0
246  2.8000000000000003  0.7000000000000001  0.0
247  2.9000000000000004  0.7000000000000001  0.0
248  3.0  0.7000000000000001  0.0
249  0.0  0.8  0.0
250  0.1  0.8  0.0
251  0.2  0.8  0.0
252  0.30000000000000004  0.8  0.0
253  0.4  0.8  0.0
254  0.5  0.8  0.0
255  0.6000000000000001  0.8  0.0
256  0.7000000000000001  0.8  0.0
257  0.8  0.8  0.0
258  0.9  0.8  0.0
259  1.0  0.8  0.0
260  1.1  0.8  0.0
261  1.2000000000000002  0.8  0.0
262  1.3  0.8  0.0
263  1.4000000000000001  0.8  0.0
264  1.5  0.8  0.0
265  1.6  0.8  0.0
266  1.7000000000000002  0.8  0.0
267  1.8  0.8  0.0
268  1.9000000000000001  0.8  0.0
269  2.0  0.8  0.0
270  2.1  0.8  0.0
271  2.2  0.8  0.0
272  2.3000000000000003  0.8  0.0
273  2.4000000000000004  0.8  0.0
274  2.5  0.8  0.0
275  2.6  0.8  0.0
276  2.7  0.8  0.0
277  2.8000000000000003  0.8  0.0
278  2.9000000000000004  0.8  0.0
279  3.0  0.8  0.0
280  0.0  0.9  0.0
281  0.1  0.9  0.0
282  0.2  0.9  0.0
283  0.30000000000000004  0.9  0.0
284  0.4  0.9  0.0
285  0.5  0.9  0.0
286  0.6000000000000001  0.9  0.0
287  0.7000000000000001  0.9  0.0
288  0.8  0.9  0.0
289  0.9  0.9  0.0
290  1.0  0.9  0.0
291  1.1  0.9  0.0
292  1.2000000000000002  0.9  0.0
293  1.3  0.9  0.0
294  1.4000000000000001  0.9  0.0
295  1.5  0.9  0.0
296  1.6  0.9  0.0
297  1.7000000000000002  0.9  0.0
298  1.8  0.9  0.0
299  1.9000000000000001  0.9  0.0
300  2.0  0.9  0.0
301  2.1  0.9  0.0
302  2.2  0.9  0.0
303  2.3000000000000003  0.9  0.0
304  2.4000000000000004  0.9  0.0
305  2.5  0.9  0.0
306  2.6  0.9  0.0
307  2.7  0.9  0.0
308  2.8000000000000003  0.9  0.0
309  2.9000000000000004  0.9  0.0
310  3.0  0.9  0.0
311  0.0  1.0  0.0
312  0.1  1.0  0.0
313  0.2  1.0  0.0
314  0.30000000000000004  1.0  0.0
315  0.4  1.0  0.0
316  0.5  1.0  0.0
317  0.6000000000000001  1.0  0.0
318  0.7000000000000001  1.0  0.0
319  0.8  1.0  0.0
320  0.9  1.0  0.0
321  1.0  1.0  0.0
322  1.1  1.0  0.0
323  1.2000000000000002  1.0  0.0
324  1.3  1.0  0.0
325  1.4000000000000001  1.0  0.0
326  1.5  1.0  0.0
327  1.6  1.0  0.0
328  1.7000000000000002  1.0  0.0
329  1.8  1.0  0.0
330  1.9000000000000001  1.0  0.0
331  2.0  1.0  0.0
332  2.1  1.0  0.0
333  2.2  1.0  0.0
334  2.3000000000000003  1.0  0.0
335  2.4000000000000004  1.0  0.0
336  2.5  1.0  0.0
337  2.6  1.0  0.0
338  2.7  1.0  0.0
339  2.8000000000000003  1.0  0.0
340  2.9000000000000004  1.0  0.0
341  3.0  1.0  0.0
342  0.0  1.1  0.0
343  0.1  1.1  0.0
344  0.2  1.1  0.0
345  0.30000000000000004  1.1  0.0
346  0.4  1.1  0.0
347  0.5  1.1  0.0
348  0.6000000000000001  1.1  0.0
349  0.7000000000000001  1.1  0.0
350  0.8  1.1  0.0
351  0.9  1.1  0.0
352  1.0  1.1  0.0
353  1.1  1.1  0.0
354  1.2000000000000002  1.1  0.0
355  1.3  1.1  0.0
356  1.4000000000000001  1.1  0.0
357  1.5  1.1  0.0
358  1.6  1.1  0.0
359  1.7000000000000002  1.1  0.0
360  1.8  1.1  0.0
361  1.9000000000000001  1.1  0.0
362  2.0  1.1  0.0
363  2.1  1.1  0.0
364  2.2  1.1  0.0
365  2.3000000000000003  1.1  0.0
366  2.4000000000000004  1.1  0.0
367  2.5  1.1  0.0
368  2.6  1.1  0.0
369  2.7  1.1  0.0
370  2.8000000000000003  1.1  0.0
371  2.9000000000000004  1.1  0.0
372  3.0  1.1  0.0
373  0.0  1.2000000000000002  0.0
374  0.1  1.2000000000000002  0.0
375  0.2  1.2000000000000002  0.0
376  0.30000000000000004  1.2000000000000002  0.0
377  0.4  1.2000000000000002  0.0
378  0.5  1.2000000000000002  0.0
379  0.6000000000000001  1.2000000000000002  0.0
380  0.7000000000000001  1.2000000000000002  0.0
381  0.8  1.2000000000000002  0.0
382  0.9  1.2000000000000002  0.0
383  1.0  1.2000000000000002  0.0
384  1.1  1.2000000000000002  0.0
385  1.2000000000000002  1.2000000000000002  0.0
386  1.3  1.2000000000000002  0.0
387  1.4000000000000001  1.2000000000000002  0.0
388  1.5  1.2000000000000002  0.0
389  1.6  1.2000000000000002  0.0
390  1.7000000000000002  1.2000000000000002  0.0
391  1.8  1.2000000000000002  0.0
392  1.9000000000000001  1.2000000000000002  0.0
393  2.0  1.2000000000000002  0.0
394  2.1  1.2000000000000002  0.0
395  2.2  1.2000000000000002  0.0
396  2.3000000000000003  1.2000000000000002  0.0
397  2.4000000000000004  1.2000000000000002  0.0
398  2.5  1.2000000000000002  0.0
399  2.6  1.2000000000000002  0.0
400  2.7  1.2000000000000002  0.0
401  2.8000000000000003  1.2000000000000002  0.0
402  2.9000000000000004  1.2000000000000002  0.0
403  3.0  1.2000000000000002  0.0
404  0.0  1.3  0.0
405  0.1  1.3  0.0
406  0.2  1.3  0.0
407  0.30000000000000004  1.3  0.0
408  0.4  1.3  0.0
409  0.5  1.3  0.0
410  0.6000000000000001  1.3  0.0
411  0.7000000000000001  1.3  0.0
412  0.8  1.3  0.0
413  0.9  1.3  0.0
414  1.0  1.3  0.0
415  1.1  1.3  0.0
416  1.2000000000000002  1.3  0.0
417  1.3  1.3  0.0
418  1.4000000000000001  1.3  0.0
419  1.5  1.3  0.0
420  1.6  1.3  0.0
421  1.7000000000000002  1.3  0.0
422  1.8  1.3  0.0
423  1.9000000000000001  1.3  0.0
424  2.0  1.3  0.0
425  2.1  1.3  0.0
426  2.2  1.3  0.0
427  2.3000000000000003  1.3  0.0
428  2.4000000000000004  1.3  0.0
429  2.5  1.3  0.0
430  2.6  1.3  0.0
431  2.7  1.3  0.0
432  2.8000000000000003  1.3  0.0
433  2.9000000000000004  1.3  0.0
434  3.0  1.3  0.0
435  0.0  1.4000000000000001  0.0
436  0.1  1.4000000000000001  0.0
437  0.2  1.4000000000000001  0.0
438  0.30000000000000004  1.4000000000000001  0.0
439  0.4  1.4000000000000001  0.0
440  0.5  1.4000000000000001  0.0
441  0.6000000000000001  1.4000000000000001  0.0
442  0.7000000000000001  1.4000000000000001  0.0
443  0.8  1.4000000000000001  0.0
444  0.9  1.4000000000000001  0.0
445  1.0  1.4000000000000001  0.0
446  1.1  1.4000000000000001  0.0
447  1.2000000000000002  1.4000000000000001  0.0
448  1.3  1.4000000000000001  0.0
449  1.4000000000000001  1.4000000000000001  0.0
450  1.5  1.4000000000000001  0.0
451  1.6  1.4000000000000001  0.0
452  1.7000000000000002  1.4000000000000001  0.0
453  1.8  1.4000000000000001  0.0
454  1.9000000000000001  1.4000000000000001  0.0
455  2.0  1.4000000000000001  0.0
456  2.1  1.4000000000000001  0.0
457  2.2  1.4000000000000001  0.0
458  2.3000000000000003  1.4000000000000001  0.0
459  2.4000000000000004  1.4000000000000001  0.0
460  2.5  1.4000000000000001  0.0
461  2.6  1.4000000000000001  0.0
462  2.7  1.4000000000000001  0.0
463  2.8000000000000003  1.4000000000000001  0.0
464  2.9000000000000004  1.4000000000000001  0.0
465  3.0  1.4000000000000001  0.0
466  0.0  1.5  0.0
467  0.1  1.5  0.0
468  0.2  1.5  0.0
469  0.30000000000000004  1.5  0.0
470  0.4  1.5  0.0
471  0.5  1.5  0.0
472  0.6000000000000001  1.5  0.0
473  0.7000000000000001  1.5  0.0
474  0.8  1.5  0.0
475  0.9  1.5  0.0
476  1.0  1.5  0.0
477  1.1  1.5  0.0
478  1.2000000000000002  1.5  0.0
479  1.3  1.5  0.0
480  1.4000000000000001  1.5  0.0
481  1.5  1.5  0.0
482  1.6  1.5  0.0
483  1.7000000000000002  1.5  0.0
484  1.8  1.5  0.0
485  1.9000000000000001  1.5  0.0
486  2.0  1.5  0.0
487  2.1  1.5  0.0
488  2.2  1.5  0.0
489  2.3000000000000003  1.5  0.0
490  2.4000000000000004  1.5  0.0
491  2.5  1.5  0.0
492  2.6  1.5  0.0
493  2.7  1.5  0.0
494  2.8000000000000003  1.5  0.0
495  2.9000000000000004  1.5  0.0
496  3.0  1.5  0.0
497  0.0  1.6  0.0
498  0.1  1.6  0.0
499  0.2  1.6  0.0
500  0.30000000000000004  1.6  0.0
501  0.4  1.6  0.0
502  0.5  1.6  0.0
503  0.6000000000000001  1.6  0.0
504  0.7000000000000001  1.6  0.0
505  0.8  1.6  0.0
506  0.9  1.6  0.0
507  1.0  1.6  0.0
508  1.1  1.6  0.0
509  1.2000000000000002  1.6  0.0
510  1.3  1.6  0.0
511  1.4000000000000001  1.6  0.0
512  1.5  1.6  0.0
513  1.6  1.6  0.0
514  1.7000000000000002  1.6  0.0
515  1.8  1.6  0.0
516  1.9000000000000001  1.6  0.0
517  2.0  1.6  0.0
518  2.1  1.6  0.0
519  2.2  1.6  0.0
520  2.3000000000000003  1.6  0.0
521  2.4000000000000004  1.6  0.0
522  2.5  1.6  0.0
523  2.6  1.6  0.0
524  2.7  1.6  0.0
525  2.8000000000000003  1.6  0.0
526  2.9000000000000004  1.6  0.0
527  3.0  1.6  0.0
528  0.0  1.7000000000000002  0.0
529  0.1  1.7000000000000002  0.0
530  0.2  1.7000000000000002  0.0
531  0.30000000000000004  1.7000000000000002  0.0
532  0.4  1.7000000000000002  0.0
533  0.5  1.7000000000000002  0.0
534  0.6000000000000001  1.7000000000000002  0.0
535  0.7000000000000001  1.7000000000000002  0.0
536  0.8  1.7000000000000002  0.0
537  0.9  1.7000000000000002  0.0
538  1.0  1.7000000000000002  0.0
539  1.1  1.7000000000000002  0.0
540  1.2000000000000002  1.7000000000000002  0.0
541  1.3  1.7000000000000002  0.0
542  1.4000000000000001  1.7000000000000002  0.0
543  1.5  1.7000000000000002  0.0
544  1.6  1.7000000000000002  0.0
545  1.7000000000000002  1.7000000000000002  0.0
546  1.8  1.7000000000000002  0.0
547  1.9000000000000001  1.7000000000000002  0.0
548  2.0  1.7000000000000002  0.0
549  2.1  1.7000000000000002  0.0
550  2.2  1.7000000000000002  0.0
551  2.3000000000000003  1.7000000000000002  0.0
552  2.4000000000000004  1.7000000000000002  0.0
553  2.5  1.7000000000000002  0.0
554  2.6  1.7000000000000002  0.0
555  2.7  1.7000000000000002  0.0
556  2.8000000000000003  1.7000000000000002  0.0
557  2.9000000000000004  1.7000000000000002  0.0
558  3.0  1.7000000000000002  0.0
559  0.0  1.8  0.0
560  0.1  1.8  0.0
561  0.2  1.8  0.0
562  0.30000000000000004  1.8  0.0
563  0.4  1.8  0.0
564  0.5  1.8  0.0
565  0.6000000000000001  1.8  0.0
566  0.7000000000000001  1.8  0.0
567  0.8  1.8  0.0
568  0.9  1.8  0.0
569  1.0  1.8  0.0
570  1.1  1.8  0.0
571  1.2000000000000002  1.8  0.0
572  1.3  1.8  0.0
573  1.4000000000000001  1.8  0.0
574  1.5  1.8  0.0
575  1.6  1.8  0.0
576  1.7000000000000002  1.8  0.0
577  1.8  1.8  0.0
578  1.9000000000000001  1.8  0.0
579  2.0  1.8  0.0
580  2.1  1.8  0.0
581  2.2  1.8  0.0
582  2.3000000000000003  1.8  0.0
583  2.4000000000000004  1.8  0.0
584  2.5  1.8  0.0
585  2.6  1.8  0.0
586  2.7  1.8  0.0
587  2.8000000000000003  1.8  0.0
588  2.9000000000000004  1.8  0.0
589  3.0  1.8  0.0
590  0.0  1.9000000000000001  0.0
591  0.1  1.9000000000000001  0.0
592  0.2  1.9000000000000001  0.0
593  0.30000000000000004  1.9000000000000001  0.0
594  0.4  1.9000000000000001  0.0
595  0.5  1.9000000000000001  0.0
596  0.6000000000000001  1.9000000000000001  0.0
597  0.7000000000000001  1.9000000000000001  0.0
598  0.8  1.9000000000000001  0.0
599  0.9  1.9000000000000001  0.0
600  1.0  1.9000000000000001  0.0
601  1.1  1.9000000000000001  0.0
602  1.2000000000000002  1.9000000000000001  0.0
603  1.3  1.9000000000000001  0.0
604  1.4000000000000001  1.9000000000000001  0.0
605  1.5  1.9000000000000001  0.0
606  1.6  1.9000000000000001  0.0
607  1.7000000000000002  1.9000000000000001  0.0
608  1.8  1.9000000000000001  0.0
609  1.9000000000000001  1.9000000000000001  0.0
610  2.0  1.9000000000000001  0.0
611  2.1  1.9000000000000001  0.0
612  2.2  1.9000000000000001  0.0
613  2.3000000000000003  1.9000000000000001  0.0
614  2.4000000000000004  1.9000000000000001  0.0
615  2.5  1.9000000000000001  0.0
616  2.6  1.9000000000000001  0.0
617  2.7  1.9000000000000001  0.0
618  2.8000000000000003  1.9000000000000001  0.0
619  2.9000000000000004  1.9000000000000001  0.0
620  3.0  1.9000000000000001  0.0
621  0.0  2.0  0.0
622  0.1  2.0  0.0
623  0.2  2.0  0.0
624  0.30000000000000004  2.0  0.0
625  0.4  2.0  0.0
626  0.5  2.0  0.0
627  0.6000000000000001  2.0  0.0
628  0.7000000000000001  2.0  0.0
629  0.8  2.0  0.0
630  0.9  2.0  0.0
631  1.0  2.0  0.0
632  1.1  2.0  0.0
633  1.2000000000000002  2.0  0.0
634  1.3  2.0  0.0
635  1.4000000000000001  2.0  0.0
636  1.5  2.0  0.0
637  1.6  2.0  0.0
638  1.7000000000000002  2.0  0.0
639  1.8  2.0  0.0
640  1.9000000000000001  2.0  0.0
641  2.0  2.0  0.0
642  2.1  2.0  0.0
643  2.2  2.0  0.0
644  2.3000000000000003  2.0  0.0
645  2.4000000000000004  2.0  0.0
646  2.5  2.0  0.0
647  2.6  2.0  0.0
648  2.7  2.0  0.0
649  2.8000000000000003  2.0  0.0
650  2.9000000000000004  2.0  0.0
651  3.0  2.0  0.0

[1D Elements]
#ElemNr  ElemType  NrOfNodes  Level
#Node1 Node2 ... NodeNrOfNodes
601 100 2 west_surf
1 32
602 100 2 east_surf
31 62
603 100 2 load_surf
31 62
604 100 2 west_surf
32 63
605 100 2 east_surf
62 93
606 100 2 load_surf
62 93
607 100 2 west_surf
63 94
608 100 2 east_surf
93 124
609 100 2 load_surf
93 124
610 100 2 west_surf
94 125
611 100 2 east_surf
124 155
612 100 2 west_surf
125 156
613 100 2 east_surf
155 186
614 100 2 west_surf
156 187
615 100 2 east_surf
186 217
616 100 2 west_surf
187 218
617 100 2 east_surf
217 248
618 100 2 west_surf
218 249
619 100 2 east_surf
248 279
620 100 2 west_surf
249 280
621 100 2 east_surf
279 310
622 100 2 west_surf
280 311
623 100 2 east_surf
310 341
624 100 2 west_surf
311 342
625 100 2 east_surf
341 372
626 100 2 west_surf
342 373
627 100 2 east_surf
372 403
628 100 2 west_surf
373 404
629 100 2 east_surf
403 434
630 100 2 west_surf
404 435
631 100 2 east_surf
434 465
632 100 2 west_surf
435 466
633 100 2 east_surf
465 496
634 100 2 west_surf
466 497
635 100 2 east_surf
496 527
636 100 2 west_surf
497 528
637 100 2 east_surf
527 558
638 100 2 west_surf
528 559
639 100 2 east_surf
558 589
640 100 2 west_surf
559 590
641 100 2 east_surf
589 620
642 100 2 west_surf
590 621
643 100 2 east_surf
620 651
644 100 2 south_surf
1 2
645 100 2 north_surf
621 622
646 100 2 south_surf
2 3
647 100 2 north_surf
622 623
648 100 2 south_surf
3 4
649 100 2 north_surf
623 624
650 100 2 south_surf
4 5
651 100 2 north_surf
624 625
652 100 2 south_surf
5 6
653 100 2 north_surf
625 626
654 100 2 south_surf
6 7
655 100 2 north_surf
626 627
656 100 2 south_surf
7 8
657 100 2 north_surf
627 628
658 100 2 south_surf
8 9
659 100 2 north_surf
628 629
660 100 2 south_surf
9 10
661 100 2 north_surf
629 630
662 100 2 south_surf
10 11
663 100 2 north_surf
630 631
664 100 2 south_surf
11 12
665 100 2 north_surf
631 632
666 100 2 south_surf
12 13
667 100 2 north_surf
632 633
668 100 2 south_surf
13 14
669 100 2 north_surf
633 634
670 100 2 south_surf
14 15
671 100 2 north_surf
634 635
672 100 2 south_surf
15 16
673 100 2 north_surf
635 636
674 100 2 south_surf
16 17
675 100 2 north_surf
636 637
676 100 2 south_surf
17 18
677 100 2 north_surf
637 638
678 100 2 south_surf
18 19
679 100 2 north_surf
638 639
680 100 2 south_surf
19 20
681 100 2 north_surf
639 640
682 100 2 south_surf
20 21
683 100 2 north_surf
640 641
684 100 2 south_surf
21 22
685 100 2 north_surf
641 642
686 100 2 south_surf
22 23
687 100 2 north_surf
642 643
688 100 2 south_surf
23 24
689 100 2 north_surf
643 644
690 100 2 south_surf
24 25
691 100 2 north_surf
644 645
692 100 2 south_surf
25 26
693 100 2 north_surf
645 646
694 100 2 south_surf
26 27
695 100 2 north_surf
646 647
696 100 2 south_surf
27 28
697 100 2 north_surf
647 648
698 100 2 south_surf
28 29
699 100 2 north_surf
648 649
700 100 2 south_surf
29 30
701 100 2 north_surf
649 650
702 100 2 south_surf
30 31
703 100 2 north_surf
650 651

[2D Elements]
#ElemNr  ElemType  NrOfNodes  Level
#Node1 Node2 ... NodeNrOfNodes
1 6 4 mech
1 2 33 32
2 6 4 mech
2 3 34 33
3 6 4 mech
3 4 35 34
4 6 4 mech
4 5 36 35
5 6 4 mech
5 6 37 36
6 6 4 mech
6 7 38 37
7 6 4 mech
7 8 39 38
8 6 4 mech
8 9 40 39
9 6 4 mech
9 10 41 40
10 6 4 mech
10 11 42 41
11 6 4 mech
11 12 43 42
12 6 4 mech
12 13 44 43
13 6 4 mech
13 14 45 44
14 6 4 mech
14 15 46 45
15 6 4 mech
15 16 47 46
16 6 4 mech
16 17 48 47
17 6 4 mech
17 18 49 48
18 6 4 mech
18 19 50 49
19 6 4 mech
19 20 51 50
20 6 4 mech
20 21 52 51
21 6 4 mech
21 22 53 52
22 6 4 mech
22 23 54 53
23 6 4 mech
23 24 55 54
24 6 4 mech
24 25 56 55
25 6 4 mech
25 26 57 56
26 6 4 mech
26 27 58 57
27 6 4 mech
27 28 59 58
28 6 4 mech
28 29 60 59
29 6 4 mech
29 30 61 60
30 6 4 mech
30 31 62 61
31 6 4 mech
32 33 64 63
32 6 4 mech
33 34 65 64
33 6 4 mech
34 35 66 65
34 6 4 mech
35 36 67 66
35 6 4 mech
36 37 68 67
36 6 4 mech
37 38 69 68
37 6 4 mech
38 39 70 69
38 6 4 mech
39 40 71 70
39 6 4 mech
40 41 72 71
40 6 4 mech
41 42 73 72
41 6 4 mech
42 43 74 73
42 6 4 mech
43 44 75 74
43 6 4 mech
44 45 76 75
44 6 4 mech
45 46 77 76
45 6 4 mech
46 47 78 77
46 6 4 mech
47 48 79 78
47 6 4 mech
48 49 80 79
48 6 4 mech
49 50 81 80
49 6 4 mech
50 51 82 81
50 6 4 mech
51 52 83 82
51 6 4 mech
52 53 84 83
52 6 4 mech
53 54 85 84
53 6 4 mech
54 55 86 85
54 6 4 mech
55 56 87 86
55 6 4 mech
56 57 88 87
56 6 4 mech
57 58 89 88
57 6 4 mech
58 59 90 89
58 6 4 mech
59 60 91 90
59 6 4 mech
60 61 92 91
60 6 4 mech
61 62 93 92
61 6 4 mech
63 64 95 94
62 6 4 mech
64 65 96 95
63 6 4 mech
65 66 97 96
64 6 4 mech
66 67 98 97
65 6 4 mech
67 68 99 98
66 6 4 mech
68 69 100 99
67 6 4 mech
69 70 101 100
68 6 4 mech
70 71 102 101
69 6 4 mech
71 72 103 102
70 6 4 mech
72 73 104 103
71 6 4 mech
73 74 105 104
72 6 4 mech
74 75 106 105
73 6 4 mech
75 76 107 106
74 6 4 mech
76 77 108 107
75 6 4 mech
77 78 109 108
76 6 4 mech
78 79 110 109
77 6 4 mech
79 80 111 110
78 6 4 mech
80 81 112 111
79 6 4 mech
81 82 113 112
80 6 4 mech
82 83 114 113
81 6 4 mech
83 84 115 114
82 6 4 mech
84 85 116 115
83 6 4 mech
85 86 117 116
84 6 4 mech
86 87 118 117
85 6 4 mech
87 88 119 118
86 6 4 mech
88 89 120 119
87 6 4 mech
89 90 121 120
88 6 4 mech
90 91 122 121
89 6 4 mech
91 92 123 122
90 6 4 mech
92 93 124 123
91 6 4 mech
94 95 126 125
92 6 4 mech
95 96 127 126
93 6 4 mech
96 97 128 127
94 6 4 mech
97 98 129 128
95 6 4 mech
98 99 130 129
96 6 4 mech
99 100 131 130
97 6 4 mech
100 101 132 131
98 6 4 mech
101 102 133 132
99 6 4 mech
102 103 134 133
100 6 4 mech
103 104 135 134
101 6 4 mech
104 105 136 135
102 6 4 mech
105 106 137 136
103 6 4 mech
106 107 138 137
104 6 4 mech
107 108 139 138
105 6 4 mech
108 109 140 139
106 6 4 mech
109 110 141 140
107 6 4 mech
110 111 142 141
108 6 4 mech
111 112 143 142
109 6 4 mech
112 113 144 143
110 6 4 mech
113 114 145 144
111 6 4 mech
114 115 146 145
112 6 4 mech
115 116 147 146
113 6 4 mech
116 117 148 147
114 6 4 mech
117 118 149 148
115 6 4 mech
118 119 150 149
116 6 4 mech
119 120 151 150
117 6 4 mech
120 121 152 151
118 6 4 mech
121 122 153 152
119 6 4 mech
122 123 154 153
120 6 4 mech
123 124 155 154
121 6 4 mech
125 126 157 156
122 6 4 mech
126 127 158 157
123 6 4 mech
127 128 159 158
124 6 4 mech
128 129 160 159
125 6 4 mech
129 130 161 160
126 6 4 mech
130 131 162 161
127 6 4 mech
131 132 163 162
128 6 4 mech
132 133 164 163
129 6 4 mech
133 134 165 164
130 6 4 mech
134 135 166 165
131 6 4 mech
135 136 167 166
132 6 4 mech
136 137 168 167
133 6 4 mech
137 138 169 168
134 6 4 mech
138 139 170 169
135 6 4 mech
139 140 171 170
136 6 4 mech
140 141 172 171
137 6 4 mech
141 142 173 172
138 6 4 mech
142 143 174 173
139 6 4 mech
143 144 175 174
140 6 4 mech
144 145 176 175
141 6 4 mech
145 146 177 176
142 6 4 mech
146 147 178 177
143 6 4 mech
147 148 179 178
144 6 4 mech
148 149 180 179
145 6 4 mech
149 150 181 180
146 6 4 mech
150 151 182 181
147 6 4 mech
151 152 183 182
148 6 4 mech
152 153 184 183
149 6 4 mech
153 154 185 184
150 6 4 mech
154 155 186 185
151 6 4 mech
156 157 188 187
152 6 4 mech
157 158 189 188
153 6 4 mech
158 159 190 189
154 6 4 mech
159 160 191 190
155 6 4 mech
160 161 192 191
156 6 4 mech
161 162 193 192
157 6 4 mech
162 163 194 193
158 6 4 mech
163 164 195 194
159 6 4 mech
164 165 196 195
160 6 4 mech
165 166 197 196
161 6 4 mech
166 167 198 197
162 6 4 mech
167 168 199 198
163 6 4 mech
168 169 200 199
164 6 4 mech
169 170 201 200
165 6 4 mech
170 171 202 201
166 6 4 mech
171 172 203 202
167 6 4 mech
172 173 204 203
168 6 4 mech
173 174 205 204
169 6 4 mech
174 175 206 205
170 6 4 mech
175 176 207 206
171 6 4 mech
176 177 208 207
172 6 4 mech
177 178 209 208
173 6 4 mech
178 179 210 209
174 6 4 mech
179 180 211 210
175 6 4 mech
180 181 212 211
176 6 4 mech
181 182 213 212
177 6 4 mech
182 183 214 213
178 6 4 mech
183 184 215 214
179 6 4 mech
184 185 216 215
180 6 4 mech
185 186 217 216
181 6 4 mech
187 188 219 218
182 6 4 mech
188 189 220 219
183 6 4 mech
189 190 221 220
184 6 4 mech
190 191 222 221
185 6 4 mech
191 192 223 222
186 6 4 mech
192 193 224 223
187 6 4 mech
193 194 225 224
188 6 4 mech
194 195 226 225
189 6 4 mech
195 196 227 226
190 6 4 mech
196 197 228 227
191 6 4 mech
197 198 229 228
192 6 4 mech
198 199 230 229
193 6 4 mech
199 200 231 230
194 6 4 mech
200 201 232 231
195 6 4 mech
201 202 233 232
196 6 4 mech
202 203 234 233
197 6 4 mech
203 204 235 234
198 6 4 mech
204 205 236 235
199 6 4 mech
205 206 237 236
200 6 4 mech
206 207 238 237
201 6 4 mech
207 208 239 238
202 6 4 mech
208 209 240 239
203 6 4 mech
209 210 241 240
204 6 4 mech
210 211 242 241
205 6 4 mech
211 212 243 242
206 6 4 mech
212 213 244 243
207 6 4 mech
213 214 245 244
208 6 4 mech
214 215 246 245
209 6 4 mech
215 216 247 246
210 6 4 mech
216 217 248 247
211 6 4 mech
218 219 250 249
212 6 4 mech
219 220 251 250
213 6 4 mech
220 221 252 251
214 6 4 mech
221 222 253 252
215 6 4 mech
222 223 254 253
216 6 4 mech
223 224 255 254
217 6 4 mech
224 225 256 255
218 6 4 mech
225 226 257 256
219 6 4 mech
226 227 258 257
220 6 4 mech
227 228 259 258
221 6 4 mech
228 229 260 259
222 6 4 mech
229 230 261 260
223 6 4 mech
230 231 262 261
224 6 4 mech
231 232 263 262
225 6 4 mech
232 233 264 263
226 6 4 mech
233 234 265 264
227 6 4 mech
234 235 266 265
228 6 4 mech
235 236 267 266
229 6 4 mech
236 237 268 267
230 6 4 mech
237 238 269 268
231 6 4 mech
238 239 270 269
232 6 4 mech
239 240 271 270
233 6 4 mech
240 241 272 271
234 6 4 mech
241 242 273 272
235 6 4 mech
242 243 274 273
236 6 4 mech
243 244 275 274
237 6 4 mech
244 245 276 275
238 6 4 mech
245 246 277 276
239 6 4 mech
246 247 278 277
240 6 4 mech
247 248 279 278
241 6 4 mech
249 250 281 280
242 6 4 mech
250 251 282 281
243 6 4 mech
251 252 283 282
244 6 4 mech
252 253 284 283
245 6 4 mech
253 254 285 284
246 6 4 mech
254 255 286 285
247 6 4 mech
255 256 287 286
248 6 4 mech
256 257 288 287
249 6 4 mech
257 258 289 288
250 6 4 mech
258 259 290 289
251 6 4 mech
259 260 291 290
252 6 4 mech
260 261 292 291
253 6 4 mech
261 262 293 292
254 6 4 mech
262 263 294 293
255 6 4 mech
263 264 295 294
256 6 4 mech
264 265 296 295
257 6 4 mech
265 266 297 296
258 6 4 mech
266 267 298 297
259 6 4 mech
267 268 299 298
260 6 4 mech
268 269 300 299
261 6 4 mech
269 270 301 300
262 6 4 mech
270 271 302 301
263 6 4 mech
271 272 303 302
264 6 4 mech
272 273 304 303
265 6 4 mech
273 274 305 304
266 6 4 mech
274 275 306 305
267 6 4 mech
275 276 307 306
268 6 4 mech
276 277 308 307
269 6 4 mech
277 278 309 308
270 6 4 mech
278 279 310 309
271 6 4 mech
280 281 312 311
272 6 4 mech
281 282 313 312
273 6 4 mech
282 283 314 313
274 6 4 mech
283 284 315 314
275 6 4 mech
284 285 316 315
276 6 4 mech
285 286 317 316
277 6 4 mech
286 287 318 317
278 6 4 mech
287 288 319 318
279 6 4 mech
288 289 320 319
280 6 4 mech
289 290 321 320
281 6 4 mech
290 291 322 321
282 6 4 mech
291 292 323 322
283 6 4 mech
292 293 324 323
284 6 4 mech
293 294 325 324
285 6 4 mech
294 295 326 325
286 6 4 mech
295 296 327 326
287 6 4 mech
296 297 328 327
288 6 4 mech
297 298 329 328
289 6 4 mech
298 299 330 329
290 6 4 mech
299 300 331 330
291 6 4 mech
300 301 332 331
292 6 4 mech
301 302 333 332
293 6 4 mech
302 303 334 333
294 6 4 mech
303 304 335 334
295 6 4 mech
304 305 336 335
296 6 4 mech
305 306 337 336
297 6 4 mech
306 307 338 337
298 6 4 mech
307 308 339 338
299 6 4 mech
308 309 340 339
300 6 4 mech
309 310 341 340
301 6 4 mech
311 312 343 342
302 6 4 mech
312 313 344 343
303 6 4 mech
313 314 345 344
304 6 4 mech
314 315 346 345
305 6 4 mech
315 316 347 346
306 6 4 mech
316 317 348 347
307 6 4 mech
317 318 349 348
308 6 4 mech
318 319 350 349
309 6 4 mech
319 320 351 350
310 6 4 mech
320 321 352 351
311 6 4 mech
321 322 353 352
312 6 4 mech
322 323 354 353
313 6 4 mech
323 324 355 354
314 6 4 mech
324 325 356 355
315 6 4 mech
325 326 357 356
316 6 4 mech
326 327 358 357
317 6 4 mech
327 328 359 358
318 6 4 mech
328 329 360 359
319 6 4 mech
329 330 361 360
320 6 4 mech
330 331 362 361
321 6 4 mech
331 332 363 362
322 6 4 mech
332 333 364 363
323 6 4 mech
333 334 365 364
324 6 4 mech
334 335 366 365
325 6 4 mech
335 336 367 366
326 6 4 mech
336 337 368 367
327 6 4 mech
337 338 369 368
328 6 4 mech
338 339 370 369
329 6 4 mech
339 340 371 370
330 6 4 mech
340 341 372 371
331 6 4 mech
342 343 374 373
332 6 4 mech
343 344 375 374
333 6 4 mech
344 345 376 375
334 6 4 mech
345 346 377 376
335 6 4 mech
346 347 378 377
336 6 4 mech
347 348 379 378
337 6 4 mech
348 349 380 379
338 6 4 mech
349 350 381 380
339 6 4 mech
350 351 382 381
340 6 4 mech
351 352 383 382
341 6 4 mech
352 353 384 383
342 6 4 mech
353 354 385 384
343 6 4 mech
354 355 386 385
344 6 4 mech
355 356 387 386
345 6 4 mech
356 357 388 387
346 6 4 mech
357 358 389 388
347 6 4 mech
358 359 390 389
348 6 4 mech
359 360 391 390
349 6 4 mech
360 361 392 391
350 6 4 mech
361 362 393 392
351 6 4 mech
362 363 394 393
352 6 4 mech
363 364 395 394
353 6 4 mech
364 365 396 395
354 6 4 mech
365 366 397 396
355 6 4 mech
366 367 398 397
356 6 4 mech
367 368 399 398
357 6 4 mech
368 369 400 399
358 6 4 mech
369 370 401 400
359 6 4 mech
370 371 402 401
360 6 4 mech
371 372 403 402
361 6 4 mech
373 374 405 404
362 6 4 mech
374 375 406 405
363 6 4 mech
375 376 407 406
364 6 4 mech
376 377 408 407
365 6 4 mech
377 378 409 408
366 6 4 mech
378 379 410 409
367 6 4 mech
379 380 411 410
368 6 4 mech
380 381 412 411
369 6 4 mech
381 382 413 412
370 6 4 mech
382 383 414 413
371 6 4 mech
383 384 415 414
372 6 4 mech
384 385 416 415
373 6 4 mech
385 386 417 416
374 6 4 mech
386 387 418 417
375 6 4 mech
387 388 419 418
376 6 4 mech
388 389 420 419
377 6 4 mech
389 390 421 420
378 6 4 mech
390 391 422 421
379 6 4 mech
391 392 423 422
380 6 4 mech
392 393 424 423
381 6 4 mech
393 394 425 424
382 6 4 mech
394 395 426 425
383 6 4 mech
395 396 427 426
384 6 4 mech
396 397 428 427
385 6 4 mech
397 398 429 428
386 6 4 mech
398 399 430 429
387 6 4 mech
399 400 431 430
388 6 4 mech
400 401 432 431
389 6 4 mech
401 402 433 432
390 6 4 mech
402 403 434 433
391 6 4 mech
404 405 436 435
392 6 4 mech
405 406 437 436
393 6 4 mech
406 407 438 437
394 6 4 mech
407 408 439 438
395 6 4 mech
408 409 440 439
396 6 4 mech
409 410 441 440
397 6 4 mech
410 411 442 441
398 6 4 mech
411 412 443 442
399 6 4 mech
412 413 444 443
400 6 4 mech
413 414 445 444
401 6 4 mech
414 415 446 445
402 6 4 mech
415 416 447 446
403 6 4 mech
416 417 448 447
404 6 4 mech
417 418 449 448
405 6 4 mech
418 419 450 449
406 6 4 mech
419 420 451 450
407 6 4 mech
420 421 452 451
408 6 4 mech
421 422 453 452
409 6 4 mech
422 423 454 453
410 6 4 mech
423 424 455 454
411 6 4 mech
424 425 456 455
412 6 4 mech
425 426 457 456
413 6 4 mech
426 427 458 457
414 6 4 mech
427 428 459 458
415 6 4 mech
428 429 460 459
416 6 4 mech
429 430 461 460
417 6 4 mech
430 431 462 461
418 6 4 mech
431 432 463 462
419 6 4 mech
432 433 464 463
420 6 4 mech
433 434 465 464
421 6 4 mech
435 436 467 466
422 6 4 mech
436 437 468 467
423 6 4 mech
437 438 469 468
424 6 4 mech
438 439 470 469
425 6 4 mech
439 440 471 470
426 6 4 mech
440 441 472 471
427 6 4 mech
441 442 473 472
428 6 4 mech
442 443 474 473
429 6 4 mech
443 444 475 474
430 6 4 mech
444 445 476 475
431 6 4 mech
445 446 477 476
432 6 4 mech
446 447 478 477
433 6 4 mech
447 448 479 478
434 6 4 mech
448 449 480 479
435 6 4 mech
449 450 481 480
436 6 4 mech
450 451 482 481
437 6 4 mech
451 452 483 482
438 6 4 mech
452 453 484 483
439 6 4 mech
453 454 485 484
440 6 4 mech
454 455 486 485
441 6 4 mech
455 456 487 486
442 6 4 mech
456 457 488 487
443 6 4 mech
457 458 489 488
444 6 4 mech
458 459 490 489
445 6 4 mech
459 460 491 490
446 6 4 mech
460 461 492 491
447 6 4 mech
461 462 493 492
448 6 4 mech
462 463 494 493
449 6 4 mech
463 464 495 494
450 6 4 mech
464 465 496 495
451 6 4 mech
466 467 498 497
452 6 4 mech
467 468 499 498
453 6 4 mech
468 469 500 499
454 6 4 mech
469 470 501 500
455 6 4 mech
470 471 502 501
456 6 4 mech
471 472 503 502
457 6 4 mech
472 473 504 503
458 6 4 mech
473 474 505 504
459 6 4 mech
474 475 506 505
460 6 4 mech
475 476 507 506
461 6 4 mech
476 477 508 507
462 6 4 mech
477 478 509 508
463 6 4 mech
478 479 510 509
464 6 4 mech
479 480 511 510
465 6 4 mech
480 481 512 511
466 6 4 mech
481 482 513 512
467 6 4 mech
482 483 514 513
468 6 4 mech
483 484 515 514
469 6 4 mech
484 485 516 515
470 6 4 mech
485 486 517 516
471 6 4 mech
486 487 518 517
472 6 4 mech
487 488 519 518
473 6 4 mech
488 489 520 519
474 6 4 mech
489 490 521 520
475 6 4 mech
490 491 522 521
476 6 4 mech
491 492 523 522
477 6 4 mech
492 493 524 523
478 6 4 mech
493 494 525 524
479 6 4 mech
494 495 526 525
480 6 4 mech
495 496 527 526
481 6 4 mech
497 498 529 528
482 6 4 mech
498 499 530 529
483 6 4 mech
499 500 531 530
484 6 4 mech
500 501 532 531
485 6 4 mech
501 502 533 532
486 6 4 mech
502 503 534 533
487 6 4 mech
503 504 535 534
488 6 4 mech
504 505 536 535
489 6 4 mech
505 506 537 536
490 6 4 mech
506 507 538 537
491 6 4 mech
507 508 539 538
492 6 4 mech
508 509 540 539
493 6 4 mech
509 510 541 540
494 6 4 mech
510 511 542 541
495 6 4 mech
511 512 543 542
496 6 4 mech
512 513 544 543
497 6 4 mech
513 514 545 544
498 6 4 mech
514 515 546 545
499 6 4 mech
515 516 547 546
500 6 4 mech
516 517 548 547
501 6 4 mech
517 518 549 548
502 6 4 mech
518 519 550 549
503 6 4 mech
519 520 551 550
504 6 4 mech
520 521 552 551
505 6 4 mech
521 522 553 552
506 6 4 mech
522 523 554 553
507 6 4 mech
523 524 555 554
508 6 4 mech
524 525 556 555
509 6 4 mech
525 526 557 556
510 6 4 mech
526 527 558 557
511 6 4 mech
528 529 560 559
512 6 4 mech
529 530 561 560
513 6 4 mech
530 531 562 561
514 6 4 mech
531 532 563 562
515 6 4 mech
532 533 564 563
516 6 4 mech
533 534 565 564
517 6 4 mech
534 535 566 565
518 6 4 mech
535 536 567 566
519 6 4 mech
536 537 568 567
520 6 4 mech
537 538 569 568
521 6 4 mech
538 539 570 569
522 6 4 mech
539 540 571 570
523 6 4 mech
540 541 572 571
524 6 4 mech
541 542 573 572
525 6 4 mech
542 543 574 573
526 6 4 mech
543 544 575 574
527 6 4 mech
544 545 576 575
528 6 4 mech
545 546 577 576
529 6 4 mech
546 547 578 577
530 6 4 mech
547 548 579 578
531 6 4 mech
548 549 580 579
532 6 4 mech
549 550 581 580
533 6 4 mech
550 551 582 581
534 6 4 mech
551 552 583 582
535 6 4 mech
552 553 584 583
536 6 4 mech
553 554 585 584
537 6 4 mech
554 555 586 585
538 6 4 mech
555 556 587 586
539 6 4 mech
556 557 588 587
540 6 4 mech
557 558 589 588
541 6 4 mech
559 560 591 590
542 6 4 mech
560 561 592 591
543 6 4 mech
561 562 593 592
544 6 4 mech
562 563 594 593
545 6 4 mech
563 564 595 594
546 6 4 mech
564 565 596 595
547 6 4 mech
565 566 597 596
548 6 4 mech
566 567 598 597
549 6 4 mech
567 568 599 598
550 6 4 mech
568 569 600 599
551 6 4 mech
569 570 601 600
552 6 4 mech
570 571 602 601
553 6 4 mech
571 572 603 602
554 6 4 mech
572 573 604 603
555 6 4 mech
573 574 605 604
556 6 4 mech
574 575 606 605
557 6 4 mech
575 576 607 606
558 6 4 mech
576 577 608 607
559 6 4 mech
577 578 609 608
560 6 4 mech
578 579 610 609
561 6 4 mech
579 580 611 610
562 6 4 mech
580 581 612 611
563 6 4 mech
581 582 613 612
564 6 4 mech
582 583 614 613
565 6 4 mech
583 584 615 614
566 6 4 mech
584 585 616 615
567 6 4 mech
585 586 617 616
568 6 4 mech
586 587 618 617
569 6 4 mech
587 588 619 618
570 6 4 mech
588 589 620 619
571 6 4 mech
590 591 622 621
572 6 4 mech
591 592 623 622
573 6 4 mech
592 593 624 623
574 6 4 mech
593 594 625 624
575 6 4 mech
594 595 626 625
576 6 4 mech
595 596 627 626
577 6 4 mech
596 597 628 627
578 6 4 mech
597 598 629 628
579 6 4 mech
598 599 630 629
580 6 4 mech
599 600 631 630
581 6 4 mech
600 601 632 631
582 6 4 mech
601 602 633 632
583 6 4 mech
602 603 634 633
584 6 4 mech
603 604 635 634
585 6 4 mech
604 605 636 635
586 6 4 mech
605 606 637 636
587 6 4 mech
606 607 638 637
588 6 4 mech
607 608 639 638
589 6 4 mech
608 609 640 639
590 6 4 mech
609 610 641 640
591 6 4 mech
610 611 642 641
592 6 4 mech
611 612 643 642
593 6 4 mech
612 613 644 643
594 6 4 mech
613 614 645 644
595 6 4 mech
614 615 646 645
596 6 4 mech
615 616 647 646
597 6 4 mech
616 617 648 647
598 6 4 mech
617 618 649 648
599 6 4 mech
618 619 650 649
600 6 4 mech
619 620 651 650

[3D Elements]
#ElemNr  ElemType  NrOfNodes  Level
#Node1 Node2 ... NodeNrOfNodes

[Node BC]
#NodeNr Level
1 south
2 south
3 south
4 south
5 south
6 south
7 south
8 south
9 south
10 south
11 south
12 south
13 south
14 south
15 south
16 south
17 south
18 south
19 south
20 south
21 south
22 south
23 south
24 south
25 south
26 south
27 south
28 south
29 south
30 south
31 south
621 north
622 north
623 north
624 north
625 north
626 north
627 north
628 north
629 north
630 north
631 north
632 north
633 north
634 north
635 north
636 north
637 north
638 north
639 north
640 north
641 north
642 north
643 north
644 north
645 north
646 north
647 north
648 north
649 north
650 north
651 north
1 west
32 west
63 west
94 west
125 west
156 west
187 west
218 west
249 west
280 west
311 west
342 west
373 west
404 west
435 west
466 west
497 west
528 west
559 west
590 west
621 west
31 east
62 east
93 east
124 east
155 east
186 east
217 east
248 east
279 east
310 east
341 east
372 east
403 east
434 east
465 east
496 east
527 east
558 east
589 east
620 east
651 east
1 left_lower
31 right_lower
621 left_upper
651 right_upper

[Save Nodes]
#NodeNr Level

[Save Elements]
#ElemNr Level

 
