[Info]
Version 1
Dimension 2
NumNodes 156
Num3DElements 0
Num2DElements 125
Num1DElements 60
NumNodeBC 1
NumSaveNodes 0
NumSaveElements 0
Num 2d-line      : 60
Num 2d-line,quad : 0
Num 3d-line      : 0
Num 3d-line,quad : 0
Num triangle     : 0
Num triangle,quad: 0
Num quadr        : 125
Num quadr,quad   : 0
Num tetra        : 0
Num tetra,quad   : 0
Num brick        : 0
Num brick,quad   : 0
Num pyramid      : 0
Num pyramid,quad : 0
Num wedge        : 0
Num wedge,quad   : 0

[Nodes]
#NodeNr x-coord y-coord z-coord
       1  0.0000000000000e+00  0.0000000000000e+00  0.0000000000000e+00
       2  1.0000000000000e-01  0.0000000000000e+00  0.0000000000000e+00
       3  4.0000000000000e-03  0.0000000000000e+00  0.0000000000000e+00
       4  8.0000000000000e-03  0.0000000000000e+00  0.0000000000000e+00
       5  1.2000000000000e-02  0.0000000000000e+00  0.0000000000000e+00
       6  1.6000000000000e-02  0.0000000000000e+00  0.0000000000000e+00
       7  2.0000000000000e-02  0.0000000000000e+00  0.0000000000000e+00
       8  2.4000000000000e-02  0.0000000000000e+00  0.0000000000000e+00
       9  2.8000000000000e-02  0.0000000000000e+00  0.0000000000000e+00
      10  3.2000000000000e-02  0.0000000000000e+00  0.0000000000000e+00
      11  3.6000000000000e-02  0.0000000000000e+00  0.0000000000000e+00
      12  4.0000000000000e-02  0.0000000000000e+00  0.0000000000000e+00
      13  4.4000000000000e-02  0.0000000000000e+00  0.0000000000000e+00
      14  4.8000000000000e-02  0.0000000000000e+00  0.0000000000000e+00
      15  5.2000000000000e-02  0.0000000000000e+00  0.0000000000000e+00
      16  5.6000000000000e-02  0.0000000000000e+00  0.0000000000000e+00
      17  6.0000000000000e-02  0.0000000000000e+00  0.0000000000000e+00
      18  6.4000000000000e-02  0.0000000000000e+00  0.0000000000000e+00
      19  6.8000000000000e-02  0.0000000000000e+00  0.0000000000000e+00
      20  7.2000000000000e-02  0.0000000000000e+00  0.0000000000000e+00
      21  7.6000000000000e-02  0.0000000000000e+00  0.0000000000000e+00
      22  8.0000000000000e-02  0.0000000000000e+00  0.0000000000000e+00
      23  8.4000000000000e-02  0.0000000000000e+00  0.0000000000000e+00
      24  8.8000000000000e-02  0.0000000000000e+00  0.0000000000000e+00
      25  9.2000000000000e-02  0.0000000000000e+00  0.0000000000000e+00
      26  9.6000000000000e-02  0.0000000000000e+00  0.0000000000000e+00
      27  1.0000000000000e-01  8.0000000000000e-03  0.0000000000000e+00
      28  1.0000000000000e-01  4.0000000000000e-03  0.0000000000000e+00
      29  0.0000000000000e+00  8.0000000000000e-03  0.0000000000000e+00
      30  9.6000000000000e-02  8.0000000000000e-03  0.0000000000000e+00
      31  9.2000000000000e-02  8.0000000000000e-03  0.0000000000000e+00
      32  8.8000000000000e-02  8.0000000000000e-03  0.0000000000000e+00
      33  8.4000000000000e-02  8.0000000000000e-03  0.0000000000000e+00
      34  8.0000000000000e-02  8.0000000000000e-03  0.0000000000000e+00
      35  7.6000000000000e-02  8.0000000000000e-03  0.0000000000000e+00
      36  7.2000000000000e-02  8.0000000000000e-03  0.0000000000000e+00
      37  6.8000000000000e-02  8.0000000000000e-03  0.0000000000000e+00
      38  6.4000000000000e-02  8.0000000000000e-03  0.0000000000000e+00
      39  6.0000000000000e-02  8.0000000000000e-03  0.0000000000000e+00
      40  5.6000000000000e-02  8.0000000000000e-03  0.0000000000000e+00
      41  5.2000000000000e-02  8.0000000000000e-03  0.0000000000000e+00
      42  4.8000000000000e-02  8.0000000000000e-03  0.0000000000000e+00
      43  4.4000000000000e-02  8.0000000000000e-03  0.0000000000000e+00
      44  4.0000000000000e-02  8.0000000000000e-03  0.0000000000000e+00
      45  3.6000000000000e-02  8.0000000000000e-03  0.0000000000000e+00
      46  3.2000000000000e-02  8.0000000000000e-03  0.0000000000000e+00
      47  2.8000000000000e-02  8.0000000000000e-03  0.0000000000000e+00
      48  2.4000000000000e-02  8.0000000000000e-03  0.0000000000000e+00
      49  2.0000000000000e-02  8.0000000000000e-03  0.0000000000000e+00
      50  1.6000000000000e-02  8.0000000000000e-03  0.0000000000000e+00
      51  1.2000000000000e-02  8.0000000000000e-03  0.0000000000000e+00
      52  8.0000000000000e-03  8.0000000000000e-03  0.0000000000000e+00
      53  4.0000000000000e-03  8.0000000000000e-03  0.0000000000000e+00
      54  0.0000000000000e+00  4.0000000000000e-03  0.0000000000000e+00
      55  4.0000000000000e-03  4.0000000000000e-03  0.0000000000000e+00
      56  8.0000000000000e-03  4.0000000000000e-03  0.0000000000000e+00
      57  1.2000000000000e-02  4.0000000000000e-03  0.0000000000000e+00
      58  1.6000000000000e-02  4.0000000000000e-03  0.0000000000000e+00
      59  2.0000000000000e-02  4.0000000000000e-03  0.0000000000000e+00
      60  2.4000000000000e-02  4.0000000000000e-03  0.0000000000000e+00
      61  2.8000000000000e-02  4.0000000000000e-03  0.0000000000000e+00
      62  3.2000000000000e-02  4.0000000000000e-03  0.0000000000000e+00
      63  3.6000000000000e-02  4.0000000000000e-03  0.0000000000000e+00
      64  4.0000000000000e-02  4.0000000000000e-03  0.0000000000000e+00
      65  4.4000000000000e-02  4.0000000000000e-03  0.0000000000000e+00
      66  4.8000000000000e-02  4.0000000000000e-03  0.0000000000000e+00
      67  5.2000000000000e-02  4.0000000000000e-03  0.0000000000000e+00
      68  5.6000000000000e-02  4.0000000000000e-03  0.0000000000000e+00
      69  6.0000000000000e-02  4.0000000000000e-03  0.0000000000000e+00
      70  6.4000000000000e-02  4.0000000000000e-03  0.0000000000000e+00
      71  6.8000000000000e-02  4.0000000000000e-03  0.0000000000000e+00
      72  7.2000000000000e-02  4.0000000000000e-03  0.0000000000000e+00
      73  7.6000000000000e-02  4.0000000000000e-03  0.0000000000000e+00
      74  8.0000000000000e-02  4.0000000000000e-03  0.0000000000000e+00
      75  8.4000000000000e-02  4.0000000000000e-03  0.0000000000000e+00
      76  8.8000000000000e-02  4.0000000000000e-03  0.0000000000000e+00
      77  9.2000000000000e-02  4.0000000000000e-03  0.0000000000000e+00
      78  9.6000000000000e-02  4.0000000000000e-03  0.0000000000000e+00
      79  1.0000000000000e-01  1.0000000000000e-02  0.0000000000000e+00
      80  0.0000000000000e+00  1.0000000000000e-02  0.0000000000000e+00
      81  9.6000000000000e-02  1.0000000000000e-02  0.0000000000000e+00
      82  9.2000000000000e-02  1.0000000000000e-02  0.0000000000000e+00
      83  8.8000000000000e-02  1.0000000000000e-02  0.0000000000000e+00
      84  8.4000000000000e-02  1.0000000000000e-02  0.0000000000000e+00
      85  8.0000000000000e-02  1.0000000000000e-02  0.0000000000000e+00
      86  7.6000000000000e-02  1.0000000000000e-02  0.0000000000000e+00
      87  7.2000000000000e-02  1.0000000000000e-02  0.0000000000000e+00
      88  6.8000000000000e-02  1.0000000000000e-02  0.0000000000000e+00
      89  6.4000000000000e-02  1.0000000000000e-02  0.0000000000000e+00
      90  6.0000000000000e-02  1.0000000000000e-02  0.0000000000000e+00
      91  5.6000000000000e-02  1.0000000000000e-02  0.0000000000000e+00
      92  5.2000000000000e-02  1.0000000000000e-02  0.0000000000000e+00
      93  4.8000000000000e-02  1.0000000000000e-02  0.0000000000000e+00
      94  4.4000000000000e-02  1.0000000000000e-02  0.0000000000000e+00
      95  4.0000000000000e-02  1.0000000000000e-02  0.0000000000000e+00
      96  3.6000000000000e-02  1.0000000000000e-02  0.0000000000000e+00
      97  3.2000000000000e-02  1.0000000000000e-02  0.0000000000000e+00
      98  2.8000000000000e-02  1.0000000000000e-02  0.0000000000000e+00
      99  2.4000000000000e-02  1.0000000000000e-02  0.0000000000000e+00
     100  2.0000000000000e-02  1.0000000000000e-02  0.0000000000000e+00
     101  1.6000000000000e-02  1.0000000000000e-02  0.0000000000000e+00
     102  1.2000000000000e-02  1.0000000000000e-02  0.0000000000000e+00
     103  8.0000000000000e-03  1.0000000000000e-02  0.0000000000000e+00
     104  4.0000000000000e-03  1.0000000000000e-02  0.0000000000000e+00
     105  1.0000000000000e-01  1.8000000000000e-02  0.0000000000000e+00
     106  1.0000000000000e-01  1.4000000000000e-02  0.0000000000000e+00
     107  0.0000000000000e+00  1.8000000000000e-02  0.0000000000000e+00
     108  9.6000000000000e-02  1.8000000000000e-02  0.0000000000000e+00
     109  9.2000000000000e-02  1.8000000000000e-02  0.0000000000000e+00
     110  8.8000000000000e-02  1.8000000000000e-02  0.0000000000000e+00
     111  8.4000000000000e-02  1.8000000000000e-02  0.0000000000000e+00
     112  8.0000000000000e-02  1.8000000000000e-02  0.0000000000000e+00
     113  7.6000000000000e-02  1.8000000000000e-02  0.0000000000000e+00
     114  7.2000000000000e-02  1.8000000000000e-02  0.0000000000000e+00
     115  6.8000000000000e-02  1.8000000000000e-02  0.0000000000000e+00
     116  6.4000000000000e-02  1.8000000000000e-02  0.0000000000000e+00
     117  6.0000000000000e-02  1.8000000000000e-02  0.0000000000000e+00
     118  5.6000000000000e-02  1.8000000000000e-02  0.0000000000000e+00
     119  5.2000000000000e-02  1.8000000000000e-02  0.0000000000000e+00
     120  4.8000000000000e-02  1.8000000000000e-02  0.0000000000000e+00
     121  4.4000000000000e-02  1.8000000000000e-02  0.0000000000000e+00
     122  4.0000000000000e-02  1.8000000000000e-02  0.0000000000000e+00
     123  3.6000000000000e-02  1.8000000000000e-02  0.0000000000000e+00
     124  3.2000000000000e-02  1.8000000000000e-02  0.0000000000000e+00
     125  2.8000000000000e-02  1.8000000000000e-02  0.0000000000000e+00
     126  2.4000000000000e-02  1.8000000000000e-02  0.0000000000000e+00
     127  2.0000000000000e-02  1.8000000000000e-02  0.0000000000000e+00
     128  1.6000000000000e-02  1.8000000000000e-02  0.0000000000000e+00
     129  1.2000000000000e-02  1.8000000000000e-02  0.0000000000000e+00
     130  8.0000000000000e-03  1.8000000000000e-02  0.0000000000000e+00
     131  4.0000000000000e-03  1.8000000000000e-02  0.0000000000000e+00
     132  0.0000000000000e+00  1.4000000000000e-02  0.0000000000000e+00
     133  4.0000000000000e-03  1.4000000000000e-02  0.0000000000000e+00
     134  8.0000000000000e-03  1.4000000000000e-02  0.0000000000000e+00
     135  1.2000000000000e-02  1.4000000000000e-02  0.0000000000000e+00
     136  1.6000000000000e-02  1.4000000000000e-02  0.0000000000000e+00
     137  2.0000000000000e-02  1.4000000000000e-02  0.0000000000000e+00
     138  2.4000000000000e-02  1.4000000000000e-02  0.0000000000000e+00
     139  2.8000000000000e-02  1.4000000000000e-02  0.0000000000000e+00
     140  3.2000000000000e-02  1.4000000000000e-02  0.0000000000000e+00
     141  3.6000000000000e-02  1.4000000000000e-02  0.0000000000000e+00
     142  4.0000000000000e-02  1.4000000000000e-02  0.0000000000000e+00
     143  4.4000000000000e-02  1.4000000000000e-02  0.0000000000000e+00
     144  4.8000000000000e-02  1.4000000000000e-02  0.0000000000000e+00
     145  5.2000000000000e-02  1.4000000000000e-02  0.0000000000000e+00
     146  5.6000000000000e-02  1.4000000000000e-02  0.0000000000000e+00
     147  6.0000000000000e-02  1.4000000000000e-02  0.0000000000000e+00
     148  6.4000000000000e-02  1.4000000000000e-02  0.0000000000000e+00
     149  6.8000000000000e-02  1.4000000000000e-02  0.0000000000000e+00
     150  7.2000000000000e-02  1.4000000000000e-02  0.0000000000000e+00
     151  7.6000000000000e-02  1.4000000000000e-02  0.0000000000000e+00
     152  8.0000000000000e-02  1.4000000000000e-02  0.0000000000000e+00
     153  8.4000000000000e-02  1.4000000000000e-02  0.0000000000000e+00
     154  8.8000000000000e-02  1.4000000000000e-02  0.0000000000000e+00
     155  9.2000000000000e-02  1.4000000000000e-02  0.0000000000000e+00
     156  9.6000000000000e-02  1.4000000000000e-02  0.0000000000000e+00

[3D Elements]
#ElemNr  ElemType  NrOfNodes  Level
#Node1 Node2 ... NodeNrOfNodes

[2D Elements]
#ElemNr  ElemType  NrOfNodes  Level
#Node1 Node2 ... NodeNrOfNodes
1 6 4 skin
1 3 55 54
2 6 4 skin
3 4 56 55
3 6 4 skin
4 5 57 56
4 6 4 skin
5 6 58 57
5 6 4 skin
6 7 59 58
6 6 4 skin
7 8 60 59
7 6 4 skin
8 9 61 60
8 6 4 skin
9 10 62 61
9 6 4 skin
10 11 63 62
10 6 4 skin
11 12 64 63
11 6 4 skin
12 13 65 64
12 6 4 skin
13 14 66 65
13 6 4 skin
14 15 67 66
14 6 4 skin
15 16 68 67
15 6 4 skin
16 17 69 68
16 6 4 skin
17 18 70 69
17 6 4 skin
18 19 71 70
18 6 4 skin
19 20 72 71
19 6 4 skin
20 21 73 72
20 6 4 skin
21 22 74 73
21 6 4 skin
22 23 75 74
22 6 4 skin
23 24 76 75
23 6 4 skin
24 25 77 76
24 6 4 skin
25 26 78 77
25 6 4 skin
26 2 28 78
26 6 4 skin
54 55 53 29
27 6 4 skin
55 56 52 53
28 6 4 skin
56 57 51 52
29 6 4 skin
57 58 50 51
30 6 4 skin
58 59 49 50
31 6 4 skin
59 60 48 49
32 6 4 skin
60 61 47 48
33 6 4 skin
61 62 46 47
34 6 4 skin
62 63 45 46
35 6 4 skin
63 64 44 45
36 6 4 skin
64 65 43 44
37 6 4 skin
65 66 42 43
38 6 4 skin
66 67 41 42
39 6 4 skin
67 68 40 41
40 6 4 skin
68 69 39 40
41 6 4 skin
69 70 38 39
42 6 4 skin
70 71 37 38
43 6 4 skin
71 72 36 37
44 6 4 skin
72 73 35 36
45 6 4 skin
73 74 34 35
46 6 4 skin
74 75 33 34
47 6 4 skin
75 76 32 33
48 6 4 skin
76 77 31 32
49 6 4 skin
77 78 30 31
50 6 4 skin
78 28 27 30
76 6 4 skin
80 104 133 132
77 6 4 skin
104 103 134 133
78 6 4 skin
103 102 135 134
79 6 4 skin
102 101 136 135
80 6 4 skin
101 100 137 136
81 6 4 skin
100 99 138 137
82 6 4 skin
99 98 139 138
83 6 4 skin
98 97 140 139
84 6 4 skin
97 96 141 140
85 6 4 skin
96 95 142 141
86 6 4 skin
95 94 143 142
87 6 4 skin
94 93 144 143
88 6 4 skin
93 92 145 144
89 6 4 skin
92 91 146 145
90 6 4 skin
91 90 147 146
91 6 4 skin
90 89 148 147
92 6 4 skin
89 88 149 148
93 6 4 skin
88 87 150 149
94 6 4 skin
87 86 151 150
95 6 4 skin
86 85 152 151
96 6 4 skin
85 84 153 152
97 6 4 skin
84 83 154 153
98 6 4 skin
83 82 155 154
99 6 4 skin
82 81 156 155
100 6 4 skin
81 79 106 156
101 6 4 skin
132 133 131 107
102 6 4 skin
133 134 130 131
103 6 4 skin
134 135 129 130
104 6 4 skin
135 136 128 129
105 6 4 skin
136 137 127 128
106 6 4 skin
137 138 126 127
107 6 4 skin
138 139 125 126
108 6 4 skin
139 140 124 125
109 6 4 skin
140 141 123 124
110 6 4 skin
141 142 122 123
111 6 4 skin
142 143 121 122
112 6 4 skin
143 144 120 121
113 6 4 skin
144 145 119 120
114 6 4 skin
145 146 118 119
115 6 4 skin
146 147 117 118
116 6 4 skin
147 148 116 117
117 6 4 skin
148 149 115 116
118 6 4 skin
149 150 114 115
119 6 4 skin
150 151 113 114
120 6 4 skin
151 152 112 113
121 6 4 skin
152 153 111 112
122 6 4 skin
153 154 110 111
123 6 4 skin
154 155 109 110
124 6 4 skin
155 156 108 109
125 6 4 skin
156 106 105 108
51 6 4 core
29 53 104 80
52 6 4 core
53 52 103 104
53 6 4 core
52 51 102 103
54 6 4 core
51 50 101 102
55 6 4 core
50 49 100 101
56 6 4 core
49 48 99 100
57 6 4 core
48 47 98 99
58 6 4 core
47 46 97 98
59 6 4 core
46 45 96 97
60 6 4 core
45 44 95 96
61 6 4 core
44 43 94 95
62 6 4 core
43 42 93 94
63 6 4 core
42 41 92 93
64 6 4 core
41 40 91 92
65 6 4 core
40 39 90 91
66 6 4 core
39 38 89 90
67 6 4 core
38 37 88 89
68 6 4 core
37 36 87 88
69 6 4 core
36 35 86 87
70 6 4 core
35 34 85 86
71 6 4 core
34 33 84 85
72 6 4 core
33 32 83 84
73 6 4 core
32 31 82 83
74 6 4 core
31 30 81 82
75 6 4 core
30 27 79 81

[1D Elements]
#ElemNr  ElemType  NrOfNodes  Level
#Node1 Node2 ... NodeNrOfNodes
153 100 2 left
29 54
154 100 2 left
54 1
181 100 2 left
29 80
184 100 2 left
80 132
185 100 2 left
132 107
126 100 2 right
2 28
127 100 2 right
28 27
180 100 2 right
27 79
182 100 2 right
79 106
183 100 2 right
106 105
155 100 2 piezo-top
79 81
156 100 2 piezo-top
81 82
157 100 2 piezo-top
82 83
158 100 2 piezo-top
83 84
159 100 2 piezo-top
84 85
160 100 2 piezo-top
85 86
161 100 2 piezo-top
86 87
162 100 2 piezo-top
87 88
163 100 2 piezo-top
88 89
164 100 2 piezo-top
89 90
165 100 2 piezo-top
90 91
166 100 2 piezo-top
91 92
167 100 2 piezo-top
92 93
168 100 2 piezo-top
93 94
169 100 2 piezo-top
94 95
170 100 2 piezo-top
95 96
171 100 2 piezo-top
96 97
172 100 2 piezo-top
97 98
173 100 2 piezo-top
98 99
174 100 2 piezo-top
99 100
175 100 2 piezo-top
100 101
176 100 2 piezo-top
101 102
177 100 2 piezo-top
102 103
178 100 2 piezo-top
103 104
179 100 2 piezo-top
104 80
128 100 2 piezo-bot
27 30
129 100 2 piezo-bot
30 31
130 100 2 piezo-bot
31 32
131 100 2 piezo-bot
32 33
132 100 2 piezo-bot
33 34
133 100 2 piezo-bot
34 35
134 100 2 piezo-bot
35 36
135 100 2 piezo-bot
36 37
136 100 2 piezo-bot
37 38
137 100 2 piezo-bot
38 39
138 100 2 piezo-bot
39 40
139 100 2 piezo-bot
40 41
140 100 2 piezo-bot
41 42
141 100 2 piezo-bot
42 43
142 100 2 piezo-bot
43 44
143 100 2 piezo-bot
44 45
144 100 2 piezo-bot
45 46
145 100 2 piezo-bot
46 47
146 100 2 piezo-bot
47 48
147 100 2 piezo-bot
48 49
148 100 2 piezo-bot
49 50
149 100 2 piezo-bot
50 51
150 100 2 piezo-bot
51 52
151 100 2 piezo-bot
52 53
152 100 2 piezo-bot
53 29

[Node BC]
#NodeNr Level
     105 hist

[Save Nodes]
#NodeNr Level

[Save Elements]
#ElemNr Level

