$MeshFormat
2.2 0 8
$EndMeshFormat
$PhysicalNames
6
1 3 "wall"
1 4 "free"
1 5 "fix"
1 6 "cplsurf"
2 1 "cantilever"
2 2 "water"
$EndPhysicalNames
$Nodes
899
1 0 0 0
2 0.12 0 0
3 0.22 0 0
4 0 0.1 0
5 0.12 0.1 0
6 0.22 0.1 0
7 0 0.103 0
8 0.12 0.103 0
9 0.22 0.103 0
10 0 0.203 0
11 0.12 0.203 0
12 0.22 0.203 0
13 0.01499999999996998 0 0
14 0.02999999999992385 0 0
15 0.04499999999987671 0 0
16 0.05999999999983228 0 0
17 0.07499999999987726 0 0
18 0.08999999999991819 0 0
19 0.1049999999999591 0 0
20 0.007499999999982389 0 0
21 0.02249999999994651 0 0
22 0.0374999999998926 0 0
23 0.05249999999985044 0 0
24 0.06749999999985598 0 0
25 0.08249999999989772 0 0
26 0.09749999999994184 0 0
27 0.1124999999999822 0 0
28 0.1366666666666305 0 0
29 0.1533333333332393 0 0
30 0.1699999999998644 0 0
31 0.1866666666665744 0 0
32 0.2033333333332917 0 0
33 0.1283333333333172 0 0
34 0.1449999999999349 0 0
35 0.1616666666665519 0 0
36 0.1783333333331887 0 0
37 0.1949999999999619 0 0
38 0.2116666666666476 0 0
39 0.01499999999996998 0.1 0
40 0.02999999999992385 0.1 0
41 0.04499999999987671 0.1 0
42 0.05999999999983228 0.1 0
43 0.07499999999987726 0.1 0
44 0.08999999999991819 0.1 0
45 0.1049999999999591 0.1 0
46 0.007499999999982389 0.1 0
47 0.02249999999994651 0.1 0
48 0.0374999999998926 0.1 0
49 0.05249999999985044 0.1 0
50 0.06749999999985598 0.1 0
51 0.08249999999989772 0.1 0
52 0.09749999999994184 0.1 0
53 0.1124999999999822 0.1 0
54 0.1366666666666305 0.1 0
55 0.1533333333332393 0.1 0
56 0.1699999999998644 0.1 0
57 0.1866666666665744 0.1 0
58 0.2033333333332917 0.1 0
59 0.1283333333333172 0.1 0
60 0.1449999999999349 0.1 0
61 0.1616666666665519 0.1 0
62 0.1783333333331887 0.1 0
63 0.1949999999999619 0.1 0
64 0.2116666666666476 0.1 0
65 0.01499999999996998 0.103 0
66 0.02999999999992385 0.103 0
67 0.04499999999987671 0.103 0
68 0.05999999999983228 0.103 0
69 0.07499999999987726 0.103 0
70 0.08999999999991819 0.103 0
71 0.1049999999999591 0.103 0
72 0.007499999999982389 0.103 0
73 0.02249999999994651 0.103 0
74 0.0374999999998926 0.103 0
75 0.05249999999985044 0.103 0
76 0.06749999999985598 0.103 0
77 0.08249999999989772 0.103 0
78 0.09749999999994184 0.103 0
79 0.1124999999999822 0.103 0
80 0.1366666666666305 0.103 0
81 0.1533333333332393 0.103 0
82 0.1699999999998644 0.103 0
83 0.1866666666665744 0.103 0
84 0.2033333333332917 0.103 0
85 0.1283333333333172 0.103 0
86 0.1449999999999349 0.103 0
87 0.1616666666665519 0.103 0
88 0.1783333333331887 0.103 0
89 0.1949999999999619 0.103 0
90 0.2116666666666476 0.103 0
91 0.01499999999996998 0.203 0
92 0.02999999999992385 0.203 0
93 0.04499999999987671 0.203 0
94 0.05999999999983228 0.203 0
95 0.07499999999987726 0.203 0
96 0.08999999999991819 0.203 0
97 0.1049999999999591 0.203 0
98 0.007499999999982389 0.203 0
99 0.02249999999994651 0.203 0
100 0.0374999999998926 0.203 0
101 0.05249999999985044 0.203 0
102 0.06749999999985598 0.203 0
103 0.08249999999989772 0.203 0
104 0.09749999999994184 0.203 0
105 0.1124999999999822 0.203 0
106 0.1366666666666305 0.203 0
107 0.1533333333332393 0.203 0
108 0.1699999999998644 0.203 0
109 0.1866666666665744 0.203 0
110 0.2033333333332917 0.203 0
111 0.1283333333333172 0.203 0
112 0.1449999999999349 0.203 0
113 0.1616666666665519 0.203 0
114 0.1783333333331887 0.203 0
115 0.1949999999999619 0.203 0
116 0.2116666666666476 0.203 0
117 0 0.01428571428568806 0
118 0 0.02857142857135998 0
119 0 0.04285714285703055 0
120 0 0.05714285714274369 0
121 0 0.07142857142849593 0
122 0 0.08571428571424659 0
123 0 0.007142857142843066 0
124 0 0.02142857142852402 0
125 0 0.03571428571419526 0
126 0 0.04999999999986809 0
127 0 0.06428571428562647 0
128 0 0.07857142857137668 0
129 0 0.09285714285712798 0
130 0 0.1015 0
131 0 0.1172857142856756 0
132 0 0.1315714285713511 0
133 0 0.1458571428570266 0
134 0 0.1601428571427355 0
135 0 0.1744285714284885 0
136 0 0.1887142857142469 0
137 0 0.1101428571428468 0
138 0 0.1244285714285133 0
139 0 0.1387142857141888 0
140 0 0.152999999999869 0
141 0 0.1672857142856329 0
142 0 0.1815714285713923 0
143 0 0.1958571428571446 0
144 0.12 0.01428571428568806 0
145 0.12 0.02857142857135998 0
146 0.12 0.04285714285703055 0
147 0.12 0.05714285714274369 0
148 0.12 0.07142857142849593 0
149 0.12 0.08571428571424659 0
150 0.12 0.007142857142843066 0
151 0.12 0.02142857142852402 0
152 0.12 0.03571428571419526 0
153 0.12 0.04999999999986809 0
154 0.12 0.06428571428562647 0
155 0.12 0.07857142857137668 0
156 0.12 0.09285714285712798 0
157 0.12 0.1015 0
158 0.12 0.1172857142856756 0
159 0.12 0.1315714285713511 0
160 0.12 0.1458571428570266 0
161 0.12 0.1601428571427355 0
162 0.12 0.1744285714284885 0
163 0.12 0.1887142857142469 0
164 0.12 0.1101428571428468 0
165 0.12 0.1244285714285133 0
166 0.12 0.1387142857141888 0
167 0.12 0.152999999999869 0
168 0.12 0.1672857142856329 0
169 0.12 0.1815714285713923 0
170 0.12 0.1958571428571446 0
171 0.22 0.01428571428568806 0
172 0.22 0.02857142857135998 0
173 0.22 0.04285714285703055 0
174 0.22 0.05714285714274369 0
175 0.22 0.07142857142849593 0
176 0.22 0.08571428571424659 0
177 0.22 0.007142857142843066 0
178 0.22 0.02142857142852402 0
179 0.22 0.03571428571419526 0
180 0.22 0.04999999999986809 0
181 0.22 0.06428571428562647 0
182 0.22 0.07857142857137668 0
183 0.22 0.09285714285712798 0
184 0.22 0.1015 0
185 0.22 0.1172857142856756 0
186 0.22 0.1315714285713511 0
187 0.22 0.1458571428570266 0
188 0.22 0.1601428571427355 0
189 0.22 0.1744285714284885 0
190 0.22 0.1887142857142469 0
191 0.22 0.1101428571428468 0
192 0.22 0.1244285714285133 0
193 0.22 0.1387142857141888 0
194 0.22 0.152999999999869 0
195 0.22 0.1672857142856329 0
196 0.22 0.1815714285713923 0
197 0.22 0.1958571428571446 0
198 0.01499999999996998 0.01428571428568805 0
199 0.01499999999996998 0.02857142857135999 0
200 0.01499999999996998 0.04285714285703053 0
201 0.01499999999996998 0.05714285714274369 0
202 0.01499999999996998 0.07142857142849593 0
203 0.01499999999996999 0.08571428571424661 0
204 0.02999999999992385 0.01428571428568806 0
205 0.02999999999992385 0.02857142857135998 0
206 0.02999999999992385 0.04285714285703055 0
207 0.02999999999992385 0.05714285714274369 0
208 0.02999999999992385 0.07142857142849593 0
209 0.02999999999992385 0.08571428571424662 0
210 0.04499999999987671 0.01428571428568806 0
211 0.0449999999998767 0.02857142857135998 0
212 0.04499999999987671 0.04285714285703055 0
213 0.04499999999987671 0.05714285714274369 0
214 0.0449999999998767 0.07142857142849593 0
215 0.04499999999987671 0.08571428571424661 0
216 0.05999999999983228 0.01428571428568806 0
217 0.05999999999983227 0.02857142857135998 0
218 0.05999999999983227 0.04285714285703055 0
219 0.05999999999983227 0.05714285714274369 0
220 0.05999999999983227 0.07142857142849593 0
221 0.05999999999983226 0.08571428571424659 0
222 0.07499999999987726 0.01428571428568806 0
223 0.07499999999987728 0.02857142857135998 0
224 0.07499999999987728 0.04285714285703054 0
225 0.07499999999987728 0.05714285714274369 0
226 0.07499999999987728 0.07142857142849593 0
227 0.07499999999987726 0.08571428571424659 0
228 0.08999999999991819 0.01428571428568805 0
229 0.0899999999999182 0.02857142857135998 0
230 0.08999999999991817 0.04285714285703055 0
231 0.08999999999991817 0.05714285714274371 0
232 0.08999999999991819 0.07142857142849593 0
233 0.08999999999991819 0.08571428571424659 0
234 0.1049999999999591 0.01428571428568806 0
235 0.1049999999999591 0.02857142857135999 0
236 0.1049999999999591 0.04285714285703055 0
237 0.1049999999999591 0.05714285714274369 0
238 0.1049999999999591 0.07142857142849593 0
239 0.1049999999999591 0.08571428571424658 0
240 0.01499999999996998 0.007142857142844026 0
241 0.007499999999984988 0.01428571428568805 0
242 0.007499999999983688 0.007142857142843547 0
243 0.01499999999996998 0.02142857142852402 0
244 0.007499999999984992 0.02857142857135998 0
245 0.00749999999998499 0.02142857142852402 0
246 0.01499999999996998 0.03571428571419526 0
247 0.00749999999998499 0.04285714285703054 0
248 0.007499999999984992 0.03571428571419526 0
249 0.01499999999996998 0.04999999999988711 0
250 0.007499999999984989 0.05714285714274369 0
251 0.00749999999998499 0.0499999999998776 0
252 0.01499999999996998 0.06428571428561981 0
253 0.007499999999984991 0.07142857142849593 0
254 0.007499999999984991 0.06428571428562316 0
255 0.01499999999996998 0.07857142857137127 0
256 0.007499999999984993 0.08571428571424661 0
257 0.007499999999984992 0.07857142857137397 0
258 0.01499999999996998 0.09285714285712331 0
259 0.007499999999983691 0.09285714285712565 0
260 0.02999999999992385 0.00714285714284403 0
261 0.02249999999994691 0.01428571428568805 0
262 0.02249999999994671 0.007142857142844026 0
263 0.02999999999992385 0.02142857142852402 0
264 0.02249999999994692 0.02857142857135998 0
265 0.02249999999994691 0.02142857142852402 0
266 0.02999999999992385 0.03571428571419527 0
267 0.02249999999994692 0.04285714285703054 0
268 0.02249999999994692 0.03571428571419527 0
269 0.02999999999992385 0.04999999999988712 0
270 0.02249999999994692 0.05714285714274369 0
271 0.02249999999994692 0.04999999999988711 0
272 0.02999999999992385 0.06428571428561981 0
273 0.02249999999994692 0.07142857142849593 0
274 0.02249999999994692 0.06428571428561983 0
275 0.02999999999992385 0.07857142857137128 0
276 0.02249999999994692 0.08571428571424661 0
277 0.02249999999994692 0.07857142857137128 0
278 0.02999999999992385 0.09285714285712332 0
279 0.02249999999994672 0.09285714285712332 0
280 0.04499999999987671 0.007142857142844028 0
281 0.03749999999990028 0.01428571428568806 0
282 0.03749999999989644 0.00714285714284403 0
283 0.04499999999987671 0.02142857142852402 0
284 0.03749999999990028 0.02857142857135998 0
285 0.03749999999990028 0.02142857142852402 0
286 0.04499999999987671 0.03571428571419527 0
287 0.03749999999990028 0.04285714285703055 0
288 0.03749999999990028 0.03571428571419527 0
289 0.04499999999987671 0.04999999999988712 0
290 0.03749999999990028 0.05714285714274369 0
291 0.03749999999990029 0.04999999999988712 0
292 0.04499999999987671 0.06428571428561981 0
293 0.03749999999990028 0.07142857142849593 0
294 0.03749999999990028 0.06428571428561983 0
295 0.04499999999987671 0.07857142857137127 0
296 0.03749999999990028 0.08571428571424661 0
297 0.03749999999990028 0.07857142857137128 0
298 0.04499999999987671 0.09285714285712331 0
299 0.03749999999989644 0.09285714285712332 0
300 0.05999999999983228 0.007142857142844028 0
301 0.0524999999998545 0.01428571428568806 0
302 0.05249999999985246 0.007142857142844029 0
303 0.05999999999983227 0.02142857142852402 0
304 0.05249999999985448 0.02857142857135998 0
305 0.05249999999985449 0.02142857142852402 0
306 0.05999999999983227 0.03571428571419527 0
307 0.05249999999985449 0.04285714285703055 0
308 0.0524999999998545 0.03571428571419528 0
309 0.05999999999983227 0.04999999999988712 0
310 0.05249999999985449 0.05714285714274369 0
311 0.05249999999985449 0.04999999999988712 0
312 0.05999999999983227 0.06428571428561981 0
313 0.05249999999985448 0.07142857142849593 0
314 0.0524999999998545 0.06428571428561983 0
315 0.05999999999983226 0.07857142857137125 0
316 0.05249999999985448 0.08571428571424661 0
317 0.05249999999985448 0.07857142857137125 0
318 0.05999999999983227 0.09285714285712329 0
319 0.05249999999985247 0.09285714285712332 0
320 0.07499999999987726 0.007142857142844028 0
321 0.06749999999985477 0.01428571428568806 0
322 0.06749999999985537 0.007142857142844027 0
323 0.07499999999987728 0.02142857142852402 0
324 0.06749999999985477 0.02857142857135998 0
325 0.06749999999985477 0.02142857142852402 0
326 0.07499999999987728 0.03571428571419526 0
327 0.06749999999985477 0.04285714285703054 0
328 0.06749999999985477 0.03571428571419527 0
329 0.07499999999987728 0.04999999999988712 0
330 0.06749999999985477 0.05714285714274369 0
331 0.06749999999985477 0.04999999999988712 0
332 0.07499999999987728 0.06428571428561981 0
333 0.06749999999985477 0.07142857142849593 0
334 0.06749999999985477 0.06428571428561983 0
335 0.07499999999987728 0.07857142857137125 0
336 0.06749999999985476 0.08571428571424659 0
337 0.06749999999985477 0.07857142857137125 0
338 0.07499999999987726 0.09285714285712329 0
339 0.06749999999985537 0.09285714285712329 0
340 0.08999999999991819 0.007142857142844027 0
341 0.08249999999989772 0.01428571428568805 0
342 0.08249999999989772 0.007142857142844027 0
343 0.0899999999999182 0.02142857142852402 0
344 0.08249999999989774 0.02857142857135998 0
345 0.08249999999989774 0.02142857142852402 0
346 0.08999999999991819 0.03571428571419527 0
347 0.08249999999989772 0.04285714285703054 0
348 0.08249999999989772 0.03571428571419527 0
349 0.08999999999991817 0.04999999999988713 0
350 0.08249999999989772 0.0571428571427437 0
351 0.08249999999989772 0.04999999999988713 0
352 0.08999999999991817 0.06428571428561983 0
353 0.08249999999989774 0.07142857142849593 0
354 0.08249999999989774 0.06428571428561983 0
355 0.08999999999991819 0.07857142857137125 0
356 0.08249999999989772 0.08571428571424659 0
357 0.08249999999989772 0.07857142857137125 0
358 0.08999999999991819 0.09285714285712329 0
359 0.08249999999989772 0.09285714285712329 0
360 0.1049999999999591 0.007142857142844031 0
361 0.09749999999993866 0.01428571428568806 0
362 0.09749999999994025 0.007142857142844028 0
363 0.1049999999999591 0.02142857142852402 0
364 0.09749999999993866 0.02857142857135998 0
365 0.09749999999993866 0.02142857142852402 0
366 0.1049999999999591 0.03571428571419527 0
367 0.09749999999993864 0.04285714285703055 0
368 0.09749999999993866 0.03571428571419527 0
369 0.1049999999999591 0.04999999999988712 0
370 0.09749999999993864 0.0571428571427437 0
371 0.09749999999993864 0.04999999999988713 0
372 0.1049999999999591 0.06428571428561981 0
373 0.09749999999993864 0.07142857142849593 0
374 0.09749999999993862 0.06428571428561983 0
375 0.1049999999999591 0.07857142857137125 0
376 0.09749999999993864 0.08571428571424658 0
377 0.09749999999993864 0.07857142857137125 0
378 0.1049999999999591 0.09285714285712329 0
379 0.09749999999994023 0.09285714285712329 0
380 0.1124999999999796 0.01428571428568806 0
381 0.1124999999999809 0.007142857142843548 0
382 0.1124999999999796 0.02857142857135998 0
383 0.1124999999999796 0.02142857142852402 0
384 0.1124999999999795 0.04285714285703055 0
385 0.1124999999999795 0.03571428571419527 0
386 0.1124999999999795 0.05714285714274369 0
387 0.1124999999999795 0.04999999999987761 0
388 0.1124999999999795 0.07142857142849593 0
389 0.1124999999999795 0.06428571428562316 0
390 0.1124999999999795 0.08571428571424658 0
391 0.1124999999999795 0.07857142857137397 0
392 0.1124999999999809 0.09285714285712564 0
393 0.1366666666666305 0.01428571428568805 0
394 0.1366666666666304 0.02857142857135999 0
395 0.1366666666666305 0.04285714285703054 0
396 0.1366666666666305 0.05714285714274368 0
397 0.1366666666666304 0.07142857142849594 0
398 0.1366666666666304 0.08571428571424659 0
399 0.1533333333332393 0.01428571428568806 0
400 0.1533333333332393 0.02857142857135998 0
401 0.1533333333332394 0.04285714285703056 0
402 0.1533333333332393 0.0571428571427437 0
403 0.1533333333332393 0.07142857142849593 0
404 0.1533333333332393 0.08571428571424661 0
405 0.1699999999998644 0.01428571428568805 0
406 0.1699999999998644 0.02857142857135998 0
407 0.1699999999998644 0.04285714285703054 0
408 0.1699999999998644 0.0571428571427437 0
409 0.1699999999998644 0.07142857142849593 0
410 0.1699999999998644 0.08571428571424661 0
411 0.1866666666665744 0.01428571428568806 0
412 0.1866666666665745 0.02857142857135999 0
413 0.1866666666665744 0.04285714285703055 0
414 0.1866666666665744 0.05714285714274369 0
415 0.1866666666665744 0.07142857142849593 0
416 0.1866666666665744 0.08571428571424659 0
417 0.2033333333332917 0.01428571428568805 0
418 0.2033333333332917 0.02857142857135998 0
419 0.2033333333332917 0.04285714285703055 0
420 0.2033333333332917 0.0571428571427437 0
421 0.2033333333332917 0.07142857142849594 0
422 0.2033333333332917 0.08571428571424661 0
423 0.1366666666666305 0.007142857142844026 0
424 0.1283333333333153 0.01428571428568805 0
425 0.1283333333333162 0.007142857142843547 0
426 0.1366666666666305 0.02142857142852402 0
427 0.1283333333333152 0.02857142857135998 0
428 0.1283333333333152 0.02142857142852402 0
429 0.1366666666666305 0.03571428571419526 0
430 0.1283333333333153 0.04285714285703054 0
431 0.1283333333333152 0.03571428571419526 0
432 0.1366666666666305 0.04999999999988711 0
433 0.1283333333333153 0.05714285714274368 0
434 0.1283333333333153 0.0499999999998776 0
435 0.1366666666666305 0.06428571428561981 0
436 0.1283333333333152 0.07142857142849593 0
437 0.1283333333333152 0.06428571428562316 0
438 0.1366666666666304 0.07857142857137127 0
439 0.1283333333333152 0.08571428571424659 0
440 0.1283333333333152 0.07857142857137397 0
441 0.1366666666666305 0.09285714285712329 0
442 0.1283333333333162 0.09285714285712565 0
443 0.1533333333332393 0.007142857142844029 0
444 0.1449999999999349 0.01428571428568805 0
445 0.1449999999999349 0.007142857142844027 0
446 0.1533333333332393 0.02142857142852402 0
447 0.1449999999999349 0.02857142857135998 0
448 0.1449999999999349 0.02142857142852402 0
449 0.1533333333332393 0.03571428571419527 0
450 0.1449999999999349 0.04285714285703055 0
451 0.1449999999999349 0.03571428571419526 0
452 0.1533333333332393 0.04999999999988713 0
453 0.1449999999999349 0.05714285714274369 0
454 0.1449999999999349 0.04999999999988711 0
455 0.1533333333332393 0.06428571428561981 0
456 0.1449999999999349 0.07142857142849593 0
457 0.1449999999999349 0.06428571428561981 0
458 0.1533333333332393 0.07857142857137127 0
459 0.1449999999999349 0.08571428571424661 0
460 0.1449999999999349 0.07857142857137127 0
461 0.1533333333332393 0.09285714285712331 0
462 0.1449999999999349 0.09285714285712332 0
463 0.1699999999998644 0.007142857142844027 0
464 0.1616666666665519 0.01428571428568806 0
465 0.1616666666665519 0.007142857142844027 0
466 0.1699999999998644 0.02142857142852402 0
467 0.1616666666665519 0.02857142857135998 0
468 0.1616666666665519 0.02142857142852402 0
469 0.1699999999998644 0.03571428571419526 0
470 0.1616666666665519 0.04285714285703055 0
471 0.1616666666665519 0.03571428571419526 0
472 0.1699999999998644 0.04999999999988712 0
473 0.1616666666665519 0.0571428571427437 0
474 0.1616666666665518 0.04999999999988713 0
475 0.1699999999998644 0.06428571428561981 0
476 0.1616666666665519 0.07142857142849593 0
477 0.1616666666665519 0.06428571428561981 0
478 0.1699999999998644 0.07857142857137127 0
479 0.1616666666665519 0.08571428571424661 0
480 0.1616666666665519 0.07857142857137127 0
481 0.1699999999998644 0.09285714285712331 0
482 0.1616666666665519 0.09285714285712332 0
483 0.1866666666665744 0.007142857142844028 0
484 0.1783333333332194 0.01428571428568805 0
485 0.178333333333204 0.007142857142844027 0
486 0.1866666666665744 0.02142857142852402 0
487 0.1783333333332194 0.02857142857135998 0
488 0.1783333333332194 0.02142857142852402 0
489 0.1866666666665744 0.03571428571419527 0
490 0.1783333333332194 0.04285714285703054 0
491 0.1783333333332194 0.03571428571419527 0
492 0.1866666666665744 0.04999999999988712 0
493 0.1783333333332194 0.0571428571427437 0
494 0.1783333333332194 0.04999999999988712 0
495 0.1866666666665744 0.06428571428561981 0
496 0.1783333333332194 0.07142857142849593 0
497 0.1783333333332194 0.06428571428561981 0
498 0.1866666666665744 0.07857142857137125 0
499 0.1783333333332194 0.08571428571424661 0
500 0.1783333333332194 0.07857142857137125 0
501 0.1866666666665744 0.09285714285712329 0
502 0.178333333333204 0.09285714285712332 0
503 0.2033333333332917 0.007142857142844027 0
504 0.1949999999999331 0.01428571428568805 0
505 0.1949999999999475 0.007142857142844026 0
506 0.2033333333332917 0.02142857142852402 0
507 0.1949999999999331 0.02857142857135998 0
508 0.1949999999999331 0.02142857142852402 0
509 0.2033333333332917 0.03571428571419527 0
510 0.1949999999999331 0.04285714285703055 0
511 0.1949999999999331 0.03571428571419527 0
512 0.2033333333332917 0.04999999999988712 0
513 0.1949999999999331 0.0571428571427437 0
514 0.1949999999999331 0.04999999999988712 0
515 0.2033333333332917 0.06428571428561983 0
516 0.1949999999999331 0.07142857142849593 0
517 0.1949999999999331 0.0642857142856198 0
518 0.2033333333332917 0.07857142857137128 0
519 0.1949999999999331 0.08571428571424661 0
520 0.1949999999999331 0.07857142857137127 0
521 0.2033333333332917 0.09285714285712331 0
522 0.1949999999999475 0.09285714285712332 0
523 0.2116666666666459 0.01428571428568805 0
524 0.2116666666666467 0.007142857142843547 0
525 0.2116666666666459 0.02857142857135998 0
526 0.2116666666666459 0.02142857142852402 0
527 0.2116666666666459 0.04285714285703055 0
528 0.2116666666666459 0.03571428571419527 0
529 0.2116666666666459 0.0571428571427437 0
530 0.2116666666666459 0.04999999999987761 0
531 0.2116666666666459 0.07142857142849593 0
532 0.2116666666666459 0.06428571428562316 0
533 0.2116666666666459 0.08571428571424661 0
534 0.2116666666666459 0.07857142857137397 0
535 0.2116666666666467 0.09285714285712565 0
536 0.01499999999996998 0.1015 0
537 0.00749999999998239 0.1015 0
538 0.02999999999992385 0.1015 0
539 0.02249999999994651 0.1015 0
540 0.04499999999987671 0.1015 0
541 0.0374999999998926 0.1015 0
542 0.05999999999983228 0.1015 0
543 0.05249999999985044 0.1015 0
544 0.07499999999987726 0.1015 0
545 0.06749999999985598 0.1015 0
546 0.08999999999991819 0.1015 0
547 0.08249999999989772 0.1015 0
548 0.1049999999999591 0.1015 0
549 0.09749999999994183 0.1015 0
550 0.1124999999999822 0.1015 0
551 0.1366666666666305 0.1015 0
552 0.1283333333333171 0.1015 0
553 0.1533333333332393 0.1015 0
554 0.1449999999999349 0.1015 0
555 0.1699999999998644 0.1015 0
556 0.1616666666665519 0.1015 0
557 0.1866666666665744 0.1015 0
558 0.1783333333331887 0.1015 0
559 0.2033333333332917 0.1015 0
560 0.194999999999962 0.1015 0
561 0.2116666666666476 0.1015 0
562 0.01499999999996998 0.1172857142856756 0
563 0.01499999999996998 0.1315714285713511 0
564 0.01499999999996998 0.1458571428570266 0
565 0.01499999999996998 0.1601428571427355 0
566 0.01499999999996998 0.1744285714284885 0
567 0.01499999999996998 0.1887142857142469 0
568 0.02999999999992385 0.1172857142856756 0
569 0.02999999999992385 0.1315714285713511 0
570 0.02999999999992385 0.1458571428570266 0
571 0.02999999999992386 0.1601428571427355 0
572 0.02999999999992385 0.1744285714284885 0
573 0.02999999999992385 0.1887142857142469 0
574 0.04499999999987671 0.1172857142856756 0
575 0.04499999999987671 0.1315714285713511 0
576 0.04499999999987671 0.1458571428570266 0
577 0.04499999999987671 0.1601428571427355 0
578 0.04499999999987671 0.1744285714284885 0
579 0.04499999999987671 0.188714285714247 0
580 0.05999999999983228 0.1172857142856756 0
581 0.05999999999983227 0.1315714285713511 0
582 0.05999999999983227 0.1458571428570266 0
583 0.05999999999983227 0.1601428571427355 0
584 0.05999999999983228 0.1744285714284885 0
585 0.05999999999983228 0.1887142857142469 0
586 0.07499999999987728 0.1172857142856756 0
587 0.0749999999998773 0.1315714285713511 0
588 0.07499999999987728 0.1458571428570266 0
589 0.07499999999987728 0.1601428571427355 0
590 0.07499999999987726 0.1744285714284885 0
591 0.07499999999987726 0.1887142857142469 0
592 0.0899999999999182 0.1172857142856755 0
593 0.0899999999999182 0.1315714285713511 0
594 0.08999999999991821 0.1458571428570266 0
595 0.0899999999999182 0.1601428571427355 0
596 0.0899999999999182 0.1744285714284885 0
597 0.08999999999991819 0.1887142857142469 0
598 0.1049999999999591 0.1172857142856755 0
599 0.1049999999999591 0.1315714285713511 0
600 0.1049999999999591 0.1458571428570266 0
601 0.1049999999999591 0.1601428571427355 0
602 0.1049999999999591 0.1744285714284885 0
603 0.1049999999999591 0.1887142857142469 0
604 0.01499999999996998 0.1101428571428378 0
605 0.007499999999984992 0.1172857142856756 0
606 0.007499999999983689 0.1101428571428423 0
607 0.01499999999996998 0.1244285714285133 0
608 0.00749999999998499 0.1315714285713511 0
609 0.00749999999998499 0.1244285714285134 0
610 0.01499999999996998 0.1387142857141889 0
611 0.007499999999984991 0.1458571428570266 0
612 0.007499999999984991 0.1387142857141889 0
613 0.01499999999996998 0.152999999999881 0
614 0.007499999999984988 0.1601428571427355 0
615 0.00749999999998499 0.152999999999875 0
616 0.01499999999996998 0.167285714285612 0
617 0.007499999999984988 0.1744285714284885 0
618 0.007499999999984989 0.1672857142856224 0
619 0.01499999999996998 0.1815714285713677 0
620 0.007499999999984988 0.1887142857142469 0
621 0.007499999999984987 0.18157142857138 0
622 0.01499999999996998 0.1958571428571235 0
623 0.007499999999983688 0.195857142857134 0
624 0.02999999999992385 0.1101428571428378 0
625 0.02249999999994692 0.1172857142856756 0
626 0.02249999999994672 0.1101428571428378 0
627 0.02999999999992385 0.1244285714285133 0
628 0.02249999999994692 0.1315714285713511 0
629 0.02249999999994692 0.1244285714285133 0
630 0.02999999999992385 0.1387142857141889 0
631 0.02249999999994692 0.1458571428570266 0
632 0.02249999999994692 0.1387142857141889 0
633 0.02999999999992385 0.152999999999881 0
634 0.02249999999994692 0.1601428571427355 0
635 0.02249999999994692 0.152999999999881 0
636 0.02999999999992386 0.167285714285612 0
637 0.02249999999994692 0.1744285714284885 0
638 0.02249999999994691 0.167285714285612 0
639 0.02999999999992385 0.1815714285713677 0
640 0.02249999999994692 0.1887142857142469 0
641 0.02249999999994691 0.1815714285713677 0
642 0.02999999999992385 0.1958571428571235 0
643 0.02249999999994671 0.1958571428571235 0
644 0.04499999999987671 0.1101428571428378 0
645 0.03749999999990028 0.1172857142856756 0
646 0.03749999999989644 0.1101428571428378 0
647 0.04499999999987671 0.1244285714285133 0
648 0.03749999999990028 0.1315714285713511 0
649 0.03749999999990028 0.1244285714285133 0
650 0.04499999999987671 0.1387142857141889 0
651 0.03749999999990028 0.1458571428570266 0
652 0.03749999999990028 0.1387142857141889 0
653 0.04499999999987671 0.152999999999881 0
654 0.03749999999990028 0.1601428571427355 0
655 0.03749999999990028 0.152999999999881 0
656 0.04499999999987671 0.167285714285612 0
657 0.03749999999990028 0.1744285714284885 0
658 0.03749999999990028 0.167285714285612 0
659 0.04499999999987671 0.1815714285713677 0
660 0.03749999999990028 0.1887142857142469 0
661 0.03749999999990028 0.1815714285713677 0
662 0.04499999999987671 0.1958571428571235 0
663 0.03749999999989644 0.1958571428571235 0
664 0.05999999999983228 0.1101428571428378 0
665 0.0524999999998545 0.1172857142856756 0
666 0.05249999999985246 0.1101428571428378 0
667 0.05999999999983227 0.1244285714285133 0
668 0.05249999999985449 0.1315714285713511 0
669 0.05249999999985448 0.1244285714285133 0
670 0.05999999999983227 0.1387142857141889 0
671 0.05249999999985449 0.1458571428570266 0
672 0.0524999999998545 0.1387142857141889 0
673 0.05999999999983227 0.152999999999881 0
674 0.05249999999985449 0.1601428571427355 0
675 0.0524999999998545 0.152999999999881 0
676 0.05999999999983228 0.167285714285612 0
677 0.0524999999998545 0.1744285714284885 0
678 0.05249999999985449 0.167285714285612 0
679 0.05999999999983228 0.1815714285713677 0
680 0.0524999999998545 0.188714285714247 0
681 0.0524999999998545 0.1815714285713677 0
682 0.05999999999983228 0.1958571428571235 0
683 0.05249999999985246 0.1958571428571235 0
684 0.07499999999987728 0.1101428571428378 0
685 0.06749999999985477 0.1172857142856756 0
686 0.06749999999985538 0.1101428571428378 0
687 0.07499999999987729 0.1244285714285133 0
688 0.06749999999985479 0.1315714285713511 0
689 0.06749999999985477 0.1244285714285133 0
690 0.07499999999987729 0.1387142857141888 0
691 0.06749999999985477 0.1458571428570266 0
692 0.06749999999985479 0.1387142857141889 0
693 0.07499999999987728 0.152999999999881 0
694 0.06749999999985477 0.1601428571427355 0
695 0.06749999999985477 0.152999999999881 0
696 0.07499999999987728 0.167285714285612 0
697 0.06749999999985477 0.1744285714284885 0
698 0.06749999999985477 0.167285714285612 0
699 0.07499999999987726 0.1815714285713677 0
700 0.06749999999985477 0.1887142857142469 0
701 0.06749999999985477 0.1815714285713677 0
702 0.07499999999987726 0.1958571428571235 0
703 0.06749999999985537 0.1958571428571235 0
704 0.0899999999999182 0.1101428571428378 0
705 0.08249999999989774 0.1172857142856756 0
706 0.08249999999989774 0.1101428571428378 0
707 0.0899999999999182 0.1244285714285133 0
708 0.08249999999989775 0.1315714285713511 0
709 0.08249999999989775 0.1244285714285133 0
710 0.0899999999999182 0.1387142857141888 0
711 0.08249999999989774 0.1458571428570266 0
712 0.08249999999989774 0.1387142857141889 0
713 0.0899999999999182 0.152999999999881 0
714 0.08249999999989774 0.1601428571427355 0
715 0.08249999999989774 0.152999999999881 0
716 0.0899999999999182 0.167285714285612 0
717 0.08249999999989774 0.1744285714284885 0
718 0.08249999999989774 0.167285714285612 0
719 0.0899999999999182 0.1815714285713677 0
720 0.08249999999989772 0.1887142857142469 0
721 0.08249999999989772 0.1815714285713677 0
722 0.08999999999991819 0.1958571428571235 0
723 0.08249999999989772 0.1958571428571235 0
724 0.1049999999999591 0.1101428571428378 0
725 0.09749999999993864 0.1172857142856755 0
726 0.09749999999994025 0.1101428571428378 0
727 0.1049999999999591 0.1244285714285133 0
728 0.09749999999993866 0.1315714285713511 0
729 0.09749999999993865 0.1244285714285133 0
730 0.1049999999999591 0.1387142857141889 0
731 0.09749999999993866 0.1458571428570266 0
732 0.09749999999993866 0.1387142857141888 0
733 0.1049999999999591 0.1529999999998811 0
734 0.09749999999993865 0.1601428571427355 0
735 0.09749999999993866 0.152999999999881 0
736 0.1049999999999591 0.167285714285612 0
737 0.09749999999993865 0.1744285714284885 0
738 0.09749999999993865 0.167285714285612 0
739 0.1049999999999591 0.1815714285713677 0
740 0.09749999999993864 0.1887142857142469 0
741 0.09749999999993864 0.1815714285713677 0
742 0.1049999999999591 0.1958571428571235 0
743 0.09749999999994023 0.1958571428571235 0
744 0.1124999999999795 0.1172857142856756 0
745 0.1124999999999809 0.1101428571428423 0
746 0.1124999999999796 0.1315714285713511 0
747 0.1124999999999795 0.1244285714285133 0
748 0.1124999999999795 0.1458571428570266 0
749 0.1124999999999795 0.1387142857141888 0
750 0.1124999999999795 0.1601428571427355 0
751 0.1124999999999795 0.152999999999875 0
752 0.1124999999999795 0.1744285714284885 0
753 0.1124999999999795 0.1672857142856224 0
754 0.1124999999999795 0.1887142857142469 0
755 0.1124999999999795 0.18157142857138 0
756 0.1124999999999809 0.195857142857134 0
757 0.1366666666666305 0.1172857142856756 0
758 0.1366666666666305 0.1315714285713511 0
759 0.1366666666666305 0.1458571428570266 0
760 0.1366666666666305 0.1601428571427355 0
761 0.1366666666666305 0.1744285714284885 0
762 0.1366666666666305 0.188714285714247 0
763 0.1533333333332394 0.1172857142856756 0
764 0.1533333333332393 0.1315714285713511 0
765 0.1533333333332393 0.1458571428570266 0
766 0.1533333333332393 0.1601428571427355 0
767 0.1533333333332394 0.1744285714284885 0
768 0.1533333333332394 0.1887142857142469 0
769 0.1699999999998643 0.1172857142856756 0
770 0.1699999999998644 0.1315714285713511 0
771 0.1699999999998643 0.1458571428570266 0
772 0.1699999999998644 0.1601428571427355 0
773 0.1699999999998643 0.1744285714284885 0
774 0.1699999999998644 0.1887142857142469 0
775 0.1866666666665744 0.1172857142856756 0
776 0.1866666666665744 0.1315714285713511 0
777 0.1866666666665744 0.1458571428570266 0
778 0.1866666666665744 0.1601428571427355 0
779 0.1866666666665744 0.1744285714284885 0
780 0.1866666666665744 0.188714285714247 0
781 0.2033333333332917 0.1172857142856756 0
782 0.2033333333332917 0.1315714285713511 0
783 0.2033333333332917 0.1458571428570266 0
784 0.2033333333332917 0.1601428571427355 0
785 0.2033333333332917 0.1744285714284885 0
786 0.2033333333332917 0.1887142857142469 0
787 0.1366666666666305 0.1101428571428378 0
788 0.1283333333333153 0.1172857142856756 0
789 0.1283333333333162 0.1101428571428423 0
790 0.1366666666666305 0.1244285714285133 0
791 0.1283333333333153 0.1315714285713511 0
792 0.1283333333333153 0.1244285714285133 0
793 0.1366666666666305 0.1387142857141889 0
794 0.1283333333333153 0.1458571428570266 0
795 0.1283333333333153 0.1387142857141888 0
796 0.1366666666666305 0.152999999999881 0
797 0.1283333333333152 0.1601428571427355 0
798 0.1283333333333152 0.152999999999875 0
799 0.1366666666666305 0.167285714285612 0
800 0.1283333333333153 0.1744285714284885 0
801 0.1283333333333153 0.1672857142856224 0
802 0.1366666666666305 0.1815714285713677 0
803 0.1283333333333152 0.188714285714247 0
804 0.1283333333333152 0.18157142857138 0
805 0.1366666666666305 0.1958571428571235 0
806 0.1283333333333162 0.195857142857134 0
807 0.1533333333332393 0.1101428571428378 0
808 0.1449999999999349 0.1172857142856756 0
809 0.1449999999999349 0.1101428571428378 0
810 0.1533333333332393 0.1244285714285133 0
811 0.1449999999999349 0.1315714285713511 0
812 0.1449999999999349 0.1244285714285133 0
813 0.1533333333332393 0.1387142857141888 0
814 0.1449999999999349 0.1458571428570266 0
815 0.1449999999999349 0.1387142857141888 0
816 0.1533333333332393 0.152999999999881 0
817 0.1449999999999349 0.1601428571427355 0
818 0.1449999999999349 0.152999999999881 0
819 0.1533333333332393 0.167285714285612 0
820 0.1449999999999349 0.1744285714284885 0
821 0.1449999999999349 0.167285714285612 0
822 0.1533333333332394 0.1815714285713677 0
823 0.1449999999999349 0.1887142857142469 0
824 0.1449999999999349 0.1815714285713677 0
825 0.1533333333332393 0.1958571428571235 0
826 0.1449999999999349 0.1958571428571235 0
827 0.1699999999998644 0.1101428571428378 0
828 0.1616666666665519 0.1172857142856756 0
829 0.1616666666665519 0.1101428571428378 0
830 0.1699999999998644 0.1244285714285133 0
831 0.1616666666665518 0.1315714285713511 0
832 0.1616666666665518 0.1244285714285133 0
833 0.1699999999998644 0.1387142857141888 0
834 0.1616666666665518 0.1458571428570266 0
835 0.1616666666665519 0.1387142857141888 0
836 0.1699999999998644 0.152999999999881 0
837 0.1616666666665519 0.1601428571427355 0
838 0.1616666666665519 0.152999999999881 0
839 0.1699999999998644 0.167285714285612 0
840 0.1616666666665519 0.1744285714284885 0
841 0.1616666666665519 0.167285714285612 0
842 0.1699999999998644 0.1815714285713677 0
843 0.1616666666665519 0.1887142857142469 0
844 0.1616666666665519 0.1815714285713677 0
845 0.1699999999998644 0.1958571428571235 0
846 0.1616666666665519 0.1958571428571235 0
847 0.1866666666665744 0.1101428571428378 0
848 0.1783333333332194 0.1172857142856756 0
849 0.178333333333204 0.1101428571428378 0
850 0.1866666666665744 0.1244285714285133 0
851 0.1783333333332194 0.1315714285713511 0
852 0.1783333333332194 0.1244285714285133 0
853 0.1866666666665744 0.1387142857141889 0
854 0.1783333333332194 0.1458571428570266 0
855 0.1783333333332194 0.1387142857141889 0
856 0.1866666666665744 0.152999999999881 0
857 0.1783333333332194 0.1601428571427355 0
858 0.1783333333332194 0.152999999999881 0
859 0.1866666666665744 0.167285714285612 0
860 0.1783333333332194 0.1744285714284885 0
861 0.1783333333332194 0.167285714285612 0
862 0.1866666666665744 0.1815714285713678 0
863 0.1783333333332194 0.188714285714247 0
864 0.1783333333332194 0.1815714285713677 0
865 0.1866666666665744 0.1958571428571235 0
866 0.1783333333332041 0.1958571428571235 0
867 0.2033333333332917 0.1101428571428378 0
868 0.1949999999999331 0.1172857142856756 0
869 0.1949999999999475 0.1101428571428378 0
870 0.2033333333332917 0.1244285714285133 0
871 0.1949999999999331 0.1315714285713511 0
872 0.1949999999999331 0.1244285714285133 0
873 0.2033333333332917 0.1387142857141889 0
874 0.1949999999999331 0.1458571428570266 0
875 0.1949999999999331 0.1387142857141889 0
876 0.2033333333332917 0.152999999999881 0
877 0.1949999999999331 0.1601428571427355 0
878 0.1949999999999331 0.152999999999881 0
879 0.2033333333332917 0.167285714285612 0
880 0.1949999999999331 0.1744285714284885 0
881 0.1949999999999331 0.167285714285612 0
882 0.2033333333332917 0.1815714285713677 0
883 0.1949999999999331 0.188714285714247 0
884 0.1949999999999331 0.1815714285713677 0
885 0.2033333333332917 0.1958571428571235 0
886 0.1949999999999475 0.1958571428571235 0
887 0.2116666666666459 0.1172857142856756 0
888 0.2116666666666467 0.1101428571428423 0
889 0.2116666666666459 0.1315714285713511 0
890 0.2116666666666459 0.1244285714285133 0
891 0.2116666666666459 0.1458571428570266 0
892 0.2116666666666459 0.1387142857141888 0
893 0.2116666666666459 0.1601428571427355 0
894 0.2116666666666459 0.152999999999875 0
895 0.2116666666666459 0.1744285714284885 0
896 0.2116666666666459 0.1672857142856224 0
897 0.2116666666666459 0.1887142857142469 0
898 0.2116666666666459 0.18157142857138 0
899 0.2116666666666467 0.195857142857134 0
$EndNodes
$Elements
285
1 8 2 4 1 1 13 20
2 8 2 4 1 13 14 21
3 8 2 4 1 14 15 22
4 8 2 4 1 15 16 23
5 8 2 4 1 16 17 24
6 8 2 4 1 17 18 25
7 8 2 4 1 18 19 26
8 8 2 4 1 19 2 27
9 8 2 4 2 2 28 33
10 8 2 4 2 28 29 34
11 8 2 4 2 29 30 35
12 8 2 4 2 30 31 36
13 8 2 4 2 31 32 37
14 8 2 4 2 32 3 38
15 8 2 6 3 4 39 46
16 8 2 6 3 39 40 47
17 8 2 6 3 40 41 48
18 8 2 6 3 41 42 49
19 8 2 6 3 42 43 50
20 8 2 6 3 43 44 51
21 8 2 6 3 44 45 52
22 8 2 6 3 45 5 53
23 8 2 6 5 7 65 72
24 8 2 6 5 65 66 73
25 8 2 6 5 66 67 74
26 8 2 6 5 67 68 75
27 8 2 6 5 68 69 76
28 8 2 6 5 69 70 77
29 8 2 6 5 70 71 78
30 8 2 6 5 71 8 79
31 8 2 4 7 10 91 98
32 8 2 4 7 91 92 99
33 8 2 4 7 92 93 100
34 8 2 4 7 93 94 101
35 8 2 4 7 94 95 102
36 8 2 4 7 95 96 103
37 8 2 4 7 96 97 104
38 8 2 4 7 97 11 105
39 8 2 4 8 11 106 111
40 8 2 4 8 106 107 112
41 8 2 4 8 107 108 113
42 8 2 4 8 108 109 114
43 8 2 4 8 109 110 115
44 8 2 4 8 110 12 116
45 8 2 3 9 1 117 123
46 8 2 3 9 117 118 124
47 8 2 3 9 118 119 125
48 8 2 3 9 119 120 126
49 8 2 3 9 120 121 127
50 8 2 3 9 121 122 128
51 8 2 3 9 122 4 129
52 8 2 5 10 4 7 130
53 8 2 3 11 7 131 137
54 8 2 3 11 131 132 138
55 8 2 3 11 132 133 139
56 8 2 3 11 133 134 140
57 8 2 3 11 134 135 141
58 8 2 3 11 135 136 142
59 8 2 3 11 136 10 143
60 8 2 6 13 5 8 157
61 8 2 4 15 3 171 177
62 8 2 4 15 171 172 178
63 8 2 4 15 172 173 179
64 8 2 4 15 173 174 180
65 8 2 4 15 174 175 181
66 8 2 4 15 175 176 182
67 8 2 4 15 176 6 183
68 8 2 4 16 6 9 184
69 8 2 4 17 9 185 191
70 8 2 4 17 185 186 192
71 8 2 4 17 186 187 193
72 8 2 4 17 187 188 194
73 8 2 4 17 188 189 195
74 8 2 4 17 189 190 196
75 8 2 4 17 190 12 197
76 10 2 2 19 1 13 198 117 20 240 241 123 242
77 10 2 2 19 117 198 199 118 241 243 244 124 245
78 10 2 2 19 118 199 200 119 244 246 247 125 248
79 10 2 2 19 119 200 201 120 247 249 250 126 251
80 10 2 2 19 120 201 202 121 250 252 253 127 254
81 10 2 2 19 121 202 203 122 253 255 256 128 257
82 10 2 2 19 122 203 39 4 256 258 46 129 259
83 10 2 2 19 13 14 204 198 21 260 261 240 262
84 10 2 2 19 198 204 205 199 261 263 264 243 265
85 10 2 2 19 199 205 206 200 264 266 267 246 268
86 10 2 2 19 200 206 207 201 267 269 270 249 271
87 10 2 2 19 201 207 208 202 270 272 273 252 274
88 10 2 2 19 202 208 209 203 273 275 276 255 277
89 10 2 2 19 203 209 40 39 276 278 47 258 279
90 10 2 2 19 14 15 210 204 22 280 281 260 282
91 10 2 2 19 204 210 211 205 281 283 284 263 285
92 10 2 2 19 205 211 212 206 284 286 287 266 288
93 10 2 2 19 206 212 213 207 287 289 290 269 291
94 10 2 2 19 207 213 214 208 290 292 293 272 294
95 10 2 2 19 208 214 215 209 293 295 296 275 297
96 10 2 2 19 209 215 41 40 296 298 48 278 299
97 10 2 2 19 15 16 216 210 23 300 301 280 302
98 10 2 2 19 210 216 217 211 301 303 304 283 305
99 10 2 2 19 211 217 218 212 304 306 307 286 308
100 10 2 2 19 212 218 219 213 307 309 310 289 311
101 10 2 2 19 213 219 220 214 310 312 313 292 314
102 10 2 2 19 214 220 221 215 313 315 316 295 317
103 10 2 2 19 215 221 42 41 316 318 49 298 319
104 10 2 2 19 16 17 222 216 24 320 321 300 322
105 10 2 2 19 216 222 223 217 321 323 324 303 325
106 10 2 2 19 217 223 224 218 324 326 327 306 328
107 10 2 2 19 218 224 225 219 327 329 330 309 331
108 10 2 2 19 219 225 226 220 330 332 333 312 334
109 10 2 2 19 220 226 227 221 333 335 336 315 337
110 10 2 2 19 221 227 43 42 336 338 50 318 339
111 10 2 2 19 17 18 228 222 25 340 341 320 342
112 10 2 2 19 222 228 229 223 341 343 344 323 345
113 10 2 2 19 223 229 230 224 344 346 347 326 348
114 10 2 2 19 224 230 231 225 347 349 350 329 351
115 10 2 2 19 225 231 232 226 350 352 353 332 354
116 10 2 2 19 226 232 233 227 353 355 356 335 357
117 10 2 2 19 227 233 44 43 356 358 51 338 359
118 10 2 2 19 18 19 234 228 26 360 361 340 362
119 10 2 2 19 228 234 235 229 361 363 364 343 365
120 10 2 2 19 229 235 236 230 364 366 367 346 368
121 10 2 2 19 230 236 237 231 367 369 370 349 371
122 10 2 2 19 231 237 238 232 370 372 373 352 374
123 10 2 2 19 232 238 239 233 373 375 376 355 377
124 10 2 2 19 233 239 45 44 376 378 52 358 379
125 10 2 2 19 19 2 144 234 27 150 380 360 381
126 10 2 2 19 234 144 145 235 380 151 382 363 383
127 10 2 2 19 235 145 146 236 382 152 384 366 385
128 10 2 2 19 236 146 147 237 384 153 386 369 387
129 10 2 2 19 237 147 148 238 386 154 388 372 389
130 10 2 2 19 238 148 149 239 388 155 390 375 391
131 10 2 2 19 239 149 5 45 390 156 53 378 392
132 10 2 2 21 2 28 393 144 33 423 424 150 425
133 10 2 2 21 144 393 394 145 424 426 427 151 428
134 10 2 2 21 145 394 395 146 427 429 430 152 431
135 10 2 2 21 146 395 396 147 430 432 433 153 434
136 10 2 2 21 147 396 397 148 433 435 436 154 437
137 10 2 2 21 148 397 398 149 436 438 439 155 440
138 10 2 2 21 149 398 54 5 439 441 59 156 442
139 10 2 2 21 28 29 399 393 34 443 444 423 445
140 10 2 2 21 393 399 400 394 444 446 447 426 448
141 10 2 2 21 394 400 401 395 447 449 450 429 451
142 10 2 2 21 395 401 402 396 450 452 453 432 454
143 10 2 2 21 396 402 403 397 453 455 456 435 457
144 10 2 2 21 397 403 404 398 456 458 459 438 460
145 10 2 2 21 398 404 55 54 459 461 60 441 462
146 10 2 2 21 29 30 405 399 35 463 464 443 465
147 10 2 2 21 399 405 406 400 464 466 467 446 468
148 10 2 2 21 400 406 407 401 467 469 470 449 471
149 10 2 2 21 401 407 408 402 470 472 473 452 474
150 10 2 2 21 402 408 409 403 473 475 476 455 477
151 10 2 2 21 403 409 410 404 476 478 479 458 480
152 10 2 2 21 404 410 56 55 479 481 61 461 482
153 10 2 2 21 30 31 411 405 36 483 484 463 485
154 10 2 2 21 405 411 412 406 484 486 487 466 488
155 10 2 2 21 406 412 413 407 487 489 490 469 491
156 10 2 2 21 407 413 414 408 490 492 493 472 494
157 10 2 2 21 408 414 415 409 493 495 496 475 497
158 10 2 2 21 409 415 416 410 496 498 499 478 500
159 10 2 2 21 410 416 57 56 499 501 62 481 502
160 10 2 2 21 31 32 417 411 37 503 504 483 505
161 10 2 2 21 411 417 418 412 504 506 507 486 508
162 10 2 2 21 412 418 419 413 507 509 510 489 511
163 10 2 2 21 413 419 420 414 510 512 513 492 514
164 10 2 2 21 414 420 421 415 513 515 516 495 517
165 10 2 2 21 415 421 422 416 516 518 519 498 520
166 10 2 2 21 416 422 58 57 519 521 63 501 522
167 10 2 2 21 32 3 171 417 38 177 523 503 524
168 10 2 2 21 417 171 172 418 523 178 525 506 526
169 10 2 2 21 418 172 173 419 525 179 527 509 528
170 10 2 2 21 419 173 174 420 527 180 529 512 530
171 10 2 2 21 420 174 175 421 529 181 531 515 532
172 10 2 2 21 421 175 176 422 531 182 533 518 534
173 10 2 2 21 422 176 6 58 533 183 64 521 535
174 10 2 1 23 4 39 65 7 46 536 72 130 537
175 10 2 1 23 39 40 66 65 47 538 73 536 539
176 10 2 1 23 40 41 67 66 48 540 74 538 541
177 10 2 1 23 41 42 68 67 49 542 75 540 543
178 10 2 1 23 42 43 69 68 50 544 76 542 545
179 10 2 1 23 43 44 70 69 51 546 77 544 547
180 10 2 1 23 44 45 71 70 52 548 78 546 549
181 10 2 1 23 45 5 8 71 53 157 79 548 550
182 10 2 2 25 5 54 80 8 59 551 85 157 552
183 10 2 2 25 54 55 81 80 60 553 86 551 554
184 10 2 2 25 55 56 82 81 61 555 87 553 556
185 10 2 2 25 56 57 83 82 62 557 88 555 558
186 10 2 2 25 57 58 84 83 63 559 89 557 560
187 10 2 2 25 58 6 9 84 64 184 90 559 561
188 10 2 2 27 7 65 562 131 72 604 605 137 606
189 10 2 2 27 131 562 563 132 605 607 608 138 609
190 10 2 2 27 132 563 564 133 608 610 611 139 612
191 10 2 2 27 133 564 565 134 611 613 614 140 615
192 10 2 2 27 134 565 566 135 614 616 617 141 618
193 10 2 2 27 135 566 567 136 617 619 620 142 621
194 10 2 2 27 136 567 91 10 620 622 98 143 623
195 10 2 2 27 65 66 568 562 73 624 625 604 626
196 10 2 2 27 562 568 569 563 625 627 628 607 629
197 10 2 2 27 563 569 570 564 628 630 631 610 632
198 10 2 2 27 564 570 571 565 631 633 634 613 635
199 10 2 2 27 565 571 572 566 634 636 637 616 638
200 10 2 2 27 566 572 573 567 637 639 640 619 641
201 10 2 2 27 567 573 92 91 640 642 99 622 643
202 10 2 2 27 66 67 574 568 74 644 645 624 646
203 10 2 2 27 568 574 575 569 645 647 648 627 649
204 10 2 2 27 569 575 576 570 648 650 651 630 652
205 10 2 2 27 570 576 577 571 651 653 654 633 655
206 10 2 2 27 571 577 578 572 654 656 657 636 658
207 10 2 2 27 572 578 579 573 657 659 660 639 661
208 10 2 2 27 573 579 93 92 660 662 100 642 663
209 10 2 2 27 67 68 580 574 75 664 665 644 666
210 10 2 2 27 574 580 581 575 665 667 668 647 669
211 10 2 2 27 575 581 582 576 668 670 671 650 672
212 10 2 2 27 576 582 583 577 671 673 674 653 675
213 10 2 2 27 577 583 584 578 674 676 677 656 678
214 10 2 2 27 578 584 585 579 677 679 680 659 681
215 10 2 2 27 579 585 94 93 680 682 101 662 683
216 10 2 2 27 68 69 586 580 76 684 685 664 686
217 10 2 2 27 580 586 587 581 685 687 688 667 689
218 10 2 2 27 581 587 588 582 688 690 691 670 692
219 10 2 2 27 582 588 589 583 691 693 694 673 695
220 10 2 2 27 583 589 590 584 694 696 697 676 698
221 10 2 2 27 584 590 591 585 697 699 700 679 701
222 10 2 2 27 585 591 95 94 700 702 102 682 703
223 10 2 2 27 69 70 592 586 77 704 705 684 706
224 10 2 2 27 586 592 593 587 705 707 708 687 709
225 10 2 2 27 587 593 594 588 708 710 711 690 712
226 10 2 2 27 588 594 595 589 711 713 714 693 715
227 10 2 2 27 589 595 596 590 714 716 717 696 718
228 10 2 2 27 590 596 597 591 717 719 720 699 721
229 10 2 2 27 591 597 96 95 720 722 103 702 723
230 10 2 2 27 70 71 598 592 78 724 725 704 726
231 10 2 2 27 592 598 599 593 725 727 728 707 729
232 10 2 2 27 593 599 600 594 728 730 731 710 732
233 10 2 2 27 594 600 601 595 731 733 734 713 735
234 10 2 2 27 595 601 602 596 734 736 737 716 738
235 10 2 2 27 596 602 603 597 737 739 740 719 741
236 10 2 2 27 597 603 97 96 740 742 104 722 743
237 10 2 2 27 71 8 158 598 79 164 744 724 745
238 10 2 2 27 598 158 159 599 744 165 746 727 747
239 10 2 2 27 599 159 160 600 746 166 748 730 749
240 10 2 2 27 600 160 161 601 748 167 750 733 751
241 10 2 2 27 601 161 162 602 750 168 752 736 753
242 10 2 2 27 602 162 163 603 752 169 754 739 755
243 10 2 2 27 603 163 11 97 754 170 105 742 756
244 10 2 2 29 8 80 757 158 85 787 788 164 789
245 10 2 2 29 158 757 758 159 788 790 791 165 792
246 10 2 2 29 159 758 759 160 791 793 794 166 795
247 10 2 2 29 160 759 760 161 794 796 797 167 798
248 10 2 2 29 161 760 761 162 797 799 800 168 801
249 10 2 2 29 162 761 762 163 800 802 803 169 804
250 10 2 2 29 163 762 106 11 803 805 111 170 806
251 10 2 2 29 80 81 763 757 86 807 808 787 809
252 10 2 2 29 757 763 764 758 808 810 811 790 812
253 10 2 2 29 758 764 765 759 811 813 814 793 815
254 10 2 2 29 759 765 766 760 814 816 817 796 818
255 10 2 2 29 760 766 767 761 817 819 820 799 821
256 10 2 2 29 761 767 768 762 820 822 823 802 824
257 10 2 2 29 762 768 107 106 823 825 112 805 826
258 10 2 2 29 81 82 769 763 87 827 828 807 829
259 10 2 2 29 763 769 770 764 828 830 831 810 832
260 10 2 2 29 764 770 771 765 831 833 834 813 835
261 10 2 2 29 765 771 772 766 834 836 837 816 838
262 10 2 2 29 766 772 773 767 837 839 840 819 841
263 10 2 2 29 767 773 774 768 840 842 843 822 844
264 10 2 2 29 768 774 108 107 843 845 113 825 846
265 10 2 2 29 82 83 775 769 88 847 848 827 849
266 10 2 2 29 769 775 776 770 848 850 851 830 852
267 10 2 2 29 770 776 777 771 851 853 854 833 855
268 10 2 2 29 771 777 778 772 854 856 857 836 858
269 10 2 2 29 772 778 779 773 857 859 860 839 861
270 10 2 2 29 773 779 780 774 860 862 863 842 864
271 10 2 2 29 774 780 109 108 863 865 114 845 866
272 10 2 2 29 83 84 781 775 89 867 868 847 869
273 10 2 2 29 775 781 782 776 868 870 871 850 872
274 10 2 2 29 776 782 783 777 871 873 874 853 875
275 10 2 2 29 777 783 784 778 874 876 877 856 878
276 10 2 2 29 778 784 785 779 877 879 880 859 881
277 10 2 2 29 779 785 786 780 880 882 883 862 884
278 10 2 2 29 780 786 110 109 883 885 115 865 886
279 10 2 2 29 84 9 185 781 90 191 887 867 888
280 10 2 2 29 781 185 186 782 887 192 889 870 890
281 10 2 2 29 782 186 187 783 889 193 891 873 892
282 10 2 2 29 783 187 188 784 891 194 893 876 894
283 10 2 2 29 784 188 189 785 893 195 895 879 896
284 10 2 2 29 785 189 190 786 895 196 897 882 898
285 10 2 2 29 786 190 12 110 897 197 116 885 899
$EndElements
