[Info]
Version 1
Dimension 2
NumNodes 441
Num3DElements 0
Num2DElements 400
Num1DElements 0
NumNodeBC 88
NumSaveNodes 0
NumSaveElements 0
Num 2d-line      : 0
Num 2d-line,quad : 0
Num 3d-line      : 0
Num 3d-line,quad : 0
Num triangle     : 0
Num triangle,quad: 0
Num quadr        : 400
Num quadr,quad   : 0
Num tetra        : 0
Num tetra,quad   : 0
Num brick        : 0
Num brick,quad   : 0
Num pyramid      : 0
Num pyramid,quad : 0
Num wedge        : 0
Num wedge,quad   : 0

[Nodes]
#NodeNr x-coord y-coord z-coord
1  0.0  0.0  0.0
2  0.05  0.0  0.0
3  0.1  0.0  0.0
4  0.15  0.0  0.0
5  0.2  0.0  0.0
6  0.25  0.0  0.0
7  0.3  0.0  0.0
8  0.35  0.0  0.0
9  0.4  0.0  0.0
10  0.45  0.0  0.0
11  0.5  0.0  0.0
12  0.55  0.0  0.0
13  0.6  0.0  0.0
14  0.65  0.0  0.0
15  0.7  0.0  0.0
16  0.75  0.0  0.0
17  0.8  0.0  0.0
18  0.85  0.0  0.0
19  0.9  0.0  0.0
20  0.95  0.0  0.0
21  1.0  0.0  0.0
22  0.0  0.05  0.0
23  0.05  0.05  0.0
24  0.1  0.05  0.0
25  0.15  0.05  0.0
26  0.2  0.05  0.0
27  0.25  0.05  0.0
28  0.3  0.05  0.0
29  0.35  0.05  0.0
30  0.4  0.05  0.0
31  0.45  0.05  0.0
32  0.5  0.05  0.0
33  0.55  0.05  0.0
34  0.6  0.05  0.0
35  0.65  0.05  0.0
36  0.7  0.05  0.0
37  0.75  0.05  0.0
38  0.8  0.05  0.0
39  0.85  0.05  0.0
40  0.9  0.05  0.0
41  0.95  0.05  0.0
42  1.0  0.05  0.0
43  0.0  0.1  0.0
44  0.05  0.1  0.0
45  0.1  0.1  0.0
46  0.15  0.1  0.0
47  0.2  0.1  0.0
48  0.25  0.1  0.0
49  0.3  0.1  0.0
50  0.35  0.1  0.0
51  0.4  0.1  0.0
52  0.45  0.1  0.0
53  0.5  0.1  0.0
54  0.55  0.1  0.0
55  0.6  0.1  0.0
56  0.65  0.1  0.0
57  0.7  0.1  0.0
58  0.75  0.1  0.0
59  0.8  0.1  0.0
60  0.85  0.1  0.0
61  0.9  0.1  0.0
62  0.95  0.1  0.0
63  1.0  0.1  0.0
64  0.0  0.15  0.0
65  0.05  0.15  0.0
66  0.1  0.15  0.0
67  0.15  0.15  0.0
68  0.2  0.15  0.0
69  0.25  0.15  0.0
70  0.3  0.15  0.0
71  0.35  0.15  0.0
72  0.4  0.15  0.0
73  0.45  0.15  0.0
74  0.5  0.15  0.0
75  0.55  0.15  0.0
76  0.6  0.15  0.0
77  0.65  0.15  0.0
78  0.7  0.15  0.0
79  0.75  0.15  0.0
80  0.8  0.15  0.0
81  0.85  0.15  0.0
82  0.9  0.15  0.0
83  0.95  0.15  0.0
84  1.0  0.15  0.0
85  0.0  0.2  0.0
86  0.05  0.2  0.0
87  0.1  0.2  0.0
88  0.15  0.2  0.0
89  0.2  0.2  0.0
90  0.25  0.2  0.0
91  0.3  0.2  0.0
92  0.35  0.2  0.0
93  0.4  0.2  0.0
94  0.45  0.2  0.0
95  0.5  0.2  0.0
96  0.55  0.2  0.0
97  0.6  0.2  0.0
98  0.65  0.2  0.0
99  0.7  0.2  0.0
100  0.75  0.2  0.0
101  0.8  0.2  0.0
102  0.85  0.2  0.0
103  0.9  0.2  0.0
104  0.95  0.2  0.0
105  1.0  0.2  0.0
106  0.0  0.25  0.0
107  0.05  0.25  0.0
108  0.1  0.25  0.0
109  0.15  0.25  0.0
110  0.2  0.25  0.0
111  0.25  0.25  0.0
112  0.3  0.25  0.0
113  0.35  0.25  0.0
114  0.4  0.25  0.0
115  0.45  0.25  0.0
116  0.5  0.25  0.0
117  0.55  0.25  0.0
118  0.6  0.25  0.0
119  0.65  0.25  0.0
120  0.7  0.25  0.0
121  0.75  0.25  0.0
122  0.8  0.25  0.0
123  0.85  0.25  0.0
124  0.9  0.25  0.0
125  0.95  0.25  0.0
126  1.0  0.25  0.0
127  0.0  0.3  0.0
128  0.05  0.3  0.0
129  0.1  0.3  0.0
130  0.15  0.3  0.0
131  0.2  0.3  0.0
132  0.25  0.3  0.0
133  0.3  0.3  0.0
134  0.35  0.3  0.0
135  0.4  0.3  0.0
136  0.45  0.3  0.0
137  0.5  0.3  0.0
138  0.55  0.3  0.0
139  0.6  0.3  0.0
140  0.65  0.3  0.0
141  0.7  0.3  0.0
142  0.75  0.3  0.0
143  0.8  0.3  0.0
144  0.85  0.3  0.0
145  0.9  0.3  0.0
146  0.95  0.3  0.0
147  1.0  0.3  0.0
148  0.0  0.35  0.0
149  0.05  0.35  0.0
150  0.1  0.35  0.0
151  0.15  0.35  0.0
152  0.2  0.35  0.0
153  0.25  0.35  0.0
154  0.3  0.35  0.0
155  0.35  0.35  0.0
156  0.4  0.35  0.0
157  0.45  0.35  0.0
158  0.5  0.35  0.0
159  0.55  0.35  0.0
160  0.6  0.35  0.0
161  0.65  0.35  0.0
162  0.7  0.35  0.0
163  0.75  0.35  0.0
164  0.8  0.35  0.0
165  0.85  0.35  0.0
166  0.9  0.35  0.0
167  0.95  0.35  0.0
168  1.0  0.35  0.0
169  0.0  0.4  0.0
170  0.05  0.4  0.0
171  0.1  0.4  0.0
172  0.15  0.4  0.0
173  0.2  0.4  0.0
174  0.25  0.4  0.0
175  0.3  0.4  0.0
176  0.35  0.4  0.0
177  0.4  0.4  0.0
178  0.45  0.4  0.0
179  0.5  0.4  0.0
180  0.55  0.4  0.0
181  0.6  0.4  0.0
182  0.65  0.4  0.0
183  0.7  0.4  0.0
184  0.75  0.4  0.0
185  0.8  0.4  0.0
186  0.85  0.4  0.0
187  0.9  0.4  0.0
188  0.95  0.4  0.0
189  1.0  0.4  0.0
190  0.0  0.45  0.0
191  0.05  0.45  0.0
192  0.1  0.45  0.0
193  0.15  0.45  0.0
194  0.2  0.45  0.0
195  0.25  0.45  0.0
196  0.3  0.45  0.0
197  0.35  0.45  0.0
198  0.4  0.45  0.0
199  0.45  0.45  0.0
200  0.5  0.45  0.0
201  0.55  0.45  0.0
202  0.6  0.45  0.0
203  0.65  0.45  0.0
204  0.7  0.45  0.0
205  0.75  0.45  0.0
206  0.8  0.45  0.0
207  0.85  0.45  0.0
208  0.9  0.45  0.0
209  0.95  0.45  0.0
210  1.0  0.45  0.0
211  0.0  0.5  0.0
212  0.05  0.5  0.0
213  0.1  0.5  0.0
214  0.15  0.5  0.0
215  0.2  0.5  0.0
216  0.25  0.5  0.0
217  0.3  0.5  0.0
218  0.35  0.5  0.0
219  0.4  0.5  0.0
220  0.45  0.5  0.0
221  0.5  0.5  0.0
222  0.55  0.5  0.0
223  0.6  0.5  0.0
224  0.65  0.5  0.0
225  0.7  0.5  0.0
226  0.75  0.5  0.0
227  0.8  0.5  0.0
228  0.85  0.5  0.0
229  0.9  0.5  0.0
230  0.95  0.5  0.0
231  1.0  0.5  0.0
232  0.0  0.55  0.0
233  0.05  0.55  0.0
234  0.1  0.55  0.0
235  0.15  0.55  0.0
236  0.2  0.55  0.0
237  0.25  0.55  0.0
238  0.3  0.55  0.0
239  0.35  0.55  0.0
240  0.4  0.55  0.0
241  0.45  0.55  0.0
242  0.5  0.55  0.0
243  0.55  0.55  0.0
244  0.6  0.55  0.0
245  0.65  0.55  0.0
246  0.7  0.55  0.0
247  0.75  0.55  0.0
248  0.8  0.55  0.0
249  0.85  0.55  0.0
250  0.9  0.55  0.0
251  0.95  0.55  0.0
252  1.0  0.55  0.0
253  0.0  0.6  0.0
254  0.05  0.6  0.0
255  0.1  0.6  0.0
256  0.15  0.6  0.0
257  0.2  0.6  0.0
258  0.25  0.6  0.0
259  0.3  0.6  0.0
260  0.35  0.6  0.0
261  0.4  0.6  0.0
262  0.45  0.6  0.0
263  0.5  0.6  0.0
264  0.55  0.6  0.0
265  0.6  0.6  0.0
266  0.65  0.6  0.0
267  0.7  0.6  0.0
268  0.75  0.6  0.0
269  0.8  0.6  0.0
270  0.85  0.6  0.0
271  0.9  0.6  0.0
272  0.95  0.6  0.0
273  1.0  0.6  0.0
274  0.0  0.65  0.0
275  0.05  0.65  0.0
276  0.1  0.65  0.0
277  0.15  0.65  0.0
278  0.2  0.65  0.0
279  0.25  0.65  0.0
280  0.3  0.65  0.0
281  0.35  0.65  0.0
282  0.4  0.65  0.0
283  0.45  0.65  0.0
284  0.5  0.65  0.0
285  0.55  0.65  0.0
286  0.6  0.65  0.0
287  0.65  0.65  0.0
288  0.7  0.65  0.0
289  0.75  0.65  0.0
290  0.8  0.65  0.0
291  0.85  0.65  0.0
292  0.9  0.65  0.0
293  0.95  0.65  0.0
294  1.0  0.65  0.0
295  0.0  0.7  0.0
296  0.05  0.7  0.0
297  0.1  0.7  0.0
298  0.15  0.7  0.0
299  0.2  0.7  0.0
300  0.25  0.7  0.0
301  0.3  0.7  0.0
302  0.35  0.7  0.0
303  0.4  0.7  0.0
304  0.45  0.7  0.0
305  0.5  0.7  0.0
306  0.55  0.7  0.0
307  0.6  0.7  0.0
308  0.65  0.7  0.0
309  0.7  0.7  0.0
310  0.75  0.7  0.0
311  0.8  0.7  0.0
312  0.85  0.7  0.0
313  0.9  0.7  0.0
314  0.95  0.7  0.0
315  1.0  0.7  0.0
316  0.0  0.75  0.0
317  0.05  0.75  0.0
318  0.1  0.75  0.0
319  0.15  0.75  0.0
320  0.2  0.75  0.0
321  0.25  0.75  0.0
322  0.3  0.75  0.0
323  0.35  0.75  0.0
324  0.4  0.75  0.0
325  0.45  0.75  0.0
326  0.5  0.75  0.0
327  0.55  0.75  0.0
328  0.6  0.75  0.0
329  0.65  0.75  0.0
330  0.7  0.75  0.0
331  0.75  0.75  0.0
332  0.8  0.75  0.0
333  0.85  0.75  0.0
334  0.9  0.75  0.0
335  0.95  0.75  0.0
336  1.0  0.75  0.0
337  0.0  0.8  0.0
338  0.05  0.8  0.0
339  0.1  0.8  0.0
340  0.15  0.8  0.0
341  0.2  0.8  0.0
342  0.25  0.8  0.0
343  0.3  0.8  0.0
344  0.35  0.8  0.0
345  0.4  0.8  0.0
346  0.45  0.8  0.0
347  0.5  0.8  0.0
348  0.55  0.8  0.0
349  0.6  0.8  0.0
350  0.65  0.8  0.0
351  0.7  0.8  0.0
352  0.75  0.8  0.0
353  0.8  0.8  0.0
354  0.85  0.8  0.0
355  0.9  0.8  0.0
356  0.95  0.8  0.0
357  1.0  0.8  0.0
358  0.0  0.85  0.0
359  0.05  0.85  0.0
360  0.1  0.85  0.0
361  0.15  0.85  0.0
362  0.2  0.85  0.0
363  0.25  0.85  0.0
364  0.3  0.85  0.0
365  0.35  0.85  0.0
366  0.4  0.85  0.0
367  0.45  0.85  0.0
368  0.5  0.85  0.0
369  0.55  0.85  0.0
370  0.6  0.85  0.0
371  0.65  0.85  0.0
372  0.7  0.85  0.0
373  0.75  0.85  0.0
374  0.8  0.85  0.0
375  0.85  0.85  0.0
376  0.9  0.85  0.0
377  0.95  0.85  0.0
378  1.0  0.85  0.0
379  0.0  0.9  0.0
380  0.05  0.9  0.0
381  0.1  0.9  0.0
382  0.15  0.9  0.0
383  0.2  0.9  0.0
384  0.25  0.9  0.0
385  0.3  0.9  0.0
386  0.35  0.9  0.0
387  0.4  0.9  0.0
388  0.45  0.9  0.0
389  0.5  0.9  0.0
390  0.55  0.9  0.0
391  0.6  0.9  0.0
392  0.65  0.9  0.0
393  0.7  0.9  0.0
394  0.75  0.9  0.0
395  0.8  0.9  0.0
396  0.85  0.9  0.0
397  0.9  0.9  0.0
398  0.95  0.9  0.0
399  1.0  0.9  0.0
400  0.0  0.95  0.0
401  0.05  0.95  0.0
402  0.1  0.95  0.0
403  0.15  0.95  0.0
404  0.2  0.95  0.0
405  0.25  0.95  0.0
406  0.3  0.95  0.0
407  0.35  0.95  0.0
408  0.4  0.95  0.0
409  0.45  0.95  0.0
410  0.5  0.95  0.0
411  0.55  0.95  0.0
412  0.6  0.95  0.0
413  0.65  0.95  0.0
414  0.7  0.95  0.0
415  0.75  0.95  0.0
416  0.8  0.95  0.0
417  0.85  0.95  0.0
418  0.9  0.95  0.0
419  0.95  0.95  0.0
420  1.0  0.95  0.0
421  0.0  1.0  0.0
422  0.05  1.0  0.0
423  0.1  1.0  0.0
424  0.15  1.0  0.0
425  0.2  1.0  0.0
426  0.25  1.0  0.0
427  0.3  1.0  0.0
428  0.35  1.0  0.0
429  0.4  1.0  0.0
430  0.45  1.0  0.0
431  0.5  1.0  0.0
432  0.55  1.0  0.0
433  0.6  1.0  0.0
434  0.65  1.0  0.0
435  0.7  1.0  0.0
436  0.75  1.0  0.0
437  0.8  1.0  0.0
438  0.85  1.0  0.0
439  0.9  1.0  0.0
440  0.95  1.0  0.0
441  1.0  1.0  0.0

[1D Elements]
#ElemNr  ElemType  NrOfNodes  Level
#Node1 Node2 ... NodeNrOfNodes

[2D Elements]
#ElemNr  ElemType  NrOfNodes  Level
#Node1 Node2 ... NodeNrOfNodes
1 6 4 mech
1 2 23 22
2 6 4 mech
2 3 24 23
3 6 4 mech
3 4 25 24
4 6 4 mech
4 5 26 25
5 6 4 mech
5 6 27 26
6 6 4 mech
6 7 28 27
7 6 4 mech
7 8 29 28
8 6 4 mech
8 9 30 29
9 6 4 mech
9 10 31 30
10 6 4 mech
10 11 32 31
11 6 4 mech
11 12 33 32
12 6 4 mech
12 13 34 33
13 6 4 mech
13 14 35 34
14 6 4 mech
14 15 36 35
15 6 4 mech
15 16 37 36
16 6 4 mech
16 17 38 37
17 6 4 mech
17 18 39 38
18 6 4 mech
18 19 40 39
19 6 4 mech
19 20 41 40
20 6 4 mech
20 21 42 41
21 6 4 mech
22 23 44 43
22 6 4 mech
23 24 45 44
23 6 4 mech
24 25 46 45
24 6 4 mech
25 26 47 46
25 6 4 mech
26 27 48 47
26 6 4 mech
27 28 49 48
27 6 4 mech
28 29 50 49
28 6 4 mech
29 30 51 50
29 6 4 mech
30 31 52 51
30 6 4 mech
31 32 53 52
31 6 4 mech
32 33 54 53
32 6 4 mech
33 34 55 54
33 6 4 mech
34 35 56 55
34 6 4 mech
35 36 57 56
35 6 4 mech
36 37 58 57
36 6 4 mech
37 38 59 58
37 6 4 mech
38 39 60 59
38 6 4 mech
39 40 61 60
39 6 4 mech
40 41 62 61
40 6 4 mech
41 42 63 62
41 6 4 mech
43 44 65 64
42 6 4 mech
44 45 66 65
43 6 4 mech
45 46 67 66
44 6 4 mech
46 47 68 67
45 6 4 mech
47 48 69 68
46 6 4 mech
48 49 70 69
47 6 4 mech
49 50 71 70
48 6 4 mech
50 51 72 71
49 6 4 mech
51 52 73 72
50 6 4 mech
52 53 74 73
51 6 4 mech
53 54 75 74
52 6 4 mech
54 55 76 75
53 6 4 mech
55 56 77 76
54 6 4 mech
56 57 78 77
55 6 4 mech
57 58 79 78
56 6 4 mech
58 59 80 79
57 6 4 mech
59 60 81 80
58 6 4 mech
60 61 82 81
59 6 4 mech
61 62 83 82
60 6 4 mech
62 63 84 83
61 6 4 mech
64 65 86 85
62 6 4 mech
65 66 87 86
63 6 4 mech
66 67 88 87
64 6 4 mech
67 68 89 88
65 6 4 mech
68 69 90 89
66 6 4 mech
69 70 91 90
67 6 4 mech
70 71 92 91
68 6 4 mech
71 72 93 92
69 6 4 mech
72 73 94 93
70 6 4 mech
73 74 95 94
71 6 4 mech
74 75 96 95
72 6 4 mech
75 76 97 96
73 6 4 mech
76 77 98 97
74 6 4 mech
77 78 99 98
75 6 4 mech
78 79 100 99
76 6 4 mech
79 80 101 100
77 6 4 mech
80 81 102 101
78 6 4 mech
81 82 103 102
79 6 4 mech
82 83 104 103
80 6 4 mech
83 84 105 104
81 6 4 mech
85 86 107 106
82 6 4 mech
86 87 108 107
83 6 4 mech
87 88 109 108
84 6 4 mech
88 89 110 109
85 6 4 mech
89 90 111 110
86 6 4 mech
90 91 112 111
87 6 4 mech
91 92 113 112
88 6 4 mech
92 93 114 113
89 6 4 mech
93 94 115 114
90 6 4 mech
94 95 116 115
91 6 4 mech
95 96 117 116
92 6 4 mech
96 97 118 117
93 6 4 mech
97 98 119 118
94 6 4 mech
98 99 120 119
95 6 4 mech
99 100 121 120
96 6 4 mech
100 101 122 121
97 6 4 mech
101 102 123 122
98 6 4 mech
102 103 124 123
99 6 4 mech
103 104 125 124
100 6 4 mech
104 105 126 125
101 6 4 mech
106 107 128 127
102 6 4 mech
107 108 129 128
103 6 4 mech
108 109 130 129
104 6 4 mech
109 110 131 130
105 6 4 mech
110 111 132 131
106 6 4 mech
111 112 133 132
107 6 4 mech
112 113 134 133
108 6 4 mech
113 114 135 134
109 6 4 mech
114 115 136 135
110 6 4 mech
115 116 137 136
111 6 4 mech
116 117 138 137
112 6 4 mech
117 118 139 138
113 6 4 mech
118 119 140 139
114 6 4 mech
119 120 141 140
115 6 4 mech
120 121 142 141
116 6 4 mech
121 122 143 142
117 6 4 mech
122 123 144 143
118 6 4 mech
123 124 145 144
119 6 4 mech
124 125 146 145
120 6 4 mech
125 126 147 146
121 6 4 mech
127 128 149 148
122 6 4 mech
128 129 150 149
123 6 4 mech
129 130 151 150
124 6 4 mech
130 131 152 151
125 6 4 mech
131 132 153 152
126 6 4 mech
132 133 154 153
127 6 4 mech
133 134 155 154
128 6 4 mech
134 135 156 155
129 6 4 mech
135 136 157 156
130 6 4 mech
136 137 158 157
131 6 4 mech
137 138 159 158
132 6 4 mech
138 139 160 159
133 6 4 mech
139 140 161 160
134 6 4 mech
140 141 162 161
135 6 4 mech
141 142 163 162
136 6 4 mech
142 143 164 163
137 6 4 mech
143 144 165 164
138 6 4 mech
144 145 166 165
139 6 4 mech
145 146 167 166
140 6 4 mech
146 147 168 167
141 6 4 mech
148 149 170 169
142 6 4 mech
149 150 171 170
143 6 4 mech
150 151 172 171
144 6 4 mech
151 152 173 172
145 6 4 mech
152 153 174 173
146 6 4 mech
153 154 175 174
147 6 4 mech
154 155 176 175
148 6 4 mech
155 156 177 176
149 6 4 mech
156 157 178 177
150 6 4 mech
157 158 179 178
151 6 4 mech
158 159 180 179
152 6 4 mech
159 160 181 180
153 6 4 mech
160 161 182 181
154 6 4 mech
161 162 183 182
155 6 4 mech
162 163 184 183
156 6 4 mech
163 164 185 184
157 6 4 mech
164 165 186 185
158 6 4 mech
165 166 187 186
159 6 4 mech
166 167 188 187
160 6 4 mech
167 168 189 188
161 6 4 mech
169 170 191 190
162 6 4 mech
170 171 192 191
163 6 4 mech
171 172 193 192
164 6 4 mech
172 173 194 193
165 6 4 mech
173 174 195 194
166 6 4 mech
174 175 196 195
167 6 4 mech
175 176 197 196
168 6 4 mech
176 177 198 197
169 6 4 mech
177 178 199 198
170 6 4 mech
178 179 200 199
171 6 4 mech
179 180 201 200
172 6 4 mech
180 181 202 201
173 6 4 mech
181 182 203 202
174 6 4 mech
182 183 204 203
175 6 4 mech
183 184 205 204
176 6 4 mech
184 185 206 205
177 6 4 mech
185 186 207 206
178 6 4 mech
186 187 208 207
179 6 4 mech
187 188 209 208
180 6 4 mech
188 189 210 209
181 6 4 mech
190 191 212 211
182 6 4 mech
191 192 213 212
183 6 4 mech
192 193 214 213
184 6 4 mech
193 194 215 214
185 6 4 mech
194 195 216 215
186 6 4 mech
195 196 217 216
187 6 4 mech
196 197 218 217
188 6 4 mech
197 198 219 218
189 6 4 mech
198 199 220 219
190 6 4 mech
199 200 221 220
191 6 4 mech
200 201 222 221
192 6 4 mech
201 202 223 222
193 6 4 mech
202 203 224 223
194 6 4 mech
203 204 225 224
195 6 4 mech
204 205 226 225
196 6 4 mech
205 206 227 226
197 6 4 mech
206 207 228 227
198 6 4 mech
207 208 229 228
199 6 4 mech
208 209 230 229
200 6 4 mech
209 210 231 230
201 6 4 mech
211 212 233 232
202 6 4 mech
212 213 234 233
203 6 4 mech
213 214 235 234
204 6 4 mech
214 215 236 235
205 6 4 mech
215 216 237 236
206 6 4 mech
216 217 238 237
207 6 4 mech
217 218 239 238
208 6 4 mech
218 219 240 239
209 6 4 mech
219 220 241 240
210 6 4 mech
220 221 242 241
211 6 4 mech
221 222 243 242
212 6 4 mech
222 223 244 243
213 6 4 mech
223 224 245 244
214 6 4 mech
224 225 246 245
215 6 4 mech
225 226 247 246
216 6 4 mech
226 227 248 247
217 6 4 mech
227 228 249 248
218 6 4 mech
228 229 250 249
219 6 4 mech
229 230 251 250
220 6 4 mech
230 231 252 251
221 6 4 mech
232 233 254 253
222 6 4 mech
233 234 255 254
223 6 4 mech
234 235 256 255
224 6 4 mech
235 236 257 256
225 6 4 mech
236 237 258 257
226 6 4 mech
237 238 259 258
227 6 4 mech
238 239 260 259
228 6 4 mech
239 240 261 260
229 6 4 mech
240 241 262 261
230 6 4 mech
241 242 263 262
231 6 4 mech
242 243 264 263
232 6 4 mech
243 244 265 264
233 6 4 mech
244 245 266 265
234 6 4 mech
245 246 267 266
235 6 4 mech
246 247 268 267
236 6 4 mech
247 248 269 268
237 6 4 mech
248 249 270 269
238 6 4 mech
249 250 271 270
239 6 4 mech
250 251 272 271
240 6 4 mech
251 252 273 272
241 6 4 mech
253 254 275 274
242 6 4 mech
254 255 276 275
243 6 4 mech
255 256 277 276
244 6 4 mech
256 257 278 277
245 6 4 mech
257 258 279 278
246 6 4 mech
258 259 280 279
247 6 4 mech
259 260 281 280
248 6 4 mech
260 261 282 281
249 6 4 mech
261 262 283 282
250 6 4 mech
262 263 284 283
251 6 4 mech
263 264 285 284
252 6 4 mech
264 265 286 285
253 6 4 mech
265 266 287 286
254 6 4 mech
266 267 288 287
255 6 4 mech
267 268 289 288
256 6 4 mech
268 269 290 289
257 6 4 mech
269 270 291 290
258 6 4 mech
270 271 292 291
259 6 4 mech
271 272 293 292
260 6 4 mech
272 273 294 293
261 6 4 mech
274 275 296 295
262 6 4 mech
275 276 297 296
263 6 4 mech
276 277 298 297
264 6 4 mech
277 278 299 298
265 6 4 mech
278 279 300 299
266 6 4 mech
279 280 301 300
267 6 4 mech
280 281 302 301
268 6 4 mech
281 282 303 302
269 6 4 mech
282 283 304 303
270 6 4 mech
283 284 305 304
271 6 4 mech
284 285 306 305
272 6 4 mech
285 286 307 306
273 6 4 mech
286 287 308 307
274 6 4 mech
287 288 309 308
275 6 4 mech
288 289 310 309
276 6 4 mech
289 290 311 310
277 6 4 mech
290 291 312 311
278 6 4 mech
291 292 313 312
279 6 4 mech
292 293 314 313
280 6 4 mech
293 294 315 314
281 6 4 mech
295 296 317 316
282 6 4 mech
296 297 318 317
283 6 4 mech
297 298 319 318
284 6 4 mech
298 299 320 319
285 6 4 mech
299 300 321 320
286 6 4 mech
300 301 322 321
287 6 4 mech
301 302 323 322
288 6 4 mech
302 303 324 323
289 6 4 mech
303 304 325 324
290 6 4 mech
304 305 326 325
291 6 4 mech
305 306 327 326
292 6 4 mech
306 307 328 327
293 6 4 mech
307 308 329 328
294 6 4 mech
308 309 330 329
295 6 4 mech
309 310 331 330
296 6 4 mech
310 311 332 331
297 6 4 mech
311 312 333 332
298 6 4 mech
312 313 334 333
299 6 4 mech
313 314 335 334
300 6 4 mech
314 315 336 335
301 6 4 mech
316 317 338 337
302 6 4 mech
317 318 339 338
303 6 4 mech
318 319 340 339
304 6 4 mech
319 320 341 340
305 6 4 mech
320 321 342 341
306 6 4 mech
321 322 343 342
307 6 4 mech
322 323 344 343
308 6 4 mech
323 324 345 344
309 6 4 mech
324 325 346 345
310 6 4 mech
325 326 347 346
311 6 4 mech
326 327 348 347
312 6 4 mech
327 328 349 348
313 6 4 mech
328 329 350 349
314 6 4 mech
329 330 351 350
315 6 4 mech
330 331 352 351
316 6 4 mech
331 332 353 352
317 6 4 mech
332 333 354 353
318 6 4 mech
333 334 355 354
319 6 4 mech
334 335 356 355
320 6 4 mech
335 336 357 356
321 6 4 mech
337 338 359 358
322 6 4 mech
338 339 360 359
323 6 4 mech
339 340 361 360
324 6 4 mech
340 341 362 361
325 6 4 mech
341 342 363 362
326 6 4 mech
342 343 364 363
327 6 4 mech
343 344 365 364
328 6 4 mech
344 345 366 365
329 6 4 mech
345 346 367 366
330 6 4 mech
346 347 368 367
331 6 4 mech
347 348 369 368
332 6 4 mech
348 349 370 369
333 6 4 mech
349 350 371 370
334 6 4 mech
350 351 372 371
335 6 4 mech
351 352 373 372
336 6 4 mech
352 353 374 373
337 6 4 mech
353 354 375 374
338 6 4 mech
354 355 376 375
339 6 4 mech
355 356 377 376
340 6 4 mech
356 357 378 377
341 6 4 mech
358 359 380 379
342 6 4 mech
359 360 381 380
343 6 4 mech
360 361 382 381
344 6 4 mech
361 362 383 382
345 6 4 mech
362 363 384 383
346 6 4 mech
363 364 385 384
347 6 4 mech
364 365 386 385
348 6 4 mech
365 366 387 386
349 6 4 mech
366 367 388 387
350 6 4 mech
367 368 389 388
351 6 4 mech
368 369 390 389
352 6 4 mech
369 370 391 390
353 6 4 mech
370 371 392 391
354 6 4 mech
371 372 393 392
355 6 4 mech
372 373 394 393
356 6 4 mech
373 374 395 394
357 6 4 mech
374 375 396 395
358 6 4 mech
375 376 397 396
359 6 4 mech
376 377 398 397
360 6 4 mech
377 378 399 398
361 6 4 mech
379 380 401 400
362 6 4 mech
380 381 402 401
363 6 4 mech
381 382 403 402
364 6 4 mech
382 383 404 403
365 6 4 mech
383 384 405 404
366 6 4 mech
384 385 406 405
367 6 4 mech
385 386 407 406
368 6 4 mech
386 387 408 407
369 6 4 mech
387 388 409 408
370 6 4 mech
388 389 410 409
371 6 4 mech
389 390 411 410
372 6 4 mech
390 391 412 411
373 6 4 mech
391 392 413 412
374 6 4 mech
392 393 414 413
375 6 4 mech
393 394 415 414
376 6 4 mech
394 395 416 415
377 6 4 mech
395 396 417 416
378 6 4 mech
396 397 418 417
379 6 4 mech
397 398 419 418
380 6 4 mech
398 399 420 419
381 6 4 mech
400 401 422 421
382 6 4 mech
401 402 423 422
383 6 4 mech
402 403 424 423
384 6 4 mech
403 404 425 424
385 6 4 mech
404 405 426 425
386 6 4 mech
405 406 427 426
387 6 4 mech
406 407 428 427
388 6 4 mech
407 408 429 428
389 6 4 mech
408 409 430 429
390 6 4 mech
409 410 431 430
391 6 4 mech
410 411 432 431
392 6 4 mech
411 412 433 432
393 6 4 mech
412 413 434 433
394 6 4 mech
413 414 435 434
395 6 4 mech
414 415 436 435
396 6 4 mech
415 416 437 436
397 6 4 mech
416 417 438 437
398 6 4 mech
417 418 439 438
399 6 4 mech
418 419 440 439
400 6 4 mech
419 420 441 440

[3D Elements]
#ElemNr  ElemType  NrOfNodes  Level
#Node1 Node2 ... NodeNrOfNodes

[Node BC]
#NodeNr Level
1 south
2 south
3 south
4 south
5 south
6 south
7 south
8 south
9 south
10 south
11 south
12 south
13 south
14 south
15 south
16 south
17 south
18 south
19 south
20 south
21 south
421 north
422 north
423 north
424 north
425 north
426 north
427 north
428 north
429 north
430 north
431 north
432 north
433 north
434 north
435 north
436 north
437 north
438 north
439 north
440 north
441 north
1 west
22 west
43 west
64 west
85 west
106 west
127 west
148 west
169 west
190 west
211 west
232 west
253 west
274 west
295 west
316 west
337 west
358 west
379 west
400 west
421 west
21 east
42 east
63 east
84 east
105 east
126 east
147 east
168 east
189 east
210 east
231 east
252 east
273 east
294 east
315 east
336 east
357 east
378 east
399 east
420 east
441 east
1 left_lower
21 right_lower
421 left_upper
441 right_upper

[Save Nodes]
#NodeNr Level

[Save Elements]
#ElemNr Level

 
