%%MatrixMarket matrix coordinate real symmetric
%
% Matrix exported by openCFS
%
66	66	948
     1	     1	  9.2603535585016829E+01
     2	     1	 -6.5277766203703691E-01
     3	     1	 -6.9444444444444575E-01
     4	     1	  9.9999999999999933E-01
     5	     1	  3.4722222222222232E-01
     8	     1	  4.5260101125841757E+01
     9	     1	  5.0000000000000000E-01
    10	     1	 -8.4722216435185205E-01
    14	     1	  6.9444444444444264E-01
    17	     1	 -3.4722222222222227E-01
    18	     1	 -1.0000000000000000E+00
    26	     1	 -5.0000000000000011E-01
    39	     1	  1.1111111111111122E-03
    40	     1	 -1.1111111111111122E-03
    41	     1	 -7.3318041015203519E-20
    42	     1	  7.3318041015203519E-20
    43	     1	  2.0090909090909104E-01
    46	     1	  1.1111111111111122E-03
    55	     1	 -7.2222222222222254E-01
    56	     1	  7.2222222222222088E-01
    57	     1	  4.5037749551350598E-01
    58	     1	 -4.5037749551350637E-01
    59	     1	 -1.8569202110021469E-17
    60	     1	  6.4934343434343432E+01
    61	     1	  1.8569202110021411E-17
    62	     1	  4.2781945736809732E+01
    64	     1	  7.2222222222222221E-01
    66	     1	  4.5037749551350631E-01
     2	     2	  1.6944446759259262E+00
     3	     2	 -3.4722222222222215E-01
     4	     2	 -9.9999999999999978E-01
     5	     2	  6.9444444444444442E-01
     8	     2	 -8.4722216435185205E-01
     9	     2	 -5.0000000000000011E-01
    10	     2	 -1.9444432870370357E-01
    14	     2	  3.4722222222222232E-01
    17	     2	 -6.9444444444444431E-01
    18	     2	  1.0000000000000000E+00
    26	     2	  5.0000000000000011E-01
     3	     3	  4.1542929395809956E+01
     4	     3	  4.4444444444444442E-01
     5	     3	  9.7222170781892880E-02
     8	     3	  6.9444444444444398E-01
     9	     3	 -4.4444444444444436E-01
    10	     3	  3.4722222222222221E-01
    14	     3	  1.9729798031238314E+01
    17	     3	  5.6944441872427976E-01
    18	     3	  2.2222222222222227E-01
    26	     3	 -2.2222222222222215E-01
    39	     3	 -1.0398870942913878E-02
    40	     3	 -1.7777777777777788E-02
    41	     3	  3.2145454545454566E+00
    42	     3	  8.8784900179459765E+00
    43	     3	  1.5641182083243405E-18
    44	     3	  1.7777777777777788E-02
    45	     3	  1.0398870942913878E-02
    55	     3	  1.7777777777777784E-01
    56	     3	  4.8888888888888909E-01
    57	     3	 -4.7849001794597512E-01
    58	     3	 -1.6000000000000000E-01
    59	     3	  1.5983838383838382E+01
    60	     3	 -1.1132135042221859E-15
    61	     3	  4.3955555555555570E+01
    62	     3	 -2.9794501009911919E-16
    63	     3	  1.7777777777777778E-01
    64	     3	 -1.2364845855271472E-17
    65	     3	  4.8888888888888898E-01
    66	     3	 -3.3131504614553064E-18
     4	     4	  2.0838383986531984E+01
     5	     4	  4.4444444444444442E-01
     8	     4	  5.0000000000000000E-01
     9	     4	  9.7525253265993275E+00
    10	     4	 -5.0000000000000011E-01
    14	     4	  2.2222222222222224E-01
    17	     4	  2.2222222222222213E-01
    18	     4	  8.9191919932659953E+00
    26	     4	  4.1262626632996637E+00
    39	     4	  5.9259259259259303E-02
    40	     4	  2.1548821548821567E-02
    41	     4	  7.1096282196560986E-19
    42	     4	  4.5206138644408075E-18
    43	     4	 -9.4795042928747929E-19
    55	     4	  7.0033670033669999E+00
    56	     4	  1.9259259259259252E+01
    57	     4	  1.2681481481481484E+01
    58	     4	  4.6114478114478104E+00
    59	     4	  1.8006499015778382E-16
    60	     4	  3.8127987303890656E-16
    61	     4	  6.8529289069945034E-16
    62	     4	  1.5483122924254463E-16
    64	     4	  7.1119534537919185E-18
    66	     4	  1.9056421845512790E-18
     5	     5	  1.1388889917695473E+00
     8	     5	 -3.4722222222222232E-01
     9	     5	 -4.4444444444444442E-01
    10	     5	 -6.9444444444444442E-01
    14	     5	  5.6944441872427998E-01
    17	     5	 -4.7222217078189305E-01
    18	     5	  2.2222222222222227E-01
    26	     5	 -2.2222222222222221E-01
     6	     6	  7.5782407629629617E+01
     7	     6	 -1.4583322222222228E-01
     8	     6	 -1.0416666666666692E+00
     9	     6	  6.6666666666666596E-01
    10	     6	 -5.2083333333333315E-01
    11	     6	  1.0416666666666636E+00
    12	     6	 -6.6666666666666807E-01
    13	     6	 -5.2083333333333326E-01
    26	     6	  3.3333333333333331E-01
    27	     6	  3.6328703814814816E+01
    28	     6	 -3.3333333333333370E-01
    29	     6	 -8.5416661111111114E-01
    39	     6	 -5.8666666666666833E-01
    40	     6	 -2.1333333333333368E-01
    41	     6	  2.3490370370370378E+01
    42	     6	  6.4598518518518517E+01
    43	     6	 -4.0636983087920837E-18
    44	     6	  2.1333333333333337E-01
    45	     6	  5.8666666666666689E-01
    57	     6	  5.8666666666666634E-01
    58	     6	  2.1333333333333326E-01
    62	     6	  4.0636983087920298E-18
     7	     7	  1.7083335555555552E+00
     8	     7	 -5.2083333333333326E-01
     9	     7	 -6.6666666666666674E-01
    10	     7	 -1.0416666666666665E+00
    11	     7	  5.2083333333333304E-01
    12	     7	  6.6666666666666652E-01
    13	     7	 -1.0416666666666665E+00
    26	     7	 -3.3333333333333337E-01
    27	     7	 -8.5416661111111114E-01
    28	     7	  3.3333333333333348E-01
    29	     7	 -7.0833322222222195E-01
     8	     8	  1.6838594321464652E+02
     9	     8	  1.6666666666666670E+00
    10	     8	 -7.9861088425925919E-01
    11	     8	  3.6328703814814808E+01
    12	     8	  3.3333333333333348E-01
    13	     8	  8.5416661111111125E-01
    14	     8	 -6.9444444444444475E-01
    17	     8	  3.4722222222222221E-01
    18	     8	 -5.0000000000000011E-01
    26	     8	 -1.6666666666666665E+00
    27	     8	  1.0416666666666659E+00
    28	     8	 -3.3333333333333315E-01
    29	     8	  5.2083333333333326E-01
    39	     8	  4.0376922760601508E-01
    40	     8	 -4.0376922760601469E-01
    41	     8	 -4.4941132930293193E-16
    42	     8	 -2.2247612824417600E-15
    43	     8	  4.4512055688218901E+01
    44	     8	 -4.1058102968513938E-18
    45	     8	 -2.0180318366823912E-17
    46	     8	  4.0376922760601480E-01
    55	     8	 -2.7777777777777785E-01
    56	     8	  2.7777777777777751E-01
    57	     8	  1.1447421657693684E+00
    58	     8	 -1.1447421657693679E+00
    59	     8	 -1.6125267409514685E-17
    60	     8	  2.4974747474747474E+01
    61	     8	  1.6125267409514673E-17
    62	     8	  1.2666670564567846E+02
    64	     8	  2.7777777777777779E-01
    66	     8	  1.1447421657693682E+00
     9	     9	  3.7974186597890018E+01
    10	     9	 -1.6666666666666665E+00
    11	     9	  3.3333333333333343E-01
    12	     9	  7.5679013056790145E+00
    13	     9	  3.3333333333333331E-01
    14	     9	 -2.2222222222222227E-01
    17	     9	 -2.2222222222222215E-01
    18	     9	  4.1262626632996637E+00
    26	     9	  1.6487093298945005E+01
    27	     9	  3.3333333333333331E-01
    28	     9	  3.2839506528395077E+00
    29	     9	 -3.3333333333333337E-01
    39	     9	  1.3175308641975313E+01
    40	     9	  4.7910213243546602E+00
    41	     9	 -3.6138181498494822E-17
    42	     9	  9.1299906287511400E-17
    43	     9	  4.7314046329030653E-17
    55	     9	  2.6936026936026929E+00
    56	     9	  7.4074074074074066E+00
    57	     9	  3.7491358024691365E+01
    58	     9	  1.3633221099887770E+01
    59	     9	  1.5636622942559693E-16
    60	     9	  1.1392582660281328E-16
    61	     9	  3.8557195454754100E-16
    62	     9	  2.9566115986969975E-17
    64	     9	  1.5201480787786552E-18
    66	     9	  4.0732245008446341E-19
    10	    10	  3.4027782314814807E+00
    11	    10	 -8.5416661111111081E-01
    12	    10	 -3.3333333333333326E-01
    13	    10	  7.0833322222222206E-01
    14	    10	 -3.4722222222222227E-01
    17	    10	  6.9444444444444431E-01
    18	    10	  5.0000000000000011E-01
    26	    10	  1.6666666666666665E+00
    27	    10	  5.2083333333333315E-01
    28	    10	  3.3333333333333326E-01
    29	    10	  1.0416666666666665E+00
    11	    11	  7.5782407629629617E+01
    12	    11	  6.6666666666666663E-01
    13	    11	  1.4583322222222198E-01
    26	    11	 -3.3333333333333309E-01
    27	    11	 -1.0416666666666670E+00
    28	    11	 -6.6666666666666574E-01
    29	    11	 -5.2083333333333304E-01
    39	    11	  5.8666666666666711E-01
    40	    11	 -5.8666666666666623E-01
    41	    11	 -4.3458322793021778E-16
    42	    11	 -2.2395893838144737E-15
    43	    11	  6.4598518518518517E+01
    44	    11	 -4.1058102968513938E-18
    45	    11	 -2.0180318366823912E-17
    46	    11	  5.8666666666666678E-01
    57	    11	  2.1333333333333346E-01
    58	    11	 -2.1333333333333326E-01
    62	    11	  2.3490370370370375E+01
    66	    11	  2.1333333333333337E-01
    12	    12	  1.7135802611358027E+01
    13	    12	  6.6666666666666630E-01
    26	    12	  3.2839506528395077E+00
    27	    12	 -3.3333333333333370E-01
    28	    12	  7.5679013056790172E+00
    29	    12	  3.3333333333333348E-01
    39	    12	  1.9120987654320988E+01
    40	    12	  6.9530864197530899E+00
    41	    12	 -2.0755088435591253E-16
    42	    12	 -1.2140408590339327E-16
    43	    12	  2.3672101061928904E-16
    57	    12	  6.9530864197530891E+00
    58	    12	  2.5283950617283963E+00
    62	    12	  4.8162350326424195E-17
    13	    13	  1.7083335555555550E+00
    26	    13	 -3.3333333333333331E-01
    27	    13	  5.2083333333333337E-01
    28	    13	 -6.6666666666666630E-01
    29	    13	  1.0416666666666665E+00
    14	    14	  1.0327861978582119E+02
    15	    14	  3.0173400750561154E+01
    16	    14	 -5.6481477623456799E-01
    17	    14	  5.3240727880658434E-01
    18	    14	  1.1111111111111112E+00
    19	    14	 -4.6296296296296252E-01
    20	    14	  3.3333333333333331E-01
    21	    14	 -2.3148148148148145E-01
    22	    14	  4.6296296296296313E-01
    25	    14	  2.3148148148148140E-01
    26	    14	 -1.1111111111111112E+00
    30	    14	 -3.3333333333333337E-01
    34	    14	  8.9821949935843861E-18
    35	    14	  4.2087542087542094E+00
    37	    14	 -8.6736173798840355E-18
    39	    14	 -3.7585467449456747E-02
    40	    14	 -3.8619412355378406E-02
    41	    14	  1.9826700452964488E+01
    42	    14	  6.1913707615067750E+00
    43	    14	  3.7839205784822611E-18
    44	    14	  3.8619412355378406E-02
    45	    14	  3.7585467449456747E-02
    47	    14	  2.3148148148148129E-01
    48	    14	 -2.3148148148148143E-01
    49	    14	  2.0812289562289561E+01
    50	    14	  8.6823625806726231E-18
    51	    14	 -8.6823625806725939E-18
    52	    14	  2.3148148148148140E-01
    55	    14	  8.1531101702302033E-01
    56	    14	  3.3035612008409881E-01
    57	    14	 -2.9277065263464203E-01
    58	    14	 -7.7669160466764231E-01
    59	    14	  9.8511288309576301E+01
    60	    14	 -1.3777836580085467E-15
    61	    14	  3.0814425024697055E+01
    62	    14	 -3.3575408053161394E-16
    63	    14	  8.1531101702302045E-01
    64	    14	 -1.4997819562744327E-17
    65	    14	  3.3035612008409876E-01
    66	    14	 -4.0186536400650367E-18
    15	    15	  6.1735690390011207E+01
    16	    15	 -4.3518510802469140E-01
    17	    15	  5.6481477623456799E-01
    18	    15	  3.3333333333333331E-01
    19	    15	  4.6296296296296385E-01
    20	    15	  6.6666666666666652E-01
    21	    15	  2.3148148148148145E-01
    22	    15	 -4.6296296296296158E-01
    25	    15	 -2.3148148148148140E-01
    26	    15	 -3.3333333333333337E-01
    30	    15	 -6.6666666666666652E-01
    34	    15	  1.9694883929316066E-17
    35	    15	  1.0942760942760941E+01
    37	    15	 -2.0816681711721685E-17
    39	    15	  1.8518518518518520E-04
    40	    15	  4.1963433403415674E-03
    41	    15	  7.2095835487275464E+00
    42	    15	  3.3855218855218881E-02
    43	    15	 -2.5951659060796339E-19
    44	    15	 -4.1963433403415665E-03
    45	    15	 -1.8518518518518520E-04
    47	    15	  6.0185185185185108E-01
    48	    15	 -6.0185185185185175E-01
    49	    15	  5.4111952861952851E+01
    50	    15	 -4.6268037893503344E-17
    51	    15	  4.6268037893503449E-17
    52	    15	  6.0185185185185164E-01
    55	    15	  3.5433286289288052E-01
    56	    15	 -5.4793429054483726E-19
    57	    15	 -1.8518518518518699E-04
    58	    15	 -3.5852920623322232E-01
    59	    15	  3.5672603164043139E+01
    60	    15	  1.0653699763764229E-18
    61	    15	  1.6835016835016842E-01
    62	    15	 -8.0585338576845626E-19
    63	    15	  3.5433286289288063E-01
    65	    15	 -5.4210108624275222E-20
    16	    16	  1.1296297839506169E+00
    17	    16	  1.2962955246913563E-01
    18	    16	 -3.3333333333333343E-01
    19	    16	  2.3148148148148137E-01
    20	    16	 -6.6666666666666652E-01
    21	    16	  4.6296296296296291E-01
    22	    16	 -2.3148148148148148E-01
    25	    16	 -4.6296296296296280E-01
    26	    16	  3.3333333333333331E-01
    30	    16	  6.6666666666666663E-01
    17	    17	  2.2685187757201639E+00
    18	    17	  1.1111111111111112E+00
    19	    17	  2.3148148148148140E-01
    20	    17	  3.3333333333333337E-01
    21	    17	  4.6296296296296291E-01
    22	    17	 -2.3148148148148145E-01
    25	    17	 -4.6296296296296285E-01
    26	    17	 -1.1111111111111112E+00
    30	    17	 -3.3333333333333331E-01
    18	    18	  5.1262626632996607E+01
    19	    18	  6.6666666666666630E-01
    20	    18	  1.4212121323232319E+01
    21	    18	 -6.6666666666666663E-01
    22	    18	  3.3333333333333343E-01
    25	    18	 -3.3333333333333343E-01
    26	    18	  2.3964646649831653E+01
    30	    18	  6.6060606616161612E+00
    34	    18	  2.8058361391694746E-02
    35	    18	  8.0170815751105420E-19
    36	    18	 -3.6852074637058352E-18
    39	    18	  4.1526374859708212E-02
    40	    18	  1.3243546576879919E-01
    41	    18	  4.0460644767801223E-19
    42	    18	  6.0632221247054652E-19
    43	    18	 -5.8642525952926669E-18
    47	    18	  9.1189674523007813E+00
    48	    18	  6.0044893378226707E+00
    49	    18	 -7.6223412720991879E-16
    50	    18	  5.1296071776482389E-16
    51	    18	  2.3358637952149628E-16
    52	    18	  1.3233626281606099E-18
    55	    18	  4.3041526374859700E+01
    56	    18	  1.3496071829405162E+01
    57	    18	  8.8866442199775566E+00
    58	    18	  2.8341189674523005E+01
    59	    18	 -1.0484192224739776E-15
    60	    18	 -1.6141062490467436E-15
    61	    18	  2.7709089922301280E-16
    62	    18	 -1.1865214652578902E-15
    63	    18	  3.5459394750916360E-19
    64	    18	  1.9056421845512790E-18
    66	    18	  5.1061528441319569E-19
    19	    19	  6.1735690390011214E+01
    20	    19	 -6.6666666666666718E-01
    21	    19	 -4.3518510802469146E-01
    22	    19	  3.0173400750561157E+01
    25	    19	 -5.6481477623456799E-01
    26	    19	  3.3333333333333331E-01
    30	    19	 -3.3333333333333348E-01
    34	    19	 -3.6567116034897290E-18
    35	    19	  4.0738049662596792E-17
    36	    19	  1.6835016835016853E-01
    37	    19	 -2.5598355489319346E-19
    38	    19	  5.4210108624275222E-19
    39	    19	 -1.8518518518518520E-04
    40	    19	  1.8518518518518539E-04
    41	    19	  1.0698482162434670E-17
    43	    19	  3.3855218855218881E-02
    44	    19	 -6.8590586809279159E-20
    46	    19	 -1.8518518518518520E-04
    47	    19	 -6.0185185185185219E-01
    48	    19	 -3.5433286289288074E-01
    49	    19	  1.1718703727557927E-15
    50	    19	 -5.4111952861952851E+01
    51	    19	 -3.5672603164043139E+01
    52	    19	  1.2387068707551826E-17
    53	    19	 -6.0185185185185164E-01
    54	    19	 -3.5433286289288063E-01
    55	    19	  6.0185185185185130E-01
    56	    19	 -1.3877787807814457E-17
    57	    19	 -4.1963433403415526E-03
    58	    19	  3.5852920623322215E-01
    59	    19	  2.4025743205525792E-16
    60	    19	  1.0942760942760943E+01
    62	    19	  7.2095835487275464E+00
    63	    19	  3.3191050567773432E-18
    64	    19	 -1.3877787807814457E-17
    66	    19	 -4.1963433403415526E-03
    20	    20	  3.0424242646464631E+01
    21	    20	  6.6666666666666663E-01
    22	    20	 -3.3333333333333348E-01
    25	    20	  3.3333333333333337E-01
    26	    20	  6.6060606616161612E+00
    30	    20	  1.4212121323232321E+01
    34	    20	  7.2951739618406314E-02
    35	    20	  1.5290015048681101E-18
    36	    20	 -1.9219795293505162E-18
    39	    20	  2.2446689113355799E-04
    40	    20	  4.8035914702581402E-02
    41	    20	  1.2828256195916251E-18
    43	    20	 -1.9678071674028954E-19
    47	    20	  2.3709315375982033E+01
    48	    20	  1.5611672278338940E+01
    49	    20	 -2.3034211937570625E-15
    50	    20	 -2.2667566419800661E-15
    51	    20	 -1.0207289631801463E-15
    52	    20	  6.1913004037920540E-18
    55	    20	  1.5611672278338940E+01
    56	    20	  7.2951739618406300E-02
    57	    20	  4.8035914702581374E-02
    58	    20	  1.0279685746352413E+01
    59	    20	 -1.1659725263673244E-15
    60	    20	 -6.3384406672299789E-17
    62	    20	 -4.1411851959448451E-17
    63	    20	  1.6589539432945651E-18
    21	    21	  1.1296297839506173E+00
    22	    21	 -5.6481477623456799E-01
    25	    21	 -1.2962955246913560E-01
    26	    21	 -3.3333333333333348E-01
    30	    21	  3.3333333333333348E-01
    22	    22	  1.0327861978582116E+02
    23	    22	  1.9729798031238307E+01
    24	    22	 -5.6944441872427987E-01
    25	    22	 -5.3240727880658467E-01
    26	    22	  1.1111111111111118E+00
    27	    22	 -6.9444444444444398E-01
    28	    22	  2.2222222222222235E-01
    29	    22	 -3.4722222222222215E-01
    30	    22	 -1.1111111111111116E+00
    31	    22	  6.9444444444444464E-01
    32	    22	 -2.2222222222222190E-01
    33	    22	  3.4722222222222221E-01
    34	    22	 -3.3035612008409848E-01
    35	    22	  4.4385430753409547E-16
    36	    22	  3.0814425024697055E+01
    37	    22	  2.5598355489319269E-19
    38	    22	  3.3035612008409870E-01
    39	    22	  3.7585467449456747E-02
    40	    22	  2.9277065263464225E-01
    41	    22	  1.1937153251307448E-16
    42	    22	 -1.3715099371293542E-18
    43	    22	  6.1913707615067732E+00
    44	    22	  6.8590586809278858E-20
    46	    22	  3.7585467449456747E-02
    47	    22	 -2.3148148148148143E-01
    48	    22	 -8.1531101702302067E-01
    49	    22	  9.5053674922942494E-16
    50	    22	 -2.0812289562289561E+01
    51	    22	 -9.8511288309576287E+01
    52	    22	  1.0415152474127998E-17
    53	    22	 -2.3148148148148137E-01
    54	    22	 -8.1531101702302045E-01
    55	    22	  2.3148148148148132E-01
    56	    22	 -5.2041704279304213E-18
    57	    22	  3.8619412355378413E-02
    58	    22	  7.7669160466764242E-01
    59	    22	  2.3679229102174027E-16
    60	    22	  4.2087542087542094E+00
    62	    22	  1.9826700452964488E+01
    63	    22	  2.7907316944896072E-18
    64	    22	 -5.2041704279304213E-18
    66	    22	  3.8619412355378427E-02
    23	    23	  4.1542929395809942E+01
    24	    23	 -9.7222170781892950E-02
    25	    23	 -5.6944441872427987E-01
    26	    23	  2.2222222222222235E-01
    27	    23	  6.9444444444444520E-01
    28	    23	  4.4444444444444436E-01
    29	    23	  3.4722222222222215E-01
    30	    23	 -2.2222222222222190E-01
    31	    23	 -6.9444444444444442E-01
    32	    23	 -4.4444444444444359E-01
    33	    23	 -3.4722222222222221E-01
    34	    23	 -4.8888888888888793E-01
    35	    23	  6.3191368979348051E-18
    36	    23	  4.3955555555555542E+01
    38	    23	  4.8888888888888871E-01
    39	    23	  1.0398870942913856E-02
    40	    23	  4.7849001794597495E-01
    41	    23	 -3.2538165046494106E-18
    42	    23	 -3.0653203932854268E-18
    43	    23	  8.8784900179459783E+00
    46	    23	  1.0398870942913863E-02
    48	    23	 -1.7777777777777759E-01
    51	    23	 -1.5983838383838382E+01
    54	    23	 -1.7777777777777778E-01
    57	    23	  1.7777777777777788E-02
    58	    23	  1.6000000000000014E-01
    62	    23	  3.2145454545454557E+00
    66	    23	  1.7777777777777788E-02
    24	    24	  1.1388889917695471E+00
    25	    24	 -4.7222217078189277E-01
    26	    24	 -2.2222222222222218E-01
    27	    24	  3.4722222222222227E-01
    28	    24	 -4.4444444444444436E-01
    29	    24	  6.9444444444444409E-01
    30	    24	  2.2222222222222227E-01
    31	    24	 -3.4722222222222210E-01
    32	    24	  4.4444444444444431E-01
    33	    24	 -6.9444444444444420E-01
    25	    25	  2.2685187757201644E+00
    26	    25	 -1.1111111111111114E+00
    27	    25	 -3.4722222222222227E-01
    28	    25	 -2.2222222222222218E-01
    29	    25	 -6.9444444444444409E-01
    30	    25	  1.1111111111111112E+00
    31	    25	  3.4722222222222210E-01
    32	    25	  2.2222222222222227E-01
    33	    25	  6.9444444444444420E-01
    26	    26	  8.9236813230886625E+01
    27	    26	  1.6666666666666665E+00
    28	    26	  1.6487093298945009E+01
    29	    26	 -1.6666666666666665E+00
    30	    26	  2.3964646649831650E+01
    31	    26	  4.9999999999999983E-01
    32	    26	  4.1262626632996646E+00
    33	    26	 -5.0000000000000000E-01
    34	    26	  5.1907968574635257E+00
    35	    26	  1.1711108367866910E-17
    36	    26	 -4.6165737774658547E-16
    39	    26	  9.0902356902356942E+00
    40	    26	  2.6109539842873179E+01
    41	    26	 -3.3818692072296700E-16
    42	    26	 -1.1736188823602725E-16
    43	    26	 -6.9514178074109031E-16
    47	    26	  3.5072951739618405E+00
    48	    26	  1.6554433221099888E+01
    49	    26	 -1.8850531320127512E-16
    50	    26	  1.3155094819200911E-16
    51	    26	  1.0380517513061423E-15
    52	    26	  2.8286281255865507E-19
    55	    26	  1.6554433221099888E+01
    56	    26	  5.1907968574635248E+00
    57	    26	  2.6109539842873183E+01
    58	    26	  7.9975757575757569E+01
    59	    26	 -1.5751941050520874E-17
    60	    26	 -6.7431008333369176E-16
    61	    26	  2.8252793676936477E-16
    62	    26	 -2.7791061135577175E-15
    63	    26	  7.5792862193887672E-20
    64	    26	  4.0732245008446331E-19
    66	    26	  1.0914172155919826E-19
    27	    27	  1.6838594321464652E+02
    28	    27	 -1.6666666666666670E+00
    29	    27	 -7.9861088425925941E-01
    30	    27	  4.9999999999999994E-01
    31	    27	  4.5260101125841757E+01
    32	    27	 -5.0000000000000022E-01
    33	    27	 -8.4722216435185183E-01
    34	    27	 -2.7777777777777790E-01
    35	    27	  2.4974747474747474E+01
    36	    27	  8.5832201322178263E-16
    37	    27	  2.7777777777777779E-01
    38	    27	  9.2657577661633523E-18
    39	    27	 -4.0376922760601525E-01
    40	    27	 -1.1447421657693682E+00
    41	    27	  1.2666670564567846E+02
    42	    27	  4.4512055688218908E+01
    43	    27	  3.4742893986875682E-16
    44	    27	  1.1447421657693679E+00
    45	    27	  4.0376922760601480E-01
    46	    27	  1.8493828954632006E-19
    48	    27	  2.7777777777777768E-01
    51	    27	 -2.4603041213248593E-16
    54	    27	 -3.0172317979387239E-18
    57	    27	  4.0376922760601469E-01
    58	    27	  1.1447421657693679E+00
    62	    27	  3.7842600778128245E-17
    66	    27	  3.7626836192519008E-20
    28	    28	  3.7974186597890032E+01
    29	    28	  1.6666666666666665E+00
    30	    28	  4.1262626632996646E+00
    31	    28	 -5.0000000000000011E-01
    32	    28	  9.7525253265993275E+00
    33	    28	  5.0000000000000000E-01
    34	    28	  7.4074074074074066E+00
    35	    28	 -9.5744498453558035E-17
    36	    28	 -8.2028464405924180E-16
    39	    28	  1.3175308641975313E+01
    40	    28	  3.7491358024691365E+01
    41	    28	 -8.1028278554624113E-16
    42	    28	 -4.7328781247016454E-16
    43	    28	 -1.4864535927637650E-15
    48	    28	  2.6936026936026938E+00
    51	    28	  2.4481120855453694E-16
    57	    28	  4.7910213243546593E+00
    58	    28	  1.3633221099887770E+01
    62	    28	 -3.8937007232937401E-16
    29	    29	  3.4027782314814812E+00
    30	    29	 -5.0000000000000000E-01
    31	    29	 -8.4722216435185183E-01
    32	    29	  5.0000000000000000E-01
    33	    29	 -1.9444432870370348E-01
    30	    30	  5.1262626632996628E+01
    31	    30	  9.9999999999999911E-01
    32	    30	  8.9191919932659953E+00
    33	    30	 -1.0000000000000000E+00
    34	    30	  1.3496071829405166E+01
    35	    30	  9.3431470070578636E-17
    36	    30	 -3.7051389427903874E-16
    39	    30	  4.1526374859708212E-02
    40	    30	  8.8866442199775548E+00
    41	    30	  5.3204335479947285E-18
    42	    30	 -5.7657928041043575E-19
    43	    30	 -3.5121518896224985E-17
    47	    30	  9.1189674523007813E+00
    48	    30	  4.3041526374859707E+01
    49	    30	 -5.0568751680638122E-16
    50	    30	 -7.0103087717429404E-16
    51	    30	 -5.2714667475628823E-16
    52	    30	  1.3233626281606099E-18
    55	    30	  6.0044893378226698E+00
    56	    30	  2.8058361391694733E-02
    57	    30	  1.3243546576879917E-01
    58	    30	  2.8341189674523008E+01
    59	    30	 -2.9901288404152919E-16
    60	    30	 -2.4164987295245833E-17
    62	    30	 -1.1299113193550576E-16
    63	    30	  3.5459394750916360E-19
    31	    31	  9.2603535585016814E+01
    32	    31	 -1.0000000000000007E+00
    33	    31	 -6.5277766203703713E-01
    34	    31	 -7.2222222222222299E-01
    35	    31	  6.4934343434343432E+01
    36	    31	 -2.1000835548498575E-16
    37	    31	  7.2222222222222221E-01
    38	    31	 -2.5952265179288594E-18
    39	    31	 -1.1111111111111141E-03
    40	    31	 -4.5037749551350648E-01
    41	    31	  4.2781945736809725E+01
    42	    31	  2.0090909090909098E-01
    43	    31	  2.9756476169783818E-17
    44	    31	  4.5037749551350620E-01
    45	    31	  1.1111111111111120E-03
    46	    31	 -1.8493828954631958E-19
    48	    31	  7.2222222222222165E-01
    51	    31	 -4.0538435266182485E-16
    54	    31	 -4.7682659203001793E-18
    57	    31	  1.1111111111111115E-03
    58	    31	  4.5037749551350609E-01
    62	    31	  5.5110076625571998E-18
    66	    31	 -3.7626836192518852E-20
    32	    32	  2.0838383986531976E+01
    33	    32	  9.9999999999999989E-01
    34	    32	  1.9259259259259249E+01
    35	    32	 -4.4793689901936573E-16
    36	    32	 -9.1201252551485632E-16
    39	    32	  5.9259259259259303E-02
    40	    32	  1.2681481481481480E+01
    41	    32	 -1.0569284892780740E-16
    42	    32	 -8.8870352745701521E-20
    43	    32	 -5.1129472958890682E-17
    48	    32	  7.0033670033670017E+00
    51	    32	  2.2619249886219621E-16
    57	    32	  2.1548821548821560E-02
    58	    32	  4.6114478114478112E+00
    62	    32	 -1.8306417368512880E-17
    33	    33	  1.6944446759259260E+00
    34	    34	  2.1535353757575752E+01
    35	    34	  1.3333333333333253E-01
    36	    34	  7.1453117981545855E-04
    37	    34	 -6.6666666666666630E-01
    38	    34	 -6.6666666666666630E-01
    40	    34	  9.7676768787878760E+00
    41	    34	  6.6666666666666374E-02
    44	    34	 -3.3333333333333320E-01
    48	    34	  9.7676768787878778E+00
    51	    34	 -1.6191458052598307E-02
    54	    34	  3.3333333333333320E-01
    58	    34	  4.3838384393939407E+00
    35	    35	  6.0872727494949501E+01
    36	    35	 -6.6666666666666674E-01
    37	    35	  2.0000011111111157E-01
    38	    35	 -3.3333333333333343E-01
    40	    35	  6.6666666666666430E-02
    41	    35	  2.9436363747474754E+01
    44	    35	 -3.9999994444444442E-01
    48	    35	 -1.3333333333333286E-01
    51	    35	 -6.6666666666666674E-01
    54	    35	 -3.3333333333333337E-01
    58	    35	 -6.6666666666666596E-02
    36	    36	  6.0607489890642462E+01
    37	    36	 -3.3333333333333343E-01
    38	    36	  3.3261891326462822E-01
    40	    36	 -7.1453117981734593E-04
    41	    36	  6.6666666666666674E-01
    44	    36	  3.3333333333333337E-01
    48	    36	  1.6191458052598251E-02
    51	    36	 -2.9335413330246620E+01
    54	    36	  3.4952473583037641E-01
    58	    36	 -1.6191458052598973E-02
    37	    37	  1.3333335555555554E+00
    38	    37	 -6.6666666666666685E-01
    40	    37	 -3.3333333333333326E-01
    41	    37	 -3.9999994444444453E-01
    44	    37	 -3.3333322222222261E-01
    48	    37	  6.6666666666666630E-01
    51	    37	 -3.3333333333333348E-01
    54	    37	 -6.6666666666666685E-01
    58	    37	  3.3333333333333320E-01
    38	    38	  1.3333335555555552E+00
    40	    38	  6.6666666666666630E-01
    41	    38	  3.3333333333333348E-01
    44	    38	  6.6666666666666685E-01
    48	    38	 -3.3333333333333320E-01
    51	    38	  3.4952473583037652E-01
    54	    38	  3.3333322222222261E-01
    58	    38	  3.3333333333333320E-01
    39	    39	  2.5953149492704831E+01
    40	    39	  1.1762810436588106E+01
    41	    39	  3.7505645580671543E-02
    42	    39	  1.1189776626367054E-01
    43	    39	 -1.1189776626367087E-01
    44	    39	 -3.3333333333333320E-01
    45	    39	 -6.6666666666666630E-01
    46	    39	  6.6666666666666630E-01
    57	    39	  1.1762810436588110E+01
    58	    39	  5.2848664977553339E+00
    62	    39	 -3.7505645580671931E-02
    66	    39	  3.3333333333333326E-01
    40	    40	  4.5350860152637480E+01
    41	    40	  3.8642427590831652E-01
    42	    40	  3.7505645580671432E-02
    43	    40	  1.1189776626366954E-01
    44	    40	 -1.3333333333333326E+00
    45	    40	 -3.3333333333333326E-01
    46	    40	 -6.6666666666666630E-01
    48	    40	  4.3838384393939407E+00
    51	    40	  1.6191458052598973E-02
    54	    40	 -3.3333333333333315E-01
    57	    40	  5.2848664977553348E+00
    58	    40	  2.0565100109988776E+01
    62	    40	  3.7505645580671432E-02
    66	    40	 -3.3333333333333315E-01
    41	    41	  1.2750146852488062E+02
    42	    41	  3.4204977732238788E+01
    43	    41	 -6.6666666666666674E-01
    44	    41	  2.8024261298057207E-01
    45	    41	 -3.7083892335844987E-01
    46	    41	 -3.3333333333333348E-01
    48	    41	 -6.6666666666666596E-02
    51	    41	  6.6666666666666674E-01
    54	    41	  3.3333333333333343E-01
    57	    41	 -3.7505645580672098E-02
    58	    41	 -3.8642427590831718E-01
    62	    41	  6.6666666666666674E-01
    66	    41	  3.3333333333333343E-01
    42	    42	  7.1518071849025674E+01
    43	    42	  6.6666666666666674E-01
    44	    42	 -3.7083892335844976E-01
    45	    42	  2.2143567818077367E-01
    46	    42	  3.3333333333333348E-01
    57	    42	 -1.1189776626367065E-01
    58	    42	 -3.7505645580671987E-02
    62	    42	 -6.6666666666666674E-01
    66	    42	 -3.3333333333333343E-01
    43	    43	  7.1518071849025688E+01
    44	    43	 -3.3333333333333337E-01
    45	    43	  3.3333333333333343E-01
    46	    43	  2.2143567818077373E-01
    57	    43	 -3.7505645580671876E-02
    58	    43	  3.7505645580671432E-02
    62	    43	  3.4204977732238781E+01
    66	    43	 -3.7083892335844976E-01
    44	    44	  2.6666671111111109E+00
    45	    44	 -3.3333322222222256E-01
    46	    44	 -6.6666666666666685E-01
    48	    44	  3.3333333333333315E-01
    51	    44	  3.3333333333333343E-01
    54	    44	  6.6666666666666685E-01
    57	    44	  3.3333333333333315E-01
    58	    44	  1.3333333333333326E+00
    62	    44	  3.3333333333333343E-01
    66	    44	  6.6666666666666685E-01
    45	    45	  1.3333335555555554E+00
    46	    45	  6.6666666666666685E-01
    57	    45	  6.6666666666666630E-01
    58	    45	  3.3333333333333320E-01
    62	    45	 -3.3333333333333348E-01
    66	    45	 -6.6666666666666685E-01
    46	    46	  1.3333335555555552E+00
    57	    46	  3.3333333333333326E-01
    58	    46	 -3.3333333333333315E-01
    62	    46	 -3.7083892335844987E-01
    66	    46	 -3.3333322222222261E-01
    47	    47	  2.1535353757575749E+01
    48	    47	  9.7676768787878760E+00
    49	    47	 -2.4424906617246344E-15
    50	    47	 -1.9984014565566249E-15
    51	    47	 -8.8817842450057636E-16
    52	    47	  6.6666666666666630E-01
    53	    47	  6.6666666666666630E-01
    54	    47	  3.3333333333333320E-01
    55	    47	  9.7676768787878760E+00
    58	    47	  4.3838384393939398E+00
    59	    47	 -9.4368957552237643E-16
    63	    47	  3.3333333333333320E-01
    48	    48	  4.3070707515151504E+01
    49	    48	 -7.7715611450631743E-16
    50	    48	 -7.7715612203806060E-16
    51	    48	 -3.6690255271498706E-01
    52	    48	 -6.6666666666666630E-01
    53	    48	  3.3333333333333320E-01
    54	    48	  1.3333333333333326E+00
    55	    48	  4.3838384393939398E+00
    58	    48	  1.9535353757575756E+01
    59	    48	 -3.8857805937054979E-16
    63	    48	 -3.3333333333333315E-01
    49	    49	  6.0606060828282828E+01
    50	    49	 -6.6666666666666685E-01
    51	    49	  6.6666666666666674E-01
    52	    49	  3.3333344444444463E-01
    53	    49	 -3.3333333333333343E-01
    54	    49	  3.3333333333333343E-01
    55	    49	 -8.8817842429111860E-16
    58	    49	 -3.3306690813929196E-16
    59	    49	  2.9303030414141418E+01
    63	    49	 -3.3333327777777783E-01
    50	    50	  6.0606060828282835E+01
    51	    50	  2.9303030414141418E+01
    52	    50	 -3.3333333333333348E-01
    53	    50	  3.3333344444444463E-01
    54	    50	 -3.3333327777777783E-01
    55	    50	  3.3306691059944043E-16
    58	    50	  1.1102230350439916E-16
    59	    50	  6.6666666666666685E-01
    63	    50	  3.3333333333333343E-01
    51	    51	  1.2194592676199564E+02
    52	    51	  3.3333333333333348E-01
    53	    51	 -3.3333327777777783E-01
    54	    51	  2.9976433617390313E-01
    55	    51	  1.6653345473565699E-16
    58	    51	  3.6690255271498706E-01
    59	    51	 -6.6666666666666674E-01
    63	    51	 -3.3333333333333348E-01
    52	    52	  1.3333335555555554E+00
    53	    52	 -6.6666666666666685E-01
    54	    52	  6.6666666666666685E-01
    55	    52	  3.3333333333333320E-01
    58	    52	 -3.3333333333333320E-01
    59	    52	 -3.3333327777777794E-01
    63	    52	 -3.3333322222222261E-01
    53	    53	  1.3333335555555552E+00
    54	    53	 -3.3333322222222261E-01
    55	    53	 -6.6666666666666630E-01
    58	    53	 -3.3333333333333320E-01
    59	    53	  3.3333333333333348E-01
    63	    53	  6.6666666666666685E-01
    54	    54	  2.6666671111111104E+00
    55	    54	 -3.3333333333333315E-01
    58	    54	 -1.3333333333333326E+00
    59	    54	 -3.3333333333333348E-01
    63	    54	 -6.6666666666666685E-01
    55	    55	  4.3070707515151497E+01
    56	    55	  9.7676768787878760E+00
    57	    55	  4.3838384393939398E+00
    58	    55	  1.9535353757575756E+01
    59	    55	 -3.6690255271498717E-01
    60	    55	  1.3333333333333164E-01
    61	    55	 -1.6191458052598362E-02
    62	    55	  6.6666666666665819E-02
    63	    55	  1.3333333333333326E+00
    64	    55	 -6.6666666666666630E-01
    65	    55	  3.3333333333333326E-01
    66	    55	 -3.3333333333333315E-01
    56	    56	  2.1535353757575756E+01
    57	    56	  9.7676768787878796E+00
    58	    56	  4.3838384393939407E+00
    59	    56	 -1.6191458052598362E-02
    60	    56	 -1.3333333333333364E-01
    61	    56	 -7.1453117981523651E-04
    62	    56	 -6.6666666666666763E-02
    63	    56	  3.3333333333333320E-01
    64	    56	  6.6666666666666630E-01
    65	    56	  6.6666666666666630E-01
    66	    56	  3.3333333333333326E-01
    57	    57	  4.5350860152637502E+01
    58	    57	  2.0565100109988784E+01
    59	    57	  1.6191458052598973E-02
    60	    57	 -6.6666666666666707E-02
    61	    57	  7.1453117981645775E-04
    62	    57	 -3.8642427590831707E-01
    63	    57	 -3.3333333333333320E-01
    64	    57	  3.3333333333333326E-01
    65	    57	 -6.6666666666666630E-01
    66	    57	  1.3333333333333326E+00
    58	    58	  8.7318268004489312E+01
    59	    58	  3.6690255271498562E-01
    60	    58	  6.6666666666665819E-02
    61	    58	  1.6191458052598862E-02
    62	    58	  3.8642427590831385E-01
    63	    58	 -1.3333333333333326E+00
    64	    58	 -3.3333333333333320E-01
    65	    58	 -3.3333333333333326E-01
    66	    58	 -1.3333333333333326E+00
    59	    59	  1.2194592676199561E+02
    60	    59	  6.6666666666666674E-01
    61	    59	  2.9335413330246613E+01
    62	    59	 -6.6666666666666674E-01
    63	    59	  2.9976433617390319E-01
    64	    59	  3.3333333333333348E-01
    65	    59	 -3.4952473583037652E-01
    66	    59	 -3.3333333333333348E-01
    60	    60	  6.0872727494949501E+01
    61	    60	 -6.6666666666666663E-01
    62	    60	  2.9436363747474754E+01
    63	    60	  3.3333333333333337E-01
    64	    60	  2.0000011111111135E-01
    65	    60	 -3.3333333333333343E-01
    66	    60	 -3.9999994444444437E-01
    61	    61	  6.0607489890642483E+01
    62	    61	  6.6666666666666674E-01
    63	    61	 -3.4952473583037641E-01
    64	    61	 -3.3333333333333348E-01
    65	    61	  3.3261891326462850E-01
    66	    61	  3.3333333333333348E-01
    62	    62	  1.2750146852488062E+02
    63	    62	 -3.3333333333333343E-01
    64	    62	 -3.9999994444444437E-01
    65	    62	  3.3333333333333348E-01
    66	    62	  2.8024261298057224E-01
    63	    63	  2.6666671111111109E+00
    64	    63	  6.6666666666666685E-01
    65	    63	 -3.3333322222222256E-01
    66	    63	 -6.6666666666666685E-01
    64	    64	  1.3333335555555552E+00
    65	    64	 -6.6666666666666685E-01
    66	    64	 -3.3333322222222261E-01
    65	    65	  1.3333335555555554E+00
    66	    65	  6.6666666666666685E-01
    66	    66	  2.6666671111111104E+00
