  #Iteration |      Jmerit |      J_phys |       J_vol |       J_reg |         tau |      lambda |         vol |   J_old - J |    n_subprb |      n_prox |        time
           0 |    0.951001 |    0.951001 |           0 |           0 |       1e-09 |           0 |           1 |           0 |           0 |           0 |           0
           1 |   0.0966257 |   0.0966257 |           0 |           0 |       1e-09 |           0 |           1 |    0.854375 |           1 |           0 |  0.00223033

WARNING: Algorithm not converged. Maximum number of iterations reached!
Computation time:
total time:             T = 0.00223033 s
eval_J():             t_J = 0.000140117 s = 0.063 T
eval_dJ():           t_dJ = 0.00182426 s = 0.818 T
solve subproblems:    t_s = 0.00026487 s = 0.119 T
